-41,48782158		[]				I	I	I	I	I	I	I	I	I	I	I	I	I	I
-0,016571227		[X0 X1 Y2 Y3]				X	X												
0,004284025		[X0 X1 Y2 Z3 Z4 Z5 Z6 Y7]				X	X												
-0,011752377		[X0 X1 Y2 Z3 Z4 Z5 Z6 Z7 Z8 Z9 Z10 Y11]				X	X												
0,004284025		[X0 X1 X3 Z4 Z5 X6]				X	X												
-0,011752377		[X0 X1 X3 Z4 Z5 Z6 Z7 Z8 Z9 X10]				X	X												
-0,004307725		[X0 X1 Y4 Y5]				X	X												
-0,00565356		[X0 X1 Y4 Z5 Z6 Z7 Z8 Z9 Z10 Z11 Z12 Y13]				X	X												
-0,00565356		[X0 X1 X5 Z6 Z7 Z8 Z9 Z10 Z11 X12]				X	X												
-0,008224165		[X0 X1 Y6 Y7]				X	X												
0,001073188		[X0 X1 Y6 Z7 Z8 Z9 Z10 Y11]				X	X												
0,001073188		[X0 X1 X7 Z8 Z9 X10]				X	X												
-0,006598834		[X0 X1 Y8 Y9]				X	X												
-0,008935932		[X0 X1 Y10 Y11]				X	X												
-0,00764123		[X0 X1 Y12 Y13]				X	X												
0,016571227		[X0 Y1 Y2 X3]				X	Y												
-0,004284025		[X0 Y1 Y2 Z3 Z4 Z5 Z6 X7]				X	Y												
0,011752377		[X0 Y1 Y2 Z3 Z4 Z5 Z6 Z7 Z8 Z9 Z10 X11]				X	X												
0,004284025		[X0 Y1 Y3 Z4 Z5 X6]				X	Y												
-0,011752377		[X0 Y1 Y3 Z4 Z5 Z6 Z7 Z8 Z9 X10]				X	X												
0,004307725		[X0 Y1 Y4 X5]				X	Y												
0,00565356		[X0 Y1 Y4 Z5 Z6 Z7 Z8 Z9 Z10 Z11 Z12 X13]				X	X												
-0,00565356		[X0 Y1 Y5 Z6 Z7 Z8 Z9 Z10 Z11 X12]				X	X												
0,008224165		[X0 Y1 Y6 X7]				X	Y												
-0,001073188		[X0 Y1 Y6 Z7 Z8 Z9 Z10 X11]				X	X												
0,001073188		[X0 Y1 Y7 Z8 Z9 X10]				X	X												
0,006598834		[X0 Y1 Y8 X9]				X	Y												
0,008935932		[X0 Y1 Y10 X11]				X	X												
0,00764123		[X0 Y1 Y12 X13]				X	X												
0,139193666		[X0 Z1 X2]				X	Z												
0,00315956		[X0 Z1 X2 X3 Z4 Z5 Z6 X7]				X	Z												
-0,002094847		[X0 Z1 X2 X3 Z4 Z5 Z6 Z7 Z8 Z9 Z10 X11]				X	X												
0,00315956		[X0 Z1 X2 Y3 Z4 Z5 Z6 Y7]				X	Z												
-0,002094847		[X0 Z1 X2 Y3 Z4 Z5 Z6 Z7 Z8 Z9 Z10 Y11]				X	Y												
0,00178448		[X0 Z1 X2 Z3]				X	Z												
-0,010746237		[X0 Z1 X2 X4 Z5 Z6 Z7 Z8 Z9 Z10 Z11 X12]				X	X												
-0,005819392		[X0 Z1 X2 Y4 Z5 Z6 Z7 Z8 Z9 Z10 Z11 Y12]				X	Y												
0,008273846		[X0 Z1 X2 Z4]				X	Z												
-0,003762933		[X0 Z1 X2 X5 Z6 Z7 Z8 Z9 Z10 Z11 Z12 X13]				X	X												
-0,003762933		[X0 Z1 X2 Y5 Z6 Z7 Z8 Z9 Z10 Z11 Z12 Y13]				X	Y												
0,001597025		[X0 Z1 X2 Z5]				X	Z												
-0,002710858		[X0 Z1 X2 X6 Z7 Z8 Z9 X10]				X	X												
-0,003271869		[X0 Z1 X2 Y6 Z7 Z8 Z9 Y10]				X	Y												
0,011216415		[X0 Z1 X2 Z6]				X	Z												
0,000646519		[X0 Z1 X2 X7 Z8 Z9 Z10 X11]				X	X												
0,000646519		[X0 Z1 X2 Y7 Z8 Z9 Z10 Y11]				X	Y												
0,006009873		[X0 Z1 X2 Z7]				X	Z												
0,01131567		[X0 Z1 X2 Z8]				X	Z												
0,00299913		[X0 Z1 X2 Z9]				X	Z												
0,000651327		[X0 Z1 X2 Z10]				X	Z												
0,00105253		[X0 Z1 X2 Z11]				X	Z												
0,006633926		[X0 Z1 X2 Z12]				X	Z												
0,003800794		[X0 Z1 X2 Z13]				X	Z												
-0,004926846		[X0 Z1 Y2 Y4 Z5 Z6 Z7 Z8 Z9 Z10 Z11 X12]				X	X												
0,000561011		[X0 Z1 Y2 Y6 Z7 Z8 Z9 X10]				X	X												
-0,006676821		[X0 Z1 Z2 X3 Y4 Y5]				X	Z												
-0,002056459		[X0 Z1 Z2 X3 Y4 Z5 Z6 Z7 Z8 Z9 Z10 Z11 Z12 Y13]				X	Y												
-0,006983305		[X0 Z1 Z2 X3 X5 Z6 Z7 Z8 Z9 Z10 Z11 X12]				X	X												
-0,005206541		[X0 Z1 Z2 X3 Y6 Y7]				X	Z												
-0,003918388		[X0 Z1 Z2 X3 Y6 Z7 Z8 Z9 Z10 Y11]				X	Y												
-0,003357377		[X0 Z1 Z2 X3 X7 Z8 Z9 X10]				X	X												
-0,00831654		[X0 Z1 Z2 X3 Y8 Y9]				X	Z												
0,000401203		[X0 Z1 Z2 X3 Y10 Y11]				X	Y												
-0,002833132		[X0 Z1 Z2 X3 Y12 Y13]				X	Y												
0,006676821		[X0 Z1 Z2 Y3 Y4 X5]				X	Z												
0,002056459		[X0 Z1 Z2 Y3 Y4 Z5 Z6 Z7 Z8 Z9 Z10 Z11 Z12 X13]				X	X												
-0,006983305		[X0 Z1 Z2 Y3 Y5 Z6 Z7 Z8 Z9 Z10 Z11 X12]				X	X												
0,005206541		[X0 Z1 Z2 Y3 Y6 X7]				X	Z												
0,003918388		[X0 Z1 Z2 Y3 Y6 Z7 Z8 Z9 Z10 X11]				X	X												
-0,003357377		[X0 Z1 Z2 Y3 Y7 Z8 Z9 X10]				X	X												
0,00831654		[X0 Z1 Z2 Y3 Y8 X9]				X	Z												
-0,000401203		[X0 Z1 Z2 Y3 Y10 X11]				X	X												
0,002833132		[X0 Z1 Z2 Y3 Y12 X13]				X	X												
-0,002203984		[X0 Z1 Z2 Z3 X4 X5 Z6 X7]				X	Z												
0,000942649		[X0 Z1 Z2 Z3 X4 X5 Z6 Z7 Z8 Z9 Z10 X11]				X	X												
-0,002203984		[X0 Z1 Z2 Z3 X4 Y5 Z6 Y7]				X	Z												
0,000942649		[X0 Z1 Z2 Z3 X4 Y5 Z6 Z7 Z8 Z9 Z10 Y11]				X	Y												
-0,000906347		[X0 Z1 Z2 Z3 X4 X6 Z7 Z8 Z9 Z10 Z11 X12]				X	X												
-0,002031293		[X0 Z1 Z2 Z3 X4 Y6 Z7 Z8 Z9 Z10 Z11 Y12]				X	Y												
-0,004038719		[X0 Z1 Z2 Z3 X4 X7 Z8 Z9 Z10 Z11 Z12 X13]				X	X												
-0,004038719		[X0 Z1 Z2 Z3 X4 Y7 Z8 Z9 Z10 Z11 Z12 Y13]				X	Y												
0,001841778		[X0 Z1 Z2 Z3 X4 X10 Z11 X12]				X	X												
0,006111327		[X0 Z1 Z2 Z3 X4 Y10 Z11 Y12]				X	Y												
0,003085982		[X0 Z1 Z2 Z3 X4 X11 Z12 X13]				X	X												
0,003085982		[X0 Z1 Z2 Z3 X4 Y11 Z12 Y13]				X	Y												
0,001124946		[X0 Z1 Z2 Z3 Y4 Y6 Z7 Z8 Z9 Z10 Z11 X12]				X	X												
-0,004269549		[X0 Z1 Z2 Z3 Y4 Y10 Z11 X12]				X	X												
0,002007426		[X0 Z1 Z2 Z3 Z4 X5 Y6 Z7 Z8 Z9 Z10 Z11 Z12 Y13]				X	Y												
0,003132372		[X0 Z1 Z2 Z3 Z4 X5 X7 Z8 Z9 Z10 Z11 X12]				X	X												
0,003025345		[X0 Z1 Z2 Z3 Z4 X5 Y10 Z11 Z12 Y13]				X	Y												
-0,001244204		[X0 Z1 Z2 Z3 Z4 X5 X11 X12]				X	X												
-0,002007426		[X0 Z1 Z2 Z3 Z4 Y5 Y6 Z7 Z8 Z9 Z10 Z11 Z12 X13]				X	X												
0,003132372		[X0 Z1 Z2 Z3 Z4 Y5 Y7 Z8 Z9 Z10 Z11 X12]				X	X												
-0,003025345		[X0 Z1 Z2 Z3 Z4 Y5 Y10 Z11 Z12 X13]				X	X												
-0,001244204		[X0 Z1 Z2 Z3 Z4 Y5 Y11 X12]				X	X												
-0,051423682		[X0 Z1 Z2 Z3 Z4 Z5 X6]				X	Z												
0,002047913		[X0 Z1 Z2 Z3 Z4 Z5 X6 X7 Z8 Z9 Z10 X11]				X	X												
0,002047913		[X0 Z1 Z2 Z3 Z4 Z5 X6 Y7 Z8 Z9 Z10 Y11]				X	Y												
0,004694969		[X0 Z1 Z2 Z3 Z4 Z5 X6 Z7]				X	Z												
-0,004921104		[X0 Z1 Z2 Z3 Z4 Z5 X6 Z8]				X	Z												
-0,001204868		[X0 Z1 Z2 Z3 Z4 Z5 X6 Z9]				X	Z												
-0,003854535		[X0 Z1 Z2 Z3 Z4 Z5 X6 Z10]				X	Z												
-0,004834371		[X0 Z1 Z2 Z3 Z4 Z5 X6 Z11]				X	Z												
-0,005442828		[X0 Z1 Z2 Z3 Z4 Z5 X6 Z12]				X	Z												
-0,000422814		[X0 Z1 Z2 Z3 Z4 Z5 X6 Z13]				X	Z												
0,003716237		[X0 Z1 Z2 Z3 Z4 Z5 Z6 X7 Y8 Y9]				X	Z												
-0,000979836		[X0 Z1 Z2 Z3 Z4 Z5 Z6 X7 Y10 Y11]				X	Y												
0,005020014		[X0 Z1 Z2 Z3 Z4 Z5 Z6 X7 Y12 Y13]				X	Y												
-0,003716237		[X0 Z1 Z2 Z3 Z4 Z5 Z6 Y7 Y8 X9]				X	Z												
0,000979836		[X0 Z1 Z2 Z3 Z4 Z5 Z6 Y7 Y10 X11]				X	X												
-0,005020014		[X0 Z1 Z2 Z3 Z4 Z5 Z6 Y7 Y12 X13]				X	X												
0,005342685		[X0 Z1 Z2 Z3 Z4 Z5 Z6 Z7 X8 X9 Z10 X11]				X	X												
0,005342685		[X0 Z1 Z2 Z3 Z4 Z5 Z6 Z7 X8 Y9 Z10 Y11]				X	Y												
0,083798992		[X0 Z1 Z2 Z3 Z4 Z5 Z6 Z7 Z8 Z9 X10]				X	X												
-0,00031941		[X0 Z1 Z2 Z3 Z4 Z5 Z6 Z7 Z8 Z9 X10 Z11]				X	X												
0,006174422		[X0 Z1 Z2 Z3 Z4 Z5 Z6 Z7 Z8 Z9 X10 Z12]				X	X												
0,002935198		[X0 Z1 Z2 Z3 Z4 Z5 Z6 Z7 Z8 Z9 X10 Z13]				X	X												
-0,003239223		[X0 Z1 Z2 Z3 Z4 Z5 Z6 Z7 Z8 Z9 Z10 X11 Y12 Y13]				X	X												
0,003239223		[X0 Z1 Z2 Z3 Z4 Z5 Z6 Z7 Z8 Z9 Z10 Y11 Y12 X13]				X	X												
0,001501928		[X0 Z1 Z2 Z3 Z4 Z5 Z6 Z7 Z8 X10]				X	X												
0,006844614		[X0 Z1 Z2 Z3 Z4 Z5 Z6 Z7 Z9 X10]				X	X												
0,005336733		[X0 Z1 Z2 Z3 Z4 Z5 Z6 Z8 Z9 X10]				X	X												
0,007384645		[X0 Z1 Z2 Z3 Z4 Z5 Z7 Z8 Z9 X10]				X	X												
-0,002017543		[X0 Z1 Z2 Z3 Z4 X6]				X	Z												
0,001033755		[X0 Z1 Z2 Z3 Z4 Z6 Z7 Z8 Z9 X10]				X	X												
-0,004221527		[X0 Z1 Z2 Z3 Z5 X6]				X	Z												
0,001976404		[X0 Z1 Z2 Z3 Z5 Z6 Z7 Z8 Z9 X10]				X	X												
-0,007801073		[X0 Z1 Z2 Z4 Z5 X6]				X	Z												
-0,000259457		[X0 Z1 Z2 Z4 Z5 Z6 Z7 Z8 Z9 X10]				X	X												
-0,004641513		[X0 Z1 Z3 Z4 Z5 X6]				X	Z												
-0,002354304		[X0 Z1 Z3 Z4 Z5 Z6 Z7 Z8 Z9 X10]				X	X												
0,108135804		[X0 X2]				X	I												
-0,045865571		[X0 Z2 Z3 Z4 Z5 X6]				X	I												
0,071124885		[X0 Z2 Z3 Z4 Z5 Z6 Z7 Z8 Z9 X10]				X	X												
0,016571227		[Y0 X1 X2 Y3]				Y	X												
-0,004284025		[Y0 X1 X2 Z3 Z4 Z5 Z6 Y7]				Y	X												
0,011752377		[Y0 X1 X2 Z3 Z4 Z5 Z6 Z7 Z8 Z9 Z10 Y11]				Y	X												
0,004284025		[Y0 X1 X3 Z4 Z5 Y6]				Y	X												
-0,011752377		[Y0 X1 X3 Z4 Z5 Z6 Z7 Z8 Z9 Y10]				Y	X												
0,004307725		[Y0 X1 X4 Y5]				Y	X												
0,00565356		[Y0 X1 X4 Z5 Z6 Z7 Z8 Z9 Z10 Z11 Z12 Y13]				Y	X												
-0,00565356		[Y0 X1 X5 Z6 Z7 Z8 Z9 Z10 Z11 Y12]				Y	X												
0,008224165		[Y0 X1 X6 Y7]				Y	X												
-0,001073188		[Y0 X1 X6 Z7 Z8 Z9 Z10 Y11]				Y	X												
0,001073188		[Y0 X1 X7 Z8 Z9 Y10]				Y	X												
0,006598834		[Y0 X1 X8 Y9]				Y	X												
0,008935932		[Y0 X1 X10 Y11]				Y	X												
0,00764123		[Y0 X1 X12 Y13]				Y	X												
-0,016571227		[Y0 Y1 X2 X3]				Y	Y												
0,004284025		[Y0 Y1 X2 Z3 Z4 Z5 Z6 X7]				Y	Y												
-0,011752377		[Y0 Y1 X2 Z3 Z4 Z5 Z6 Z7 Z8 Z9 Z10 X11]				Y	X												
0,004284025		[Y0 Y1 Y3 Z4 Z5 Y6]				Y	Y												
-0,011752377		[Y0 Y1 Y3 Z4 Z5 Z6 Z7 Z8 Z9 Y10]				Y	Y												
-0,004307725		[Y0 Y1 X4 X5]				Y	Y												
-0,00565356		[Y0 Y1 X4 Z5 Z6 Z7 Z8 Z9 Z10 Z11 Z12 X13]				Y	X												
-0,00565356		[Y0 Y1 Y5 Z6 Z7 Z8 Z9 Z10 Z11 Y12]				Y	Y												
-0,008224165		[Y0 Y1 X6 X7]				Y	Y												
0,001073188		[Y0 Y1 X6 Z7 Z8 Z9 Z10 X11]				Y	X												
0,001073188		[Y0 Y1 Y7 Z8 Z9 Y10]				Y	Y												
-0,006598834		[Y0 Y1 X8 X9]				Y	Y												
-0,008935932		[Y0 Y1 X10 X11]				Y	X												
-0,00764123		[Y0 Y1 X12 X13]				Y	X												
-0,004926846		[Y0 Z1 X2 X4 Z5 Z6 Z7 Z8 Z9 Z10 Z11 Y12]				Y	Y												
0,000561011		[Y0 Z1 X2 X6 Z7 Z8 Z9 Y10]				Y	Y												
0,139193666		[Y0 Z1 Y2]				Y	Z												
0,00315956		[Y0 Z1 Y2 X3 Z4 Z5 Z6 X7]				Y	Z												
-0,002094847		[Y0 Z1 Y2 X3 Z4 Z5 Z6 Z7 Z8 Z9 Z10 X11]				Y	X												
0,00315956		[Y0 Z1 Y2 Y3 Z4 Z5 Z6 Y7]				Y	Z												
-0,002094847		[Y0 Z1 Y2 Y3 Z4 Z5 Z6 Z7 Z8 Z9 Z10 Y11]				Y	Y												
0,00178448		[Y0 Z1 Y2 Z3]				Y	Z												
-0,005819392		[Y0 Z1 Y2 X4 Z5 Z6 Z7 Z8 Z9 Z10 Z11 X12]				Y	X												
-0,010746237		[Y0 Z1 Y2 Y4 Z5 Z6 Z7 Z8 Z9 Z10 Z11 Y12]				Y	Y												
0,008273846		[Y0 Z1 Y2 Z4]				Y	Z												
-0,003762933		[Y0 Z1 Y2 X5 Z6 Z7 Z8 Z9 Z10 Z11 Z12 X13]				Y	X												
-0,003762933		[Y0 Z1 Y2 Y5 Z6 Z7 Z8 Z9 Z10 Z11 Z12 Y13]				Y	Y												
0,001597025		[Y0 Z1 Y2 Z5]				Y	Z												
-0,003271869		[Y0 Z1 Y2 X6 Z7 Z8 Z9 X10]				Y	X												
-0,002710858		[Y0 Z1 Y2 Y6 Z7 Z8 Z9 Y10]				Y	Y												
0,011216415		[Y0 Z1 Y2 Z6]				Y	Z												
0,000646519		[Y0 Z1 Y2 X7 Z8 Z9 Z10 X11]				Y	X												
0,000646519		[Y0 Z1 Y2 Y7 Z8 Z9 Z10 Y11]				Y	Y												
0,006009873		[Y0 Z1 Y2 Z7]				Y	Z												
0,01131567		[Y0 Z1 Y2 Z8]				Y	Z												
0,00299913		[Y0 Z1 Y2 Z9]				Y	Z												
0,000651327		[Y0 Z1 Y2 Z10]				Y	Z												
0,00105253		[Y0 Z1 Y2 Z11]				Y	Z												
0,006633926		[Y0 Z1 Y2 Z12]				Y	Z												
0,003800794		[Y0 Z1 Y2 Z13]				Y	Z												
0,006676821		[Y0 Z1 Z2 X3 X4 Y5]				Y	Z												
0,002056459		[Y0 Z1 Z2 X3 X4 Z5 Z6 Z7 Z8 Z9 Z10 Z11 Z12 Y13]				Y	Y												
-0,006983305		[Y0 Z1 Z2 X3 X5 Z6 Z7 Z8 Z9 Z10 Z11 Y12]				Y	Y												
0,005206541		[Y0 Z1 Z2 X3 X6 Y7]				Y	Z												
0,003918388		[Y0 Z1 Z2 X3 X6 Z7 Z8 Z9 Z10 Y11]				Y	Y												
-0,003357377		[Y0 Z1 Z2 X3 X7 Z8 Z9 Y10]				Y	Y												
0,00831654		[Y0 Z1 Z2 X3 X8 Y9]				Y	Z												
-0,000401203		[Y0 Z1 Z2 X3 X10 Y11]				Y	X												
0,002833132		[Y0 Z1 Z2 X3 X12 Y13]				Y	X												
-0,006676821		[Y0 Z1 Z2 Y3 X4 X5]				Y	Z												
-0,002056459		[Y0 Z1 Z2 Y3 X4 Z5 Z6 Z7 Z8 Z9 Z10 Z11 Z12 X13]				Y	X												
-0,006983305		[Y0 Z1 Z2 Y3 Y5 Z6 Z7 Z8 Z9 Z10 Z11 Y12]				Y	Y												
-0,005206541		[Y0 Z1 Z2 Y3 X6 X7]				Y	Z												
-0,003918388		[Y0 Z1 Z2 Y3 X6 Z7 Z8 Z9 Z10 X11]				Y	X												
-0,003357377		[Y0 Z1 Z2 Y3 Y7 Z8 Z9 Y10]				Y	Y												
-0,00831654		[Y0 Z1 Z2 Y3 X8 X9]				Y	Z												
0,000401203		[Y0 Z1 Z2 Y3 X10 X11]				Y	X												
-0,002833132		[Y0 Z1 Z2 Y3 X12 X13]				Y	X												
0,001124946		[Y0 Z1 Z2 Z3 X4 X6 Z7 Z8 Z9 Z10 Z11 Y12]				Y	Y												
-0,004269549		[Y0 Z1 Z2 Z3 X4 X10 Z11 Y12]				Y	X												
-0,002203984		[Y0 Z1 Z2 Z3 Y4 X5 Z6 X7]				Y	Z												
0,000942649		[Y0 Z1 Z2 Z3 Y4 X5 Z6 Z7 Z8 Z9 Z10 X11]				Y	X												
-0,002203984		[Y0 Z1 Z2 Z3 Y4 Y5 Z6 Y7]				Y	Z												
0,000942649		[Y0 Z1 Z2 Z3 Y4 Y5 Z6 Z7 Z8 Z9 Z10 Y11]				Y	Y												
-0,002031293		[Y0 Z1 Z2 Z3 Y4 X6 Z7 Z8 Z9 Z10 Z11 X12]				Y	X												
-0,000906347		[Y0 Z1 Z2 Z3 Y4 Y6 Z7 Z8 Z9 Z10 Z11 Y12]				Y	Y												
-0,004038719		[Y0 Z1 Z2 Z3 Y4 X7 Z8 Z9 Z10 Z11 Z12 X13]				Y	X												
-0,004038719		[Y0 Z1 Z2 Z3 Y4 Y7 Z8 Z9 Z10 Z11 Z12 Y13]				Y	Y												
0,006111327		[Y0 Z1 Z2 Z3 Y4 X10 Z11 X12]				Y	X												
0,001841778		[Y0 Z1 Z2 Z3 Y4 Y10 Z11 Y12]				Y	Y												
0,003085982		[Y0 Z1 Z2 Z3 Y4 X11 Z12 X13]				Y	X												
0,003085982		[Y0 Z1 Z2 Z3 Y4 Y11 Z12 Y13]				Y	Y												
-0,002007426		[Y0 Z1 Z2 Z3 Z4 X5 X6 Z7 Z8 Z9 Z10 Z11 Z12 Y13]				Y	Y												
0,003132372		[Y0 Z1 Z2 Z3 Z4 X5 X7 Z8 Z9 Z10 Z11 Y12]				Y	Y												
-0,003025345		[Y0 Z1 Z2 Z3 Z4 X5 X10 Z11 Z12 Y13]				Y	X												
-0,001244204		[Y0 Z1 Z2 Z3 Z4 X5 X11 Y12]				Y	X												
0,002007426		[Y0 Z1 Z2 Z3 Z4 Y5 X6 Z7 Z8 Z9 Z10 Z11 Z12 X13]				Y	X												
0,003132372		[Y0 Z1 Z2 Z3 Z4 Y5 Y7 Z8 Z9 Z10 Z11 Y12]				Y	Y												
0,003025345		[Y0 Z1 Z2 Z3 Z4 Y5 X10 Z11 Z12 X13]				Y	X												
-0,001244204		[Y0 Z1 Z2 Z3 Z4 Y5 Y11 Y12]				Y	Y												
-0,051423682		[Y0 Z1 Z2 Z3 Z4 Z5 Y6]				Y	Z												
0,002047913		[Y0 Z1 Z2 Z3 Z4 Z5 Y6 X7 Z8 Z9 Z10 X11]				Y	X												
0,002047913		[Y0 Z1 Z2 Z3 Z4 Z5 Y6 Y7 Z8 Z9 Z10 Y11]				Y	Y												
0,004694969		[Y0 Z1 Z2 Z3 Z4 Z5 Y6 Z7]				Y	Z												
-0,004921104		[Y0 Z1 Z2 Z3 Z4 Z5 Y6 Z8]				Y	Z												
-0,001204868		[Y0 Z1 Z2 Z3 Z4 Z5 Y6 Z9]				Y	Z												
-0,003854535		[Y0 Z1 Z2 Z3 Z4 Z5 Y6 Z10]				Y	Z												
-0,004834371		[Y0 Z1 Z2 Z3 Z4 Z5 Y6 Z11]				Y	Z												
-0,005442828		[Y0 Z1 Z2 Z3 Z4 Z5 Y6 Z12]				Y	Z												
-0,000422814		[Y0 Z1 Z2 Z3 Z4 Z5 Y6 Z13]				Y	Z												
-0,003716237		[Y0 Z1 Z2 Z3 Z4 Z5 Z6 X7 X8 Y9]				Y	Z												
0,000979836		[Y0 Z1 Z2 Z3 Z4 Z5 Z6 X7 X10 Y11]				Y	X												
-0,005020014		[Y0 Z1 Z2 Z3 Z4 Z5 Z6 X7 X12 Y13]				Y	X												
0,003716237		[Y0 Z1 Z2 Z3 Z4 Z5 Z6 Y7 X8 X9]				Y	Z												
-0,000979836		[Y0 Z1 Z2 Z3 Z4 Z5 Z6 Y7 X10 X11]				Y	X												
0,005020014		[Y0 Z1 Z2 Z3 Z4 Z5 Z6 Y7 X12 X13]				Y	X												
0,005342685		[Y0 Z1 Z2 Z3 Z4 Z5 Z6 Z7 Y8 X9 Z10 X11]				Y	X												
0,005342685		[Y0 Z1 Z2 Z3 Z4 Z5 Z6 Z7 Y8 Y9 Z10 Y11]				Y	Y												
0,083798992		[Y0 Z1 Z2 Z3 Z4 Z5 Z6 Z7 Z8 Z9 Y10]				Y	Y												
-0,00031941		[Y0 Z1 Z2 Z3 Z4 Z5 Z6 Z7 Z8 Z9 Y10 Z11]				Y	Y												
0,006174422		[Y0 Z1 Z2 Z3 Z4 Z5 Z6 Z7 Z8 Z9 Y10 Z12]				Y	Y												
0,002935198		[Y0 Z1 Z2 Z3 Z4 Z5 Z6 Z7 Z8 Z9 Y10 Z13]				Y	Y												
0,003239223		[Y0 Z1 Z2 Z3 Z4 Z5 Z6 Z7 Z8 Z9 Z10 X11 X12 Y13]				Y	X												
-0,003239223		[Y0 Z1 Z2 Z3 Z4 Z5 Z6 Z7 Z8 Z9 Z10 Y11 X12 X13]				Y	X												
0,001501928		[Y0 Z1 Z2 Z3 Z4 Z5 Z6 Z7 Z8 Y10]				Y	Y												
0,006844614		[Y0 Z1 Z2 Z3 Z4 Z5 Z6 Z7 Z9 Y10]				Y	Y												
0,005336733		[Y0 Z1 Z2 Z3 Z4 Z5 Z6 Z8 Z9 Y10]				Y	Y												
0,007384645		[Y0 Z1 Z2 Z3 Z4 Z5 Z7 Z8 Z9 Y10]				Y	Y												
-0,002017543		[Y0 Z1 Z2 Z3 Z4 Y6]				Y	Z												
0,001033755		[Y0 Z1 Z2 Z3 Z4 Z6 Z7 Z8 Z9 Y10]				Y	Y												
-0,004221527		[Y0 Z1 Z2 Z3 Z5 Y6]				Y	Z												
0,001976404		[Y0 Z1 Z2 Z3 Z5 Z6 Z7 Z8 Z9 Y10]				Y	Y												
-0,007801073		[Y0 Z1 Z2 Z4 Z5 Y6]				Y	Z												
-0,000259457		[Y0 Z1 Z2 Z4 Z5 Z6 Z7 Z8 Z9 Y10]				Y	Y												
-0,004641513		[Y0 Z1 Z3 Z4 Z5 Y6]				Y	Z												
-0,002354304		[Y0 Z1 Z3 Z4 Z5 Z6 Z7 Z8 Z9 Y10]				Y	Y												
0,108135804		[Y0 Y2]				Y	I												
-0,045865571		[Y0 Z2 Z3 Z4 Z5 Y6]				Y	I												
0,071124885		[Y0 Z2 Z3 Z4 Z5 Z6 Z7 Z8 Z9 Y10]				Y	Y												
12,70174658		[Z0]				Z	I												
0,108135804		[Z0 X1 Z2 X3]				Z	X												
-0,045865571		[Z0 X1 Z2 Z3 Z4 Z5 Z6 X7]				Z	X												
0,071124885		[Z0 X1 Z2 Z3 Z4 Z5 Z6 Z7 Z8 Z9 Z10 X11]				Z	X												
0,108135804		[Z0 Y1 Z2 Y3]				Z	Y												
-0,045865571		[Z0 Y1 Z2 Z3 Z4 Z5 Z6 Y7]				Z	Y												
0,071124885		[Z0 Y1 Z2 Z3 Z4 Z5 Z6 Z7 Z8 Z9 Z10 Y11]				Z	Y												
1,184074043		[Z0 Z1]				Z	Z												
-0,00347787		[Z0 X2 Z3 Z4 Z5 X6]				Z	I												
-0,074963612		[Z0 X2 Z3 Z4 Z5 Z6 Z7 Z8 Z9 X10]				Z	X												
-0,00347787		[Z0 Y2 Z3 Z4 Z5 Y6]				Z	I												
-0,074963612		[Z0 Y2 Z3 Z4 Z5 Z6 Z7 Z8 Z9 Y10]				Z	Y												
0,258102724		[Z0 Z2]				Z	I												
0,000806155		[Z0 X3 Z4 Z5 Z6 X7]				Z	I												
-0,086715989		[Z0 X3 Z4 Z5 Z6 Z7 Z8 Z9 Z10 X11]				Z	X												
0,000806155		[Z0 Y3 Z4 Z5 Z6 Y7]				Z	I												
-0,086715989		[Z0 Y3 Z4 Z5 Z6 Z7 Z8 Z9 Z10 Y11]				Z	Y												
0,274673952		[Z0 Z3]				Z	I												
-0,077531331		[Z0 X4 Z5 Z6 Z7 Z8 Z9 Z10 Z11 X12]				Z	X												
-0,077531331		[Z0 Y4 Z5 Z6 Z7 Z8 Z9 Z10 Z11 Y12]				Z	Y												
0,243750551		[Z0 Z4]				Z	I												
-0,083184891		[Z0 X5 Z6 Z7 Z8 Z9 Z10 Z11 Z12 X13]				Z	X												
-0,083184891		[Z0 Y5 Z6 Z7 Z8 Z9 Z10 Z11 Z12 Y13]				Z	Y												
0,248058276		[Z0 Z5]				Z	I												
-0,014867503		[Z0 X6 Z7 Z8 Z9 X10]				Z	X												
-0,014867503		[Z0 Y6 Z7 Z8 Z9 Y10]				Z	Y												
0,269929115		[Z0 Z6]				Z	I												
-0,013794315		[Z0 X7 Z8 Z9 Z10 X11]				Z	X												
-0,013794315		[Z0 Y7 Z8 Z9 Z10 Y11]				Z	Y												
0,27815328		[Z0 Z7]				Z	I												
0,272218448		[Z0 Z8]				Z	I												
0,278817282		[Z0 Z9]				Z	I												
0,178998424		[Z0 Z10]				Z	Z												
0,187934356		[Z0 Z11]				Z	Z												
0,235487962		[Z0 Z12]				Z	Z												
0,243129191		[Z0 Z13]				Z	Z												
-0,00315956		[X1 X2 Y3 Z4 Z5 Y6]				I	X												
0,002094847		[X1 X2 Y3 Z4 Z5 Z6 Z7 Z8 Z9 Y10]				I	X												
-0,006676821		[X1 X2 X4 X5]				I	X												
-0,006983305		[X1 X2 X4 Z5 Z6 Z7 Z8 Z9 Z10 Z11 Z12 X13]				I	X												
-0,002056459		[X1 X2 Y5 Z6 Z7 Z8 Z9 Z10 Z11 Y12]				I	X												
-0,005206541		[X1 X2 X6 X7]				I	X												
-0,003357377		[X1 X2 X6 Z7 Z8 Z9 Z10 X11]				I	X												
-0,003918388		[X1 X2 Y7 Z8 Z9 Y10]				I	X												
-0,00831654		[X1 X2 X8 X9]				I	X												
0,000401203		[X1 X2 X10 X11]				I	X												
-0,002833132		[X1 X2 X12 X13]				I	X												
0,00315956		[X1 Y2 Y3 Z4 Z5 X6]				I	X												
-0,002094847		[X1 Y2 Y3 Z4 Z5 Z6 Z7 Z8 Z9 X10]				I	X												
-0,006676821		[X1 Y2 Y4 X5]				I	X												
-0,006983305		[X1 Y2 Y4 Z5 Z6 Z7 Z8 Z9 Z10 Z11 Z12 X13]				I	X												
0,002056459		[X1 Y2 Y5 Z6 Z7 Z8 Z9 Z10 Z11 X12]				I	X												
-0,005206541		[X1 Y2 Y6 X7]				I	X												
-0,003357377		[X1 Y2 Y6 Z7 Z8 Z9 Z10 X11]				I	X												
0,003918388		[X1 Y2 Y7 Z8 Z9 X10]				I	X												
-0,00831654		[X1 Y2 Y8 X9]				I	X												
0,000401203		[X1 Y2 Y10 X11]				I	X												
-0,002833132		[X1 Y2 Y12 X13]				I	X												
0,139193666		[X1 Z2 X3]				I	X												
-0,003762933		[X1 Z2 X3 X4 Z5 Z6 Z7 Z8 Z9 Z10 Z11 X12]				I	X												
-0,003762933		[X1 Z2 X3 Y4 Z5 Z6 Z7 Z8 Z9 Z10 Z11 Y12]				I	X												
0,001597025		[X1 Z2 X3 Z4]				I	X												
-0,010746237		[X1 Z2 X3 X5 Z6 Z7 Z8 Z9 Z10 Z11 Z12 X13]				I	X												
-0,005819392		[X1 Z2 X3 Y5 Z6 Z7 Z8 Z9 Z10 Z11 Z12 Y13]				I	X												
0,008273846		[X1 Z2 X3 Z5]				I	X												
0,000646519		[X1 Z2 X3 X6 Z7 Z8 Z9 X10]				I	X												
0,000646519		[X1 Z2 X3 Y6 Z7 Z8 Z9 Y10]				I	X												
0,006009873		[X1 Z2 X3 Z6]				I	X												
-0,002710858		[X1 Z2 X3 X7 Z8 Z9 Z10 X11]				I	X												
-0,003271869		[X1 Z2 X3 Y7 Z8 Z9 Z10 Y11]				I	X												
0,011216415		[X1 Z2 X3 Z7]				I	X												
0,00299913		[X1 Z2 X3 Z8]				I	X												
0,01131567		[X1 Z2 X3 Z9]				I	X												
0,00105253		[X1 Z2 X3 Z10]				I	X												
0,000651327		[X1 Z2 X3 Z11]				I	X												
0,003800794		[X1 Z2 X3 Z12]				I	X												
0,006633926		[X1 Z2 X3 Z13]				I	X												
-0,004926846		[X1 Z2 Y3 Y5 Z6 Z7 Z8 Z9 Z10 Z11 Z12 X13]				I	X												
0,000561011		[X1 Z2 Y3 Y7 Z8 Z9 Z10 X11]				I	X												
0,002203984		[X1 Z2 Z3 X4 Y5 Y6]				I	X												
-0,000942649		[X1 Z2 Z3 X4 Y5 Z6 Z7 Z8 Z9 Y10]				I	X												
0,003132372		[X1 Z2 Z3 X4 X6 Z7 Z8 Z9 Z10 Z11 Z12 X13]				I	X												
0,002007426		[X1 Z2 Z3 X4 Y7 Z8 Z9 Z10 Z11 Y12]				I	X												
-0,001244204		[X1 Z2 Z3 X4 X10 Z11 Z12 X13]				I	X												
0,003025345		[X1 Z2 Z3 X4 Y11 Y12]				I	X												
-0,002203984		[X1 Z2 Z3 Y4 Y5 X6]				I	X												
0,000942649		[X1 Z2 Z3 Y4 Y5 Z6 Z7 Z8 Z9 X10]				I	X												
0,003132372		[X1 Z2 Z3 Y4 Y6 Z7 Z8 Z9 Z10 Z11 Z12 X13]				I	X												
-0,002007426		[X1 Z2 Z3 Y4 Y7 Z8 Z9 Z10 Z11 X12]				I	X												
-0,001244204		[X1 Z2 Z3 Y4 Y10 Z11 Z12 X13]				I	X												
-0,003025345		[X1 Z2 Z3 Y4 Y11 X12]				I	X												
-0,004038719		[X1 Z2 Z3 Z4 X5 X6 Z7 Z8 Z9 Z10 Z11 X12]				I	X												
-0,004038719		[X1 Z2 Z3 Z4 X5 Y6 Z7 Z8 Z9 Z10 Z11 Y12]				I	X												
-0,000906347		[X1 Z2 Z3 Z4 X5 X7 Z8 Z9 Z10 Z11 Z12 X13]				I	X												
-0,002031293		[X1 Z2 Z3 Z4 X5 Y7 Z8 Z9 Z10 Z11 Z12 Y13]				I	X												
0,003085982		[X1 Z2 Z3 Z4 X5 X10 Z11 X12]				I	X												
0,003085982		[X1 Z2 Z3 Z4 X5 Y10 Z11 Y12]				I	X												
0,001841778		[X1 Z2 Z3 Z4 X5 X11 Z12 X13]				I	X												
0,006111327		[X1 Z2 Z3 Z4 X5 Y11 Z12 Y13]				I	X												
0,001124946		[X1 Z2 Z3 Z4 Y5 Y7 Z8 Z9 Z10 Z11 Z12 X13]				I	X												
-0,004269549		[X1 Z2 Z3 Z4 Y5 Y11 Z12 X13]				I	X												
-0,002047913		[X1 Z2 Z3 Z4 Z5 X6 Y7 Z8 Z9 Y10]				I	X												
0,003716237		[X1 Z2 Z3 Z4 Z5 X6 X8 X9]				I	X												
-0,000979836		[X1 Z2 Z3 Z4 Z5 X6 X10 X11]				I	X												
0,005020014		[X1 Z2 Z3 Z4 Z5 X6 X12 X13]				I	X												
0,002047913		[X1 Z2 Z3 Z4 Z5 Y6 Y7 Z8 Z9 X10]				I	X												
0,003716237		[X1 Z2 Z3 Z4 Z5 Y6 Y8 X9]				I	X												
-0,000979836		[X1 Z2 Z3 Z4 Z5 Y6 Y10 X11]				I	X												
0,005020014		[X1 Z2 Z3 Z4 Z5 Y6 Y12 X13]				I	X												
-0,051423682		[X1 Z2 Z3 Z4 Z5 Z6 X7]				I	X												
-0,001204868		[X1 Z2 Z3 Z4 Z5 Z6 X7 Z8]				I	X												
-0,004921104		[X1 Z2 Z3 Z4 Z5 Z6 X7 Z9]				I	X												
-0,004834371		[X1 Z2 Z3 Z4 Z5 Z6 X7 Z10]				I	X												
-0,003854535		[X1 Z2 Z3 Z4 Z5 Z6 X7 Z11]				I	X												
-0,000422814		[X1 Z2 Z3 Z4 Z5 Z6 X7 Z12]				I	X												
-0,005442828		[X1 Z2 Z3 Z4 Z5 Z6 X7 Z13]				I	X												
-0,005342685		[X1 Z2 Z3 Z4 Z5 Z6 Z7 X8 Y9 Y10]				I	X												
0,005342685		[X1 Z2 Z3 Z4 Z5 Z6 Z7 Y8 Y9 X10]				I	X												
-0,003239223		[X1 Z2 Z3 Z4 Z5 Z6 Z7 Z8 Z9 X10 X12 X13]				I	X												
-0,003239223		[X1 Z2 Z3 Z4 Z5 Z6 Z7 Z8 Z9 Y10 Y12 X13]				I	X												
0,083798992		[X1 Z2 Z3 Z4 Z5 Z6 Z7 Z8 Z9 Z10 X11]				I	X												
0,002935198		[X1 Z2 Z3 Z4 Z5 Z6 Z7 Z8 Z9 Z10 X11 Z12]				I	X												
0,006174422		[X1 Z2 Z3 Z4 Z5 Z6 Z7 Z8 Z9 Z10 X11 Z13]				I	X												
-0,00031941		[X1 Z2 Z3 Z4 Z5 Z6 Z7 Z8 Z9 X11]				I	X												
0,006844614		[X1 Z2 Z3 Z4 Z5 Z6 Z7 Z8 Z10 X11]				I	X												
0,001501928		[X1 Z2 Z3 Z4 Z5 Z6 Z7 Z9 Z10 X11]				I	X												
0,007384645		[X1 Z2 Z3 Z4 Z5 Z6 Z8 Z9 Z10 X11]				I	X												
0,004694969		[X1 Z2 Z3 Z4 Z5 X7]				I	X												
0,005336733		[X1 Z2 Z3 Z4 Z5 Z7 Z8 Z9 Z10 X11]				I	X												
-0,004221527		[X1 Z2 Z3 Z4 Z6 X7]				I	X												
0,001976404		[X1 Z2 Z3 Z4 Z6 Z7 Z8 Z9 Z10 X11]				I	X												
-0,002017543		[X1 Z2 Z3 Z5 Z6 X7]				I	X												
0,001033755		[X1 Z2 Z3 Z5 Z6 Z7 Z8 Z9 Z10 X11]				I	X												
-0,004641513		[X1 Z2 Z4 Z5 Z6 X7]				I	X												
-0,002354304		[X1 Z2 Z4 Z5 Z6 Z7 Z8 Z9 Z10 X11]				I	X												
0,00178448		[X1 X3]				I	X												
-0,007801073		[X1 Z3 Z4 Z5 Z6 X7]				I	X												
-0,000259457		[X1 Z3 Z4 Z5 Z6 Z7 Z8 Z9 Z10 X11]				I	X												
0,00315956		[Y1 X2 X3 Z4 Z5 Y6]				I	Y												
-0,002094847		[Y1 X2 X3 Z4 Z5 Z6 Z7 Z8 Z9 Y10]				I	Y												
-0,006676821		[Y1 X2 X4 Y5]				I	Y												
-0,006983305		[Y1 X2 X4 Z5 Z6 Z7 Z8 Z9 Z10 Z11 Z12 Y13]				I	Y												
0,002056459		[Y1 X2 X5 Z6 Z7 Z8 Z9 Z10 Z11 Y12]				I	Y												
-0,005206541		[Y1 X2 X6 Y7]				I	Y												
-0,003357377		[Y1 X2 X6 Z7 Z8 Z9 Z10 Y11]				I	Y												
0,003918388		[Y1 X2 X7 Z8 Z9 Y10]				I	Y												
-0,00831654		[Y1 X2 X8 Y9]				I	Y												
0,000401203		[Y1 X2 X10 Y11]				I	X												
-0,002833132		[Y1 X2 X12 Y13]				I	X												
-0,00315956		[Y1 Y2 X3 Z4 Z5 X6]				I	Y												
0,002094847		[Y1 Y2 X3 Z4 Z5 Z6 Z7 Z8 Z9 X10]				I	X												
-0,006676821		[Y1 Y2 Y4 Y5]				I	Y												
-0,006983305		[Y1 Y2 Y4 Z5 Z6 Z7 Z8 Z9 Z10 Z11 Z12 Y13]				I	Y												
-0,002056459		[Y1 Y2 X5 Z6 Z7 Z8 Z9 Z10 Z11 X12]				I	X												
-0,005206541		[Y1 Y2 Y6 Y7]				I	Y												
-0,003357377		[Y1 Y2 Y6 Z7 Z8 Z9 Z10 Y11]				I	Y												
-0,003918388		[Y1 Y2 X7 Z8 Z9 X10]				I	X												
-0,00831654		[Y1 Y2 Y8 Y9]				I	Y												
0,000401203		[Y1 Y2 Y10 Y11]				I	Y												
-0,002833132		[Y1 Y2 Y12 Y13]				I	Y												
-0,004926846		[Y1 Z2 X3 X5 Z6 Z7 Z8 Z9 Z10 Z11 Z12 Y13]				I	Y												
0,000561011		[Y1 Z2 X3 X7 Z8 Z9 Z10 Y11]				I	Y												
0,139193666		[Y1 Z2 Y3]				I	Y												
-0,003762933		[Y1 Z2 Y3 X4 Z5 Z6 Z7 Z8 Z9 Z10 Z11 X12]				I	X												
-0,003762933		[Y1 Z2 Y3 Y4 Z5 Z6 Z7 Z8 Z9 Z10 Z11 Y12]				I	Y												
0,001597025		[Y1 Z2 Y3 Z4]				I	Y												
-0,005819392		[Y1 Z2 Y3 X5 Z6 Z7 Z8 Z9 Z10 Z11 Z12 X13]				I	X												
-0,010746237		[Y1 Z2 Y3 Y5 Z6 Z7 Z8 Z9 Z10 Z11 Z12 Y13]				I	Y												
0,008273846		[Y1 Z2 Y3 Z5]				I	Y												
0,000646519		[Y1 Z2 Y3 X6 Z7 Z8 Z9 X10]				I	X												
0,000646519		[Y1 Z2 Y3 Y6 Z7 Z8 Z9 Y10]				I	Y												
0,006009873		[Y1 Z2 Y3 Z6]				I	Y												
-0,003271869		[Y1 Z2 Y3 X7 Z8 Z9 Z10 X11]				I	X												
-0,002710858		[Y1 Z2 Y3 Y7 Z8 Z9 Z10 Y11]				I	Y												
0,011216415		[Y1 Z2 Y3 Z7]				I	Y												
0,00299913		[Y1 Z2 Y3 Z8]				I	Y												
0,01131567		[Y1 Z2 Y3 Z9]				I	Y												
0,00105253		[Y1 Z2 Y3 Z10]				I	Y												
0,000651327		[Y1 Z2 Y3 Z11]				I	Y												
0,003800794		[Y1 Z2 Y3 Z12]				I	Y												
0,006633926		[Y1 Z2 Y3 Z13]				I	Y												
-0,002203984		[Y1 Z2 Z3 X4 X5 Y6]				I	Y												
0,000942649		[Y1 Z2 Z3 X4 X5 Z6 Z7 Z8 Z9 Y10]				I	Y												
0,003132372		[Y1 Z2 Z3 X4 X6 Z7 Z8 Z9 Z10 Z11 Z12 Y13]				I	Y												
-0,002007426		[Y1 Z2 Z3 X4 X7 Z8 Z9 Z10 Z11 Y12]				I	Y												
-0,001244204		[Y1 Z2 Z3 X4 X10 Z11 Z12 Y13]				I	X												
-0,003025345		[Y1 Z2 Z3 X4 X11 Y12]				I	X												
0,002203984		[Y1 Z2 Z3 Y4 X5 X6]				I	Y												
-0,000942649		[Y1 Z2 Z3 Y4 X5 Z6 Z7 Z8 Z9 X10]				I	X												
0,003132372		[Y1 Z2 Z3 Y4 Y6 Z7 Z8 Z9 Z10 Z11 Z12 Y13]				I	Y												
0,002007426		[Y1 Z2 Z3 Y4 X7 Z8 Z9 Z10 Z11 X12]				I	X												
-0,001244204		[Y1 Z2 Z3 Y4 Y10 Z11 Z12 Y13]				I	Y												
0,003025345		[Y1 Z2 Z3 Y4 X11 X12]				I	X												
0,001124946		[Y1 Z2 Z3 Z4 X5 X7 Z8 Z9 Z10 Z11 Z12 Y13]				I	Y												
-0,004269549		[Y1 Z2 Z3 Z4 X5 X11 Z12 Y13]				I	X												
-0,004038719		[Y1 Z2 Z3 Z4 Y5 X6 Z7 Z8 Z9 Z10 Z11 X12]				I	X												
-0,004038719		[Y1 Z2 Z3 Z4 Y5 Y6 Z7 Z8 Z9 Z10 Z11 Y12]				I	Y												
-0,002031293		[Y1 Z2 Z3 Z4 Y5 X7 Z8 Z9 Z10 Z11 Z12 X13]				I	X												
-0,000906347		[Y1 Z2 Z3 Z4 Y5 Y7 Z8 Z9 Z10 Z11 Z12 Y13]				I	Y												
0,003085982		[Y1 Z2 Z3 Z4 Y5 X10 Z11 X12]				I	X												
0,003085982		[Y1 Z2 Z3 Z4 Y5 Y10 Z11 Y12]				I	Y												
0,006111327		[Y1 Z2 Z3 Z4 Y5 X11 Z12 X13]				I	X												
0,001841778		[Y1 Z2 Z3 Z4 Y5 Y11 Z12 Y13]				I	Y												
0,002047913		[Y1 Z2 Z3 Z4 Z5 X6 X7 Z8 Z9 Y10]				I	Y												
0,003716237		[Y1 Z2 Z3 Z4 Z5 X6 X8 Y9]				I	Y												
-0,000979836		[Y1 Z2 Z3 Z4 Z5 X6 X10 Y11]				I	X												
0,005020014		[Y1 Z2 Z3 Z4 Z5 X6 X12 Y13]				I	X												
-0,002047913		[Y1 Z2 Z3 Z4 Z5 Y6 X7 Z8 Z9 X10]				I	X												
0,003716237		[Y1 Z2 Z3 Z4 Z5 Y6 Y8 Y9]				I	Y												
-0,000979836		[Y1 Z2 Z3 Z4 Z5 Y6 Y10 Y11]				I	Y												
0,005020014		[Y1 Z2 Z3 Z4 Z5 Y6 Y12 Y13]				I	Y												
-0,051423682		[Y1 Z2 Z3 Z4 Z5 Z6 Y7]				I	Y												
-0,001204868		[Y1 Z2 Z3 Z4 Z5 Z6 Y7 Z8]				I	Y												
-0,004921104		[Y1 Z2 Z3 Z4 Z5 Z6 Y7 Z9]				I	Y												
-0,004834371		[Y1 Z2 Z3 Z4 Z5 Z6 Y7 Z10]				I	Y												
-0,003854535		[Y1 Z2 Z3 Z4 Z5 Z6 Y7 Z11]				I	Y												
-0,000422814		[Y1 Z2 Z3 Z4 Z5 Z6 Y7 Z12]				I	Y												
-0,005442828		[Y1 Z2 Z3 Z4 Z5 Z6 Y7 Z13]				I	Y												
0,005342685		[Y1 Z2 Z3 Z4 Z5 Z6 Z7 X8 X9 Y10]				I	Y												
-0,005342685		[Y1 Z2 Z3 Z4 Z5 Z6 Z7 Y8 X9 X10]				I	X												
-0,003239223		[Y1 Z2 Z3 Z4 Z5 Z6 Z7 Z8 Z9 X10 X12 Y13]				I	X												
-0,003239223		[Y1 Z2 Z3 Z4 Z5 Z6 Z7 Z8 Z9 Y10 Y12 Y13]				I	Y												
0,083798992		[Y1 Z2 Z3 Z4 Z5 Z6 Z7 Z8 Z9 Z10 Y11]				I	Y												
0,002935198		[Y1 Z2 Z3 Z4 Z5 Z6 Z7 Z8 Z9 Z10 Y11 Z12]				I	Y												
0,006174422		[Y1 Z2 Z3 Z4 Z5 Z6 Z7 Z8 Z9 Z10 Y11 Z13]				I	Y												
-0,00031941		[Y1 Z2 Z3 Z4 Z5 Z6 Z7 Z8 Z9 Y11]				I	Y												
0,006844614		[Y1 Z2 Z3 Z4 Z5 Z6 Z7 Z8 Z10 Y11]				I	Y												
0,001501928		[Y1 Z2 Z3 Z4 Z5 Z6 Z7 Z9 Z10 Y11]				I	Y												
0,007384645		[Y1 Z2 Z3 Z4 Z5 Z6 Z8 Z9 Z10 Y11]				I	Y												
0,004694969		[Y1 Z2 Z3 Z4 Z5 Y7]				I	Y												
0,005336733		[Y1 Z2 Z3 Z4 Z5 Z7 Z8 Z9 Z10 Y11]				I	Y												
-0,004221527		[Y1 Z2 Z3 Z4 Z6 Y7]				I	Y												
0,001976404		[Y1 Z2 Z3 Z4 Z6 Z7 Z8 Z9 Z10 Y11]				I	Y												
-0,002017543		[Y1 Z2 Z3 Z5 Z6 Y7]				I	Y												
0,001033755		[Y1 Z2 Z3 Z5 Z6 Z7 Z8 Z9 Z10 Y11]				I	Y												
-0,004641513		[Y1 Z2 Z4 Z5 Z6 Y7]				I	Y												
-0,002354304		[Y1 Z2 Z4 Z5 Z6 Z7 Z8 Z9 Z10 Y11]				I	Y												
0,00178448		[Y1 Y3]				I	Y												
-0,007801073		[Y1 Z3 Z4 Z5 Z6 Y7]				I	Y												
-0,000259457		[Y1 Z3 Z4 Z5 Z6 Z7 Z8 Z9 Z10 Y11]				I	Y												
12,70174658		[Z1]				I	Z												
0,000806155		[Z1 X2 Z3 Z4 Z5 X6]				I	Z												
-0,086715989		[Z1 X2 Z3 Z4 Z5 Z6 Z7 Z8 Z9 X10]				I	X												
0,000806155		[Z1 Y2 Z3 Z4 Z5 Y6]				I	Z												
-0,086715989		[Z1 Y2 Z3 Z4 Z5 Z6 Z7 Z8 Z9 Y10]				I	Y												
0,274673952		[Z1 Z2]				I	Z												
-0,00347787		[Z1 X3 Z4 Z5 Z6 X7]				I	Z												
-0,074963612		[Z1 X3 Z4 Z5 Z6 Z7 Z8 Z9 Z10 X11]				I	X												
-0,00347787		[Z1 Y3 Z4 Z5 Z6 Y7]				I	Z												
-0,074963612		[Z1 Y3 Z4 Z5 Z6 Z7 Z8 Z9 Z10 Y11]				I	Y												
0,258102724		[Z1 Z3]				I	Z												
-0,083184891		[Z1 X4 Z5 Z6 Z7 Z8 Z9 Z10 Z11 X12]				I	X												
-0,083184891		[Z1 Y4 Z5 Z6 Z7 Z8 Z9 Z10 Z11 Y12]				I	Y												
0,248058276		[Z1 Z4]				I	Z												
-0,077531331		[Z1 X5 Z6 Z7 Z8 Z9 Z10 Z11 Z12 X13]				I	X												
-0,077531331		[Z1 Y5 Z6 Z7 Z8 Z9 Z10 Z11 Z12 Y13]				I	Y												
0,243750551		[Z1 Z5]				I	Z												
-0,013794315		[Z1 X6 Z7 Z8 Z9 X10]				I	X												
-0,013794315		[Z1 Y6 Z7 Z8 Z9 Y10]				I	Y												
0,27815328		[Z1 Z6]				I	Z												
-0,014867503		[Z1 X7 Z8 Z9 Z10 X11]				I	X												
-0,014867503		[Z1 Y7 Z8 Z9 Z10 Y11]				I	Y												
0,269929115		[Z1 Z7]				I	Z												
0,278817282		[Z1 Z8]				I	Z												
0,272218448		[Z1 Z9]				I	Z												
0,187934356		[Z1 Z10]				I	Z												
0,178998424		[Z1 Z11]				I	Z												
0,243129191		[Z1 Z12]				I	Z												
0,235487962		[Z1 Z13]				I	Z												
-0,04017092		[X2 X3 Y4 Y5]				I	I												
0,002827431		[X2 X3 Y4 Z5 Z6 Z7 Z8 Z9 Z10 Z11 Z12 Y13]				I	Y												
0,002827431		[X2 X3 X5 Z6 Z7 Z8 Z9 Z10 Z11 X12]				I	X												
-0,021650062		[X2 X3 Y6 Y7]				I	I												
-0,003973637		[X2 X3 Y6 Z7 Z8 Z9 Z10 Y11]				I	Y												
-0,003973637		[X2 X3 X7 Z8 Z9 X10]				I	X												
-0,037033145		[X2 X3 Y8 Y9]				I	I												
-0,022764818		[X2 X3 Y10 Y11]				I	Y												
-0,011395734		[X2 X3 Y12 Y13]				I	Y												
0,04017092		[X2 Y3 Y4 X5]				I	I												
-0,002827431		[X2 Y3 Y4 Z5 Z6 Z7 Z8 Z9 Z10 Z11 Z12 X13]				I	X												
0,002827431		[X2 Y3 Y5 Z6 Z7 Z8 Z9 Z10 Z11 X12]				I	X												
0,021650062		[X2 Y3 Y6 X7]				I	I												
0,003973637		[X2 Y3 Y6 Z7 Z8 Z9 Z10 X11]				I	X												
-0,003973637		[X2 Y3 Y7 Z8 Z9 X10]				I	X												
0,037033145		[X2 Y3 Y8 X9]				I	I												
0,022764818		[X2 Y3 Y10 X11]				I	X												
0,011395734		[X2 Y3 Y12 X13]				I	X												
-0,006812332		[X2 Z3 X4 X5 Z6 X7]				I	I												
-0,00713169		[X2 Z3 X4 X5 Z6 Z7 Z8 Z9 Z10 X11]				I	X												
-0,006812332		[X2 Z3 X4 Y5 Z6 Y7]				I	I												
-0,00713169		[X2 Z3 X4 Y5 Z6 Z7 Z8 Z9 Z10 Y11]				I	Y												
-0,011067328		[X2 Z3 X4 X6 Z7 Z8 Z9 Z10 Z11 X12]				I	X												
-0,003796818		[X2 Z3 X4 Y6 Z7 Z8 Z9 Z10 Z11 Y12]				I	Y												
-0,018468624		[X2 Z3 X4 X7 Z8 Z9 Z10 Z11 Z12 X13]				I	X												
-0,018468624		[X2 Z3 X4 Y7 Z8 Z9 Z10 Z11 Z12 Y13]				I	Y												
0,014866657		[X2 Z3 X4 X10 Z11 X12]				I	X												
0,006458354		[X2 Z3 X4 Y10 Z11 Y12]				I	Y												
0,022903683		[X2 Z3 X4 X11 Z12 X13]				I	X												
0,022903683		[X2 Z3 X4 Y11 Z12 Y13]				I	Y												
-0,00727051		[X2 Z3 Y4 Y6 Z7 Z8 Z9 Z10 Z11 X12]				I	X												
0,008408303		[X2 Z3 Y4 Y10 Z11 X12]				I	X												
0,014671806		[X2 Z3 Z4 X5 Y6 Z7 Z8 Z9 Z10 Z11 Z12 Y13]				I	Y												
0,007401296		[X2 Z3 Z4 X5 X7 Z8 Z9 Z10 Z11 X12]				I	X												
-0,01644533		[X2 Z3 Z4 X5 Y10 Z11 Z12 Y13]				I	Y												
-0,008037027		[X2 Z3 Z4 X5 X11 X12]				I	X												
-0,014671806		[X2 Z3 Z4 Y5 Y6 Z7 Z8 Z9 Z10 Z11 Z12 X13]				I	X												
0,007401296		[X2 Z3 Z4 Y5 Y7 Z8 Z9 Z10 Z11 X12]				I	X												
0,01644533		[X2 Z3 Z4 Y5 Y10 Z11 Z12 X13]				I	X												
-0,008037027		[X2 Z3 Z4 Y5 Y11 X12]				I	X												
-0,000775072		[X2 Z3 Z4 Z5 X6]				I	I												
0,004460833		[X2 Z3 Z4 Z5 X6 X7 Z8 Z9 Z10 X11]				I	X												
0,004460833		[X2 Z3 Z4 Z5 X6 Y7 Z8 Z9 Z10 Y11]				I	Y												
0,01585577		[X2 Z3 Z4 Z5 X6 Z7]				I	I												
-0,009410798		[X2 Z3 Z4 Z5 X6 Z8]				I	I												
0,002106874		[X2 Z3 Z4 Z5 X6 Z9]				I	I												
-0,007979829		[X2 Z3 Z4 Z5 X6 Z10]				I	Z												
-0,013952727		[X2 Z3 Z4 Z5 X6 Z11]				I	Z												
-0,005091882		[X2 Z3 Z4 Z5 X6 Z12]				I	Z												
-0,00260947		[X2 Z3 Z4 Z5 X6 Z13]				I	Z												
0,011517672		[X2 Z3 Z4 Z5 Z6 X7 Y8 Y9]				I	I												
-0,005972897		[X2 Z3 Z4 Z5 Z6 X7 Y10 Y11]				I	Y												
0,002482412		[X2 Z3 Z4 Z5 Z6 X7 Y12 Y13]				I	Y												
-0,011517672		[X2 Z3 Z4 Z5 Z6 Y7 Y8 X9]				I	I												
0,005972897		[X2 Z3 Z4 Z5 Z6 Y7 Y10 X11]				I	X												
-0,002482412		[X2 Z3 Z4 Z5 Z6 Y7 Y12 X13]				I	X												
0,01774559		[X2 Z3 Z4 Z5 Z6 Z7 X8 X9 Z10 X11]				I	X												
0,01774559		[X2 Z3 Z4 Z5 Z6 Z7 X8 Y9 Z10 Y11]				I	Y												
-0,318966241		[X2 Z3 Z4 Z5 Z6 Z7 Z8 Z9 X10]				I	X												
-0,016929713		[X2 Z3 Z4 Z5 Z6 Z7 Z8 Z9 X10 Z11]				I	X												
-0,02624505		[X2 Z3 Z4 Z5 Z6 Z7 Z8 Z9 X10 Z12]				I	X												
-0,019277804		[X2 Z3 Z4 Z5 Z6 Z7 Z8 Z9 X10 Z13]				I	X												
0,006967246		[X2 Z3 Z4 Z5 Z6 Z7 Z8 Z9 Z10 X11 Y12 Y13]				I	X												
-0,006967246		[X2 Z3 Z4 Z5 Z6 Z7 Z8 Z9 Z10 Y11 Y12 X13]				I	X												
-0,040707829		[X2 Z3 Z4 Z5 Z6 Z7 Z8 X10]				I	X												
-0,022962239		[X2 Z3 Z4 Z5 Z6 Z7 Z9 X10]				I	X												
-0,032573879		[X2 Z3 Z4 Z5 Z6 Z8 Z9 X10]				I	X												
-0,028113046		[X2 Z3 Z4 Z5 Z7 Z8 Z9 X10]				I	X												
-0,003458455		[X2 Z3 Z4 X6]				I	I												
-0,025309213		[X2 Z3 Z4 Z6 Z7 Z8 Z9 X10]				I	X												
-0,010270786		[X2 Z3 Z5 X6]				I	I												
-0,032440903		[X2 Z3 Z5 Z6 Z7 Z8 Z9 X10]				I	X												
-0,022559868		[X2 Z4 Z5 X6]				I	I												
-0,037632098		[X2 Z4 Z5 Z6 Z7 Z8 Z9 X10]				I	X												
0,04017092		[Y2 X3 X4 Y5]				I	I												
-0,002827431		[Y2 X3 X4 Z5 Z6 Z7 Z8 Z9 Z10 Z11 Z12 Y13]				I	Y												
0,002827431		[Y2 X3 X5 Z6 Z7 Z8 Z9 Z10 Z11 Y12]				I	Y												
0,021650062		[Y2 X3 X6 Y7]				I	I												
0,003973637		[Y2 X3 X6 Z7 Z8 Z9 Z10 Y11]				I	Y												
-0,003973637		[Y2 X3 X7 Z8 Z9 Y10]				I	Y												
0,037033145		[Y2 X3 X8 Y9]				I	I												
0,022764818		[Y2 X3 X10 Y11]				I	X												
0,011395734		[Y2 X3 X12 Y13]				I	X												
-0,04017092		[Y2 Y3 X4 X5]				I	I												
0,002827431		[Y2 Y3 X4 Z5 Z6 Z7 Z8 Z9 Z10 Z11 Z12 X13]				I	X												
0,002827431		[Y2 Y3 Y5 Z6 Z7 Z8 Z9 Z10 Z11 Y12]				I	Y												
-0,021650062		[Y2 Y3 X6 X7]				I	I												
-0,003973637		[Y2 Y3 X6 Z7 Z8 Z9 Z10 X11]				I	X												
-0,003973637		[Y2 Y3 Y7 Z8 Z9 Y10]				I	Y												
-0,037033145		[Y2 Y3 X8 X9]				I	I												
-0,022764818		[Y2 Y3 X10 X11]				I	X												
-0,011395734		[Y2 Y3 X12 X13]				I	X												
-0,00727051		[Y2 Z3 X4 X6 Z7 Z8 Z9 Z10 Z11 Y12]				I	Y												
0,008408303		[Y2 Z3 X4 X10 Z11 Y12]				I	X												
-0,006812332		[Y2 Z3 Y4 X5 Z6 X7]				I	I												
-0,00713169		[Y2 Z3 Y4 X5 Z6 Z7 Z8 Z9 Z10 X11]				I	X												
-0,006812332		[Y2 Z3 Y4 Y5 Z6 Y7]				I	I												
-0,00713169		[Y2 Z3 Y4 Y5 Z6 Z7 Z8 Z9 Z10 Y11]				I	Y												
-0,003796818		[Y2 Z3 Y4 X6 Z7 Z8 Z9 Z10 Z11 X12]				I	X												
-0,011067328		[Y2 Z3 Y4 Y6 Z7 Z8 Z9 Z10 Z11 Y12]				I	Y												
-0,018468624		[Y2 Z3 Y4 X7 Z8 Z9 Z10 Z11 Z12 X13]				I	X												
-0,018468624		[Y2 Z3 Y4 Y7 Z8 Z9 Z10 Z11 Z12 Y13]				I	Y												
0,006458354		[Y2 Z3 Y4 X10 Z11 X12]				I	X												
0,014866657		[Y2 Z3 Y4 Y10 Z11 Y12]				I	Y												
0,022903683		[Y2 Z3 Y4 X11 Z12 X13]				I	X												
0,022903683		[Y2 Z3 Y4 Y11 Z12 Y13]				I	Y												
-0,014671806		[Y2 Z3 Z4 X5 X6 Z7 Z8 Z9 Z10 Z11 Z12 Y13]				I	Y												
0,007401296		[Y2 Z3 Z4 X5 X7 Z8 Z9 Z10 Z11 Y12]				I	Y												
0,01644533		[Y2 Z3 Z4 X5 X10 Z11 Z12 Y13]				I	X												
-0,008037027		[Y2 Z3 Z4 X5 X11 Y12]				I	X												
0,014671806		[Y2 Z3 Z4 Y5 X6 Z7 Z8 Z9 Z10 Z11 Z12 X13]				I	X												
0,007401296		[Y2 Z3 Z4 Y5 Y7 Z8 Z9 Z10 Z11 Y12]				I	Y												
-0,01644533		[Y2 Z3 Z4 Y5 X10 Z11 Z12 X13]				I	X												
-0,008037027		[Y2 Z3 Z4 Y5 Y11 Y12]				I	Y												
-0,000775072		[Y2 Z3 Z4 Z5 Y6]				I	I												
0,004460833		[Y2 Z3 Z4 Z5 Y6 X7 Z8 Z9 Z10 X11]				I	X												
0,004460833		[Y2 Z3 Z4 Z5 Y6 Y7 Z8 Z9 Z10 Y11]				I	Y												
0,01585577		[Y2 Z3 Z4 Z5 Y6 Z7]				I	I												
-0,009410798		[Y2 Z3 Z4 Z5 Y6 Z8]				I	I												
0,002106874		[Y2 Z3 Z4 Z5 Y6 Z9]				I	I												
-0,007979829		[Y2 Z3 Z4 Z5 Y6 Z10]				I	Z												
-0,013952727		[Y2 Z3 Z4 Z5 Y6 Z11]				I	Z												
-0,005091882		[Y2 Z3 Z4 Z5 Y6 Z12]				I	Z												
-0,00260947		[Y2 Z3 Z4 Z5 Y6 Z13]				I	Z												
-0,011517672		[Y2 Z3 Z4 Z5 Z6 X7 X8 Y9]				I	I												
0,005972897		[Y2 Z3 Z4 Z5 Z6 X7 X10 Y11]				I	X												
-0,002482412		[Y2 Z3 Z4 Z5 Z6 X7 X12 Y13]				I	X												
0,011517672		[Y2 Z3 Z4 Z5 Z6 Y7 X8 X9]				I	I												
-0,005972897		[Y2 Z3 Z4 Z5 Z6 Y7 X10 X11]				I	X												
0,002482412		[Y2 Z3 Z4 Z5 Z6 Y7 X12 X13]				I	X												
0,01774559		[Y2 Z3 Z4 Z5 Z6 Z7 Y8 X9 Z10 X11]				I	X												
0,01774559		[Y2 Z3 Z4 Z5 Z6 Z7 Y8 Y9 Z10 Y11]				I	Y												
-0,318966241		[Y2 Z3 Z4 Z5 Z6 Z7 Z8 Z9 Y10]				I	Y												
-0,016929713		[Y2 Z3 Z4 Z5 Z6 Z7 Z8 Z9 Y10 Z11]				I	Y												
-0,02624505		[Y2 Z3 Z4 Z5 Z6 Z7 Z8 Z9 Y10 Z12]				I	Y												
-0,019277804		[Y2 Z3 Z4 Z5 Z6 Z7 Z8 Z9 Y10 Z13]				I	Y												
-0,006967246		[Y2 Z3 Z4 Z5 Z6 Z7 Z8 Z9 Z10 X11 X12 Y13]				I	X												
0,006967246		[Y2 Z3 Z4 Z5 Z6 Z7 Z8 Z9 Z10 Y11 X12 X13]				I	X												
-0,040707829		[Y2 Z3 Z4 Z5 Z6 Z7 Z8 Y10]				I	Y												
-0,022962239		[Y2 Z3 Z4 Z5 Z6 Z7 Z9 Y10]				I	Y												
-0,032573879		[Y2 Z3 Z4 Z5 Z6 Z8 Z9 Y10]				I	Y												
-0,028113046		[Y2 Z3 Z4 Z5 Z7 Z8 Z9 Y10]				I	Y												
-0,003458455		[Y2 Z3 Z4 Y6]				I	I												
-0,025309213		[Y2 Z3 Z4 Z6 Z7 Z8 Z9 Y10]				I	Y												
-0,010270786		[Y2 Z3 Z5 Y6]				I	I												
-0,032440903		[Y2 Z3 Z5 Z6 Z7 Z8 Z9 Y10]				I	Y												
-0,022559868		[Y2 Z4 Z5 Y6]				I	I												
-0,037632098		[Y2 Z4 Z5 Z6 Z7 Z8 Z9 Y10]				I	Y												
2,015040383		[Z2]				I	I												
-0,022559868		[Z2 X3 Z4 Z5 Z6 X7]				I	I												
-0,037632098		[Z2 X3 Z4 Z5 Z6 Z7 Z8 Z9 Z10 X11]				I	X												
-0,022559868		[Z2 Y3 Z4 Z5 Z6 Y7]				I	I												
-0,037632098		[Z2 Y3 Z4 Z5 Z6 Z7 Z8 Z9 Z10 Y11]				I	Y												
0,218909271		[Z2 Z3]				I	I												
-0,019392083		[Z2 X4 Z5 Z6 Z7 Z8 Z9 Z10 Z11 X12]				I	X												
-0,019392083		[Z2 Y4 Z5 Z6 Z7 Z8 Z9 Z10 Z11 Y12]				I	Y												
0,152825873		[Z2 Z4]				I	I												
-0,016564653		[Z2 X5 Z6 Z7 Z8 Z9 Z10 Z11 Z12 X13]				I	X												
-0,016564653		[Z2 Y5 Z6 Z7 Z8 Z9 Z10 Z11 Z12 Y13]				I	Y												
0,192996793		[Z2 Z5]				I	I												
-0,003652072		[Z2 X6 Z7 Z8 Z9 X10]				I	X												
-0,003652072		[Z2 Y6 Z7 Z8 Z9 Y10]				I	Y												
0,156238256		[Z2 Z6]				I	I												
-0,007625709		[Z2 X7 Z8 Z9 Z10 X11]				I	X												
-0,007625709		[Z2 Y7 Z8 Z9 Z10 Y11]				I	Y												
0,177888318		[Z2 Z7]				I	I												
0,160919944		[Z2 Z8]				I	I												
0,197953089		[Z2 Z9]				I	I												
0,132097653		[Z2 Z10]				I	Z												
0,154862471		[Z2 Z11]				I	Z												
0,162657218		[Z2 Z12]				I	Z												
0,174052952		[Z2 Z13]				I	Z												
0,006812332		[X3 X4 Y5 Y6]				I	I												
0,00713169		[X3 X4 Y5 Z6 Z7 Z8 Z9 Y10]				I	Y												
0,007401296		[X3 X4 X6 Z7 Z8 Z9 Z10 Z11 Z12 X13]				I	X												
0,014671806		[X3 X4 Y7 Z8 Z9 Z10 Z11 Y12]				I	Y												
-0,008037027		[X3 X4 X10 Z11 Z12 X13]				I	X												
-0,01644533		[X3 X4 Y11 Y12]				I	Y												
-0,006812332		[X3 Y4 Y5 X6]				I	I												
-0,00713169		[X3 Y4 Y5 Z6 Z7 Z8 Z9 X10]				I	X												
0,007401296		[X3 Y4 Y6 Z7 Z8 Z9 Z10 Z11 Z12 X13]				I	X												
-0,014671806		[X3 Y4 Y7 Z8 Z9 Z10 Z11 X12]				I	X												
-0,008037027		[X3 Y4 Y10 Z11 Z12 X13]				I	X												
0,01644533		[X3 Y4 Y11 X12]				I	X												
-0,018468624		[X3 Z4 X5 X6 Z7 Z8 Z9 Z10 Z11 X12]				I	X												
-0,018468624		[X3 Z4 X5 Y6 Z7 Z8 Z9 Z10 Z11 Y12]				I	Y												
-0,011067328		[X3 Z4 X5 X7 Z8 Z9 Z10 Z11 Z12 X13]				I	X												
-0,003796818		[X3 Z4 X5 Y7 Z8 Z9 Z10 Z11 Z12 Y13]				I	Y												
0,022903683		[X3 Z4 X5 X10 Z11 X12]				I	X												
0,022903683		[X3 Z4 X5 Y10 Z11 Y12]				I	Y												
0,014866657		[X3 Z4 X5 X11 Z12 X13]				I	X												
0,006458354		[X3 Z4 X5 Y11 Z12 Y13]				I	Y												
-0,00727051		[X3 Z4 Y5 Y7 Z8 Z9 Z10 Z11 Z12 X13]				I	X												
0,008408303		[X3 Z4 Y5 Y11 Z12 X13]				I	X												
-0,004460833		[X3 Z4 Z5 X6 Y7 Z8 Z9 Y10]				I	Y												
0,011517672		[X3 Z4 Z5 X6 X8 X9]				I	I												
-0,005972897		[X3 Z4 Z5 X6 X10 X11]				I	X												
0,002482412		[X3 Z4 Z5 X6 X12 X13]				I	X												
0,004460833		[X3 Z4 Z5 Y6 Y7 Z8 Z9 X10]				I	X												
0,011517672		[X3 Z4 Z5 Y6 Y8 X9]				I	I												
-0,005972897		[X3 Z4 Z5 Y6 Y10 X11]				I	X												
0,002482412		[X3 Z4 Z5 Y6 Y12 X13]				I	X												
-0,000775072		[X3 Z4 Z5 Z6 X7]				I	I												
0,002106874		[X3 Z4 Z5 Z6 X7 Z8]				I	I												
-0,009410798		[X3 Z4 Z5 Z6 X7 Z9]				I	I												
-0,013952727		[X3 Z4 Z5 Z6 X7 Z10]				I	Z												
-0,007979829		[X3 Z4 Z5 Z6 X7 Z11]				I	Z												
-0,00260947		[X3 Z4 Z5 Z6 X7 Z12]				I	Z												
-0,005091882		[X3 Z4 Z5 Z6 X7 Z13]				I	Z												
-0,01774559		[X3 Z4 Z5 Z6 Z7 X8 Y9 Y10]				I	Y												
0,01774559		[X3 Z4 Z5 Z6 Z7 Y8 Y9 X10]				I	X												
0,006967246		[X3 Z4 Z5 Z6 Z7 Z8 Z9 X10 X12 X13]				I	X												
0,006967246		[X3 Z4 Z5 Z6 Z7 Z8 Z9 Y10 Y12 X13]				I	X												
-0,318966241		[X3 Z4 Z5 Z6 Z7 Z8 Z9 Z10 X11]				I	X												
-0,019277804		[X3 Z4 Z5 Z6 Z7 Z8 Z9 Z10 X11 Z12]				I	X												
-0,02624505		[X3 Z4 Z5 Z6 Z7 Z8 Z9 Z10 X11 Z13]				I	X												
-0,016929713		[X3 Z4 Z5 Z6 Z7 Z8 Z9 X11]				I	X												
-0,022962239		[X3 Z4 Z5 Z6 Z7 Z8 Z10 X11]				I	X												
-0,040707829		[X3 Z4 Z5 Z6 Z7 Z9 Z10 X11]				I	X												
-0,028113046		[X3 Z4 Z5 Z6 Z8 Z9 Z10 X11]				I	X												
0,01585577		[X3 Z4 Z5 X7]				I	I												
-0,032573879		[X3 Z4 Z5 Z7 Z8 Z9 Z10 X11]				I	X												
-0,010270786		[X3 Z4 Z6 X7]				I	I												
-0,032440903		[X3 Z4 Z6 Z7 Z8 Z9 Z10 X11]				I	X												
-0,003458455		[X3 Z5 Z6 X7]				I	I												
-0,025309213		[X3 Z5 Z6 Z7 Z8 Z9 Z10 X11]				I	X												
-0,006812332		[Y3 X4 X5 Y6]				I	I												
-0,00713169		[Y3 X4 X5 Z6 Z7 Z8 Z9 Y10]				I	Y												
0,007401296		[Y3 X4 X6 Z7 Z8 Z9 Z10 Z11 Z12 Y13]				I	Y												
-0,014671806		[Y3 X4 X7 Z8 Z9 Z10 Z11 Y12]				I	Y												
-0,008037027		[Y3 X4 X10 Z11 Z12 Y13]				I	X												
0,01644533		[Y3 X4 X11 Y12]				I	X												
0,006812332		[Y3 Y4 X5 X6]				I	I												
0,00713169		[Y3 Y4 X5 Z6 Z7 Z8 Z9 X10]				I	X												
0,007401296		[Y3 Y4 Y6 Z7 Z8 Z9 Z10 Z11 Z12 Y13]				I	Y												
0,014671806		[Y3 Y4 X7 Z8 Z9 Z10 Z11 X12]				I	X												
-0,008037027		[Y3 Y4 Y10 Z11 Z12 Y13]				I	Y												
-0,01644533		[Y3 Y4 X11 X12]				I	X												
-0,00727051		[Y3 Z4 X5 X7 Z8 Z9 Z10 Z11 Z12 Y13]				I	Y												
0,008408303		[Y3 Z4 X5 X11 Z12 Y13]				I	X												
-0,018468624		[Y3 Z4 Y5 X6 Z7 Z8 Z9 Z10 Z11 X12]				I	X												
-0,018468624		[Y3 Z4 Y5 Y6 Z7 Z8 Z9 Z10 Z11 Y12]				I	Y												
-0,003796818		[Y3 Z4 Y5 X7 Z8 Z9 Z10 Z11 Z12 X13]				I	X												
-0,011067328		[Y3 Z4 Y5 Y7 Z8 Z9 Z10 Z11 Z12 Y13]				I	Y												
0,022903683		[Y3 Z4 Y5 X10 Z11 X12]				I	X												
0,022903683		[Y3 Z4 Y5 Y10 Z11 Y12]				I	Y												
0,006458354		[Y3 Z4 Y5 X11 Z12 X13]				I	X												
0,014866657		[Y3 Z4 Y5 Y11 Z12 Y13]				I	Y												
0,004460833		[Y3 Z4 Z5 X6 X7 Z8 Z9 Y10]				I	Y												
0,011517672		[Y3 Z4 Z5 X6 X8 Y9]				I	I												
-0,005972897		[Y3 Z4 Z5 X6 X10 Y11]				I	X												
0,002482412		[Y3 Z4 Z5 X6 X12 Y13]				I	X												
-0,004460833		[Y3 Z4 Z5 Y6 X7 Z8 Z9 X10]				I	X												
0,011517672		[Y3 Z4 Z5 Y6 Y8 Y9]				I	I												
-0,005972897		[Y3 Z4 Z5 Y6 Y10 Y11]				I	Y												
0,002482412		[Y3 Z4 Z5 Y6 Y12 Y13]				I	Y												
-0,000775072		[Y3 Z4 Z5 Z6 Y7]				I	I												
0,002106874		[Y3 Z4 Z5 Z6 Y7 Z8]				I	I												
-0,009410798		[Y3 Z4 Z5 Z6 Y7 Z9]				I	I												
-0,013952727		[Y3 Z4 Z5 Z6 Y7 Z10]				I	Z												
-0,007979829		[Y3 Z4 Z5 Z6 Y7 Z11]				I	Z												
-0,00260947		[Y3 Z4 Z5 Z6 Y7 Z12]				I	Z												
-0,005091882		[Y3 Z4 Z5 Z6 Y7 Z13]				I	Z												
0,01774559		[Y3 Z4 Z5 Z6 Z7 X8 X9 Y10]				I	Y												
-0,01774559		[Y3 Z4 Z5 Z6 Z7 Y8 X9 X10]				I	X												
0,006967246		[Y3 Z4 Z5 Z6 Z7 Z8 Z9 X10 X12 Y13]				I	X												
0,006967246		[Y3 Z4 Z5 Z6 Z7 Z8 Z9 Y10 Y12 Y13]				I	Y												
-0,318966241		[Y3 Z4 Z5 Z6 Z7 Z8 Z9 Z10 Y11]				I	Y												
-0,019277804		[Y3 Z4 Z5 Z6 Z7 Z8 Z9 Z10 Y11 Z12]				I	Y												
-0,02624505		[Y3 Z4 Z5 Z6 Z7 Z8 Z9 Z10 Y11 Z13]				I	Y												
-0,016929713		[Y3 Z4 Z5 Z6 Z7 Z8 Z9 Y11]				I	Y												
-0,022962239		[Y3 Z4 Z5 Z6 Z7 Z8 Z10 Y11]				I	Y												
-0,040707829		[Y3 Z4 Z5 Z6 Z7 Z9 Z10 Y11]				I	Y												
-0,028113046		[Y3 Z4 Z5 Z6 Z8 Z9 Z10 Y11]				I	Y												
0,01585577		[Y3 Z4 Z5 Y7]				I	I												
-0,032573879		[Y3 Z4 Z5 Z7 Z8 Z9 Z10 Y11]				I	Y												
-0,010270786		[Y3 Z4 Z6 Y7]				I	I												
-0,032440903		[Y3 Z4 Z6 Z7 Z8 Z9 Z10 Y11]				I	Y												
-0,003458455		[Y3 Z5 Z6 Y7]				I	I												
-0,025309213		[Y3 Z5 Z6 Z7 Z8 Z9 Z10 Y11]				I	Y												
2,015040383		[Z3]				I	I												
-0,016564653		[Z3 X4 Z5 Z6 Z7 Z8 Z9 Z10 Z11 X12]				I	X												
-0,016564653		[Z3 Y4 Z5 Z6 Z7 Z8 Z9 Z10 Z11 Y12]				I	Y												
0,192996793		[Z3 Z4]				I	I												
-0,019392083		[Z3 X5 Z6 Z7 Z8 Z9 Z10 Z11 Z12 X13]				I	X												
-0,019392083		[Z3 Y5 Z6 Z7 Z8 Z9 Z10 Z11 Z12 Y13]				I	Y												
0,152825873		[Z3 Z5]				I	I												
-0,007625709		[Z3 X6 Z7 Z8 Z9 X10]				I	X												
-0,007625709		[Z3 Y6 Z7 Z8 Z9 Y10]				I	Y												
0,177888318		[Z3 Z6]				I	I												
-0,003652072		[Z3 X7 Z8 Z9 Z10 X11]				I	X												
-0,003652072		[Z3 Y7 Z8 Z9 Z10 Y11]				I	Y												
0,156238256		[Z3 Z7]				I	I												
0,197953089		[Z3 Z8]				I	I												
0,160919944		[Z3 Z9]				I	I												
0,154862471		[Z3 Z10]				I	Z												
0,132097653		[Z3 Z11]				I	Z												
0,174052952		[Z3 Z12]				I	Z												
0,162657218		[Z3 Z13]				I	Z												
-0,012615512		[X4 X5 Y6 Y7]				I	I												
0,000562576		[X4 X5 Y6 Z7 Z8 Z9 Z10 Y11]				I	Y												
0,000562576		[X4 X5 X7 Z8 Z9 X10]				I	X												
-0,010208626		[X4 X5 Y8 Y9]				I	I												
-0,009945157		[X4 X5 Y10 Y11]				I	Y												
-0,033419197		[X4 X5 Y12 Y13]				I	Y												
0,012615512		[X4 Y5 Y6 X7]				I	I												
-0,000562576		[X4 Y5 Y6 Z7 Z8 Z9 Z10 X11]				I	X												
0,000562576		[X4 Y5 Y7 Z8 Z9 X10]				I	X												
0,010208626		[X4 Y5 Y8 X9]				I	I												
0,009945157		[X4 Y5 Y10 X11]				I	X												
0,033419197		[X4 Y5 Y12 X13]				I	X												
0,0112028		[X4 Z5 X6 X7 Z8 Z9 Z10 Z11 Z12 X13]				I	X												
0,0112028		[X4 Z5 X6 Y7 Z8 Z9 Z10 Z11 Z12 Y13]				I	Y												
-0,003488216		[X4 Z5 X6 X10 Z11 X12]				I	X												
-0,004675363		[X4 Z5 X6 Y10 Z11 Y12]				I	Y												
-0,002118593		[X4 Z5 X6 X11 Z12 X13]				I	X												
-0,002118593		[X4 Z5 X6 Y11 Z12 Y13]				I	Y												
0,001187148		[X4 Z5 Y6 Y10 Z11 X12]				I	X												
-0,002556771		[X4 Z5 Z6 X7 Y10 Z11 Z12 Y13]				I	Y												
-0,001369623		[X4 Z5 Z6 X7 X11 X12]				I	X												
0,002556771		[X4 Z5 Z6 Y7 Y10 Z11 Z12 X13]				I	X												
-0,001369623		[X4 Z5 Z6 Y7 Y11 X12]				I	X												
0,004937637		[X4 Z5 Z6 Z7 X8 X9 Z10 Z11 Z12 X13]				I	X												
0,004937637		[X4 Z5 Z6 Z7 X8 Y9 Z10 Z11 Z12 Y13]				I	Y												
-0,0103895		[X4 Z5 Z6 Z7 Z8 Z9 X10 X11 Z12 X13]				I	X												
-0,0103895		[X4 Z5 Z6 Z7 Z8 Z9 X10 Y11 Z12 Y13]				I	X												
-0,330916265		[X4 Z5 Z6 Z7 Z8 Z9 Z10 Z11 X12]				I	X												
-0,021441187		[X4 Z5 Z6 Z7 Z8 Z9 Z10 Z11 X12 Z13]				I	X												
-0,003221677		[X4 Z5 Z6 Z7 Z8 Z9 Z10 X12]				I	X												
-0,013611177		[X4 Z5 Z6 Z7 Z8 Z9 Z11 X12]				I	X												
-0,035447702		[X4 Z5 Z6 Z7 Z8 Z10 Z11 X12]				I	X												
-0,030510065		[X4 Z5 Z6 Z7 Z9 Z10 Z11 X12]				I	X												
-0,045969548		[X4 Z5 Z6 Z8 Z9 Z10 Z11 X12]				I	X												
-0,034766748		[X4 Z5 Z7 Z8 Z9 Z10 Z11 X12]				I	X												
-0,025823287		[X4 Z6 Z7 Z8 Z9 Z10 Z11 X12]				I	X												
0,012615512		[Y4 X5 X6 Y7]				I	I												
-0,000562576		[Y4 X5 X6 Z7 Z8 Z9 Z10 Y11]				I	Y												
0,000562576		[Y4 X5 X7 Z8 Z9 Y10]				I	Y												
0,010208626		[Y4 X5 X8 Y9]				I	I												
0,009945157		[Y4 X5 X10 Y11]				I	X												
0,033419197		[Y4 X5 X12 Y13]				I	X												
-0,012615512		[Y4 Y5 X6 X7]				I	I												
0,000562576		[Y4 Y5 X6 Z7 Z8 Z9 Z10 X11]				I	X												
0,000562576		[Y4 Y5 Y7 Z8 Z9 Y10]				I	Y												
-0,010208626		[Y4 Y5 X8 X9]				I	I												
-0,009945157		[Y4 Y5 X10 X11]				I	X												
-0,033419197		[Y4 Y5 X12 X13]				I	X												
0,001187148		[Y4 Z5 X6 X10 Z11 Y12]				I	X												
0,0112028		[Y4 Z5 Y6 X7 Z8 Z9 Z10 Z11 Z12 X13]				I	X												
0,0112028		[Y4 Z5 Y6 Y7 Z8 Z9 Z10 Z11 Z12 Y13]				I	Y												
-0,004675363		[Y4 Z5 Y6 X10 Z11 X12]				I	X												
-0,003488216		[Y4 Z5 Y6 Y10 Z11 Y12]				I	Y												
-0,002118593		[Y4 Z5 Y6 X11 Z12 X13]				I	X												
-0,002118593		[Y4 Z5 Y6 Y11 Z12 Y13]				I	Y												
0,002556771		[Y4 Z5 Z6 X7 X10 Z11 Z12 Y13]				I	X												
-0,001369623		[Y4 Z5 Z6 X7 X11 Y12]				I	X												
-0,002556771		[Y4 Z5 Z6 Y7 X10 Z11 Z12 X13]				I	X												
-0,001369623		[Y4 Z5 Z6 Y7 Y11 Y12]				I	Y												
0,004937637		[Y4 Z5 Z6 Z7 Y8 X9 Z10 Z11 Z12 X13]				I	X												
0,004937637		[Y4 Z5 Z6 Z7 Y8 Y9 Z10 Z11 Z12 Y13]				I	Y												
-0,0103895		[Y4 Z5 Z6 Z7 Z8 Z9 Y10 X11 Z12 X13]				I	X												
-0,0103895		[Y4 Z5 Z6 Z7 Z8 Z9 Y10 Y11 Z12 Y13]				I	Y												
-0,330916265		[Y4 Z5 Z6 Z7 Z8 Z9 Z10 Z11 Y12]				I	Y												
-0,021441187		[Y4 Z5 Z6 Z7 Z8 Z9 Z10 Z11 Y12 Z13]				I	Y												
-0,003221677		[Y4 Z5 Z6 Z7 Z8 Z9 Z10 Y12]				I	Y												
-0,013611177		[Y4 Z5 Z6 Z7 Z8 Z9 Z11 Y12]				I	Y												
-0,035447702		[Y4 Z5 Z6 Z7 Z8 Z10 Z11 Y12]				I	Y												
-0,030510065		[Y4 Z5 Z6 Z7 Z9 Z10 Z11 Y12]				I	Y												
-0,045969548		[Y4 Z5 Z6 Z8 Z9 Z10 Z11 Y12]				I	Y												
-0,034766748		[Y4 Z5 Z7 Z8 Z9 Z10 Z11 Y12]				I	Y												
-0,025823287		[Y4 Z6 Z7 Z8 Z9 Z10 Z11 Y12]				I	Y												
1,624172922		[Z4]				I	I												
-0,025823287		[Z4 X5 Z6 Z7 Z8 Z9 Z10 Z11 Z12 X13]				I	X												
-0,025823287		[Z4 Y5 Z6 Z7 Z8 Z9 Z10 Z11 Z12 Y13]				I	Y												
0,197856851		[Z4 Z5]				I	I												
-0,003131583		[Z4 X6 Z7 Z8 Z9 X10]				I	X												
-0,003131583		[Z4 Y6 Z7 Z8 Z9 Y10]				I	Y												
0,167627157		[Z4 Z6]				I	I												
-0,002569007		[Z4 X7 Z8 Z9 Z10 X11]				I	X												
-0,002569007		[Z4 Y7 Z8 Z9 Z10 Y11]				I	Y												
0,180242669		[Z4 Z7]				I	I												
0,173507687		[Z4 Z8]				I	I												
0,183716313		[Z4 Z9]				I	I												
0,13130201		[Z4 Z10]				I	Z												
0,141247167		[Z4 Z11]				I	Z												
0,143019994		[Z4 Z12]				I	Z												
0,176439191		[Z4 Z13]				I	Z												
-0,0112028		[X5 X6 Y7 Z8 Z9 Z10 Z11 Y12]				I	Y												
-0,001369623		[X5 X6 X10 Z11 Z12 X13]				I	X												
-0,002556771		[X5 X6 Y11 Y12]				I	Y												
0,0112028		[X5 Y6 Y7 Z8 Z9 Z10 Z11 X12]				I	X												
-0,001369623		[X5 Y6 Y10 Z11 Z12 X13]				I	X												
0,002556771		[X5 Y6 Y11 X12]				I	X												
-0,002118593		[X5 Z6 X7 X10 Z11 X12]				I	X												
-0,002118593		[X5 Z6 X7 Y10 Z11 Y12]				I	Y												
-0,003488216		[X5 Z6 X7 X11 Z12 X13]				I	X												
-0,004675363		[X5 Z6 X7 Y11 Z12 Y13]				I	Y												
0,001187148		[X5 Z6 Y7 Y11 Z12 X13]				I	X												
-0,004937637		[X5 Z6 Z7 X8 Y9 Z10 Z11 Y12]				I	Y												
0,004937637		[X5 Z6 Z7 Y8 Y9 Z10 Z11 X12]				I	X												
0,0103895		[X5 Z6 Z7 Z8 Z9 X10 Y11 Y12]				I	X												
-0,0103895		[X5 Z6 Z7 Z8 Z9 Y10 Y11 X12]				I	X												
-0,330916265		[X5 Z6 Z7 Z8 Z9 Z10 Z11 Z12 X13]				I	X												
-0,021441187		[X5 Z6 Z7 Z8 Z9 Z10 Z11 X13]				I	X												
-0,013611177		[X5 Z6 Z7 Z8 Z9 Z10 Z12 X13]				I	X												
-0,003221677		[X5 Z6 Z7 Z8 Z9 Z11 Z12 X13]				I	X												
-0,030510065		[X5 Z6 Z7 Z8 Z10 Z11 Z12 X13]				I	X												
-0,035447702		[X5 Z6 Z7 Z9 Z10 Z11 Z12 X13]				I	X												
-0,034766748		[X5 Z6 Z8 Z9 Z10 Z11 Z12 X13]				I	X												
-0,045969548		[X5 Z7 Z8 Z9 Z10 Z11 Z12 X13]				I	X												
0,0112028		[Y5 X6 X7 Z8 Z9 Z10 Z11 Y12]				I	Y												
-0,001369623		[Y5 X6 X10 Z11 Z12 Y13]				I	X												
0,002556771		[Y5 X6 X11 Y12]				I	X												
-0,0112028		[Y5 Y6 X7 Z8 Z9 Z10 Z11 X12]				I	X												
-0,001369623		[Y5 Y6 Y10 Z11 Z12 Y13]				I	Y												
-0,002556771		[Y5 Y6 X11 X12]				I	X												
0,001187148		[Y5 Z6 X7 X11 Z12 Y13]				I	X												
-0,002118593		[Y5 Z6 Y7 X10 Z11 X12]				I	X												
-0,002118593		[Y5 Z6 Y7 Y10 Z11 Y12]				I	Y												
-0,004675363		[Y5 Z6 Y7 X11 Z12 X13]				I	X												
-0,003488216		[Y5 Z6 Y7 Y11 Z12 Y13]				I	Y												
0,004937637		[Y5 Z6 Z7 X8 X9 Z10 Z11 Y12]				I	Y												
-0,004937637		[Y5 Z6 Z7 Y8 X9 Z10 Z11 X12]				I	X												
-0,0103895		[Y5 Z6 Z7 Z8 Z9 X10 X11 Y12]				I	X												
0,0103895		[Y5 Z6 Z7 Z8 Z9 Y10 X11 X12]				I	X												
-0,330916265		[Y5 Z6 Z7 Z8 Z9 Z10 Z11 Z12 Y13]				I	Y												
-0,021441187		[Y5 Z6 Z7 Z8 Z9 Z10 Z11 Y13]				I	Y												
-0,013611177		[Y5 Z6 Z7 Z8 Z9 Z10 Z12 Y13]				I	Y												
-0,003221677		[Y5 Z6 Z7 Z8 Z9 Z11 Z12 Y13]				I	Y												
-0,030510065		[Y5 Z6 Z7 Z8 Z10 Z11 Z12 Y13]				I	Y												
-0,035447702		[Y5 Z6 Z7 Z9 Z10 Z11 Z12 Y13]				I	Y												
-0,034766748		[Y5 Z6 Z8 Z9 Z10 Z11 Z12 Y13]				I	Y												
-0,045969548		[Y5 Z7 Z8 Z9 Z10 Z11 Z12 Y13]				I	Y												
1,624172922		[Z5]				I	I												
-0,002569007		[Z5 X6 Z7 Z8 Z9 X10]				I	X												
-0,002569007		[Z5 Y6 Z7 Z8 Z9 Y10]				I	Y												
0,180242669		[Z5 Z6]				I	I												
-0,003131583		[Z5 X7 Z8 Z9 Z10 X11]				I	X												
-0,003131583		[Z5 Y7 Z8 Z9 Z10 Y11]				I	Y												
0,167627157		[Z5 Z7]				I	I												
0,183716313		[Z5 Z8]				I	I												
0,173507687		[Z5 Z9]				I	I												
0,141247167		[Z5 Z10]				I	Z												
0,13130201		[Z5 Z11]				I	Z												
0,176439191		[Z5 Z12]				I	Z												
0,143019994		[Z5 Z13]				I	Z												
-0,017022172		[X6 X7 Y8 Y9]				I	I												
-0,004175555		[X6 X7 Y10 Y11]				I	Y												
-0,017001948		[X6 X7 Y12 Y13]				I	Y												
0,017022172		[X6 Y7 Y8 X9]				I	I												
0,004175555		[X6 Y7 Y10 X11]				I	X												
0,017001948		[X6 Y7 Y12 X13]				I	X												
-0,005447097		[X6 Z7 X8 X9 Z10 X11]				I	X												
-0,005447097		[X6 Z7 X8 Y9 Z10 Y11]				I	Y												
-0,046299625		[X6 Z7 Z8 Z9 X10]				I	X												
-0,002949126		[X6 Z7 Z8 Z9 X10 Z11]				I	X												
-0,01036585		[X6 Z7 Z8 Z9 X10 Z12]				I	X												
0,000123271		[X6 Z7 Z8 Z9 X10 Z13]				I	X												
0,010489121		[X6 Z7 Z8 Z9 Z10 X11 Y12 Y13]				I	X												
-0,010489121		[X6 Z7 Z8 Z9 Z10 Y11 Y12 X13]				I	X												
-0,002726014		[X6 Z7 Z8 X10]				I	X												
-0,008173111		[X6 Z7 Z9 X10]				I	X												
-0,002952013		[X6 Z8 Z9 X10]				I	X												
0,017022172		[Y6 X7 X8 Y9]				I	I												
0,004175555		[Y6 X7 X10 Y11]				I	X												
0,017001948		[Y6 X7 X12 Y13]				I	X												
-0,017022172		[Y6 Y7 X8 X9]				I	I												
-0,004175555		[Y6 Y7 X10 X11]				I	X												
-0,017001948		[Y6 Y7 X12 X13]				I	X												
-0,005447097		[Y6 Z7 Y8 X9 Z10 X11]				I	X												
-0,005447097		[Y6 Z7 Y8 Y9 Z10 Y11]				I	Y												
-0,046299625		[Y6 Z7 Z8 Z9 Y10]				I	Y												
-0,002949126		[Y6 Z7 Z8 Z9 Y10 Z11]				I	Y												
-0,01036585		[Y6 Z7 Z8 Z9 Y10 Z12]				I	Y												
0,000123271		[Y6 Z7 Z8 Z9 Y10 Z13]				I	Y												
-0,010489121		[Y6 Z7 Z8 Z9 Z10 X11 X12 Y13]				I	X												
0,010489121		[Y6 Z7 Z8 Z9 Z10 Y11 X12 X13]				I	X												
-0,002726014		[Y6 Z7 Z8 Y10]				I	Y												
-0,008173111		[Y6 Z7 Z9 Y10]				I	Y												
-0,002952013		[Y6 Z8 Z9 Y10]				I	Y												
1,561731559		[Z6]				I	I												
-0,002952013		[Z6 X7 Z8 Z9 Z10 X11]				I	X												
-0,002952013		[Z6 Y7 Z8 Z9 Z10 Y11]				I	Y												
0,237569697		[Z6 Z7]				I	I												
0,179975896		[Z6 Z8]				I	I												
0,196998068		[Z6 Z9]				I	I												
0,124279467		[Z6 Z10]				I	Z												
0,128455022		[Z6 Z11]				I	Z												
0,153836818		[Z6 Z12]				I	Z												
0,170838766		[Z6 Z13]				I	Z												
0,005447097		[X7 X8 Y9 Y10]				I	Y												
-0,005447097		[X7 Y8 Y9 X10]				I	X												
0,010489121		[X7 Z8 Z9 X10 X12 X13]				I	X												
0,010489121		[X7 Z8 Z9 Y10 Y12 X13]				I	X												
-0,046299625		[X7 Z8 Z9 Z10 X11]				I	X												
0,000123271		[X7 Z8 Z9 Z10 X11 Z12]				I	X												
-0,01036585		[X7 Z8 Z9 Z10 X11 Z13]				I	X												
-0,002949126		[X7 Z8 Z9 X11]				I	X												
-0,008173111		[X7 Z8 Z10 X11]				I	X												
-0,002726014		[X7 Z9 Z10 X11]				I	X												
-0,005447097		[Y7 X8 X9 Y10]				I	Y												
0,005447097		[Y7 Y8 X9 X10]				I	X												
0,010489121		[Y7 Z8 Z9 X10 X12 Y13]				I	X												
0,010489121		[Y7 Z8 Z9 Y10 Y12 Y13]				I	Y												
-0,046299625		[Y7 Z8 Z9 Z10 Y11]				I	Y												
0,000123271		[Y7 Z8 Z9 Z10 Y11 Z12]				I	Y												
-0,01036585		[Y7 Z8 Z9 Z10 Y11 Z13]				I	Y												
-0,002949126		[Y7 Z8 Z9 Y11]				I	Y												
-0,008173111		[Y7 Z8 Z10 Y11]				I	Y												
-0,002726014		[Y7 Z9 Z10 Y11]				I	Y												
1,561731559		[Z7]				I	I												
0,196998068		[Z7 Z8]				I	I												
0,179975896		[Z7 Z9]				I	I												
0,128455022		[Z7 Z10]				I	Z												
0,124279467		[Z7 Z11]				I	Z												
0,170838766		[Z7 Z12]				I	Z												
0,153836818		[Z7 Z13]				I	Z												
-0,011861166		[X8 X9 Y10 Y11]				I	Y												
-0,00510339		[X8 X9 Y12 Y13]				I	Y												
0,011861166		[X8 Y9 Y10 X11]				I	X												
0,00510339		[X8 Y9 Y12 X13]				I	X												
0,011861166		[Y8 X9 X10 Y11]				I	X												
0,00510339		[Y8 X9 X12 Y13]				I	X												
-0,011861166		[Y8 Y9 X10 X11]				I	X												
-0,00510339		[Y8 Y9 X12 X13]				I	X												
1,538560109		[Z8]				I	I												
0,220039773		[Z8 Z9]				I	I												
0,129909483		[Z8 Z10]				I	Z												
0,14177065		[Z8 Z11]				I	Z												
0,162558821		[Z8 Z12]				I	Z												
0,167662211		[Z8 Z13]				I	Z												
1,538560109		[Z9]				I	I												
0,14177065		[Z9 Z10]				I	Z												
0,129909483		[Z9 Z11]				I	Z												
0,167662211		[Z9 Z12]				I	Z												
0,162558821		[Z9 Z13]				I	Z												
-0,021544894		[X10 X11 Y12 Y13]				I	X												
0,021544894		[X10 Y11 Y12 X13]				I	X												
0,021544894		[Y10 X11 X12 Y13]				I	X												
-0,021544894		[Y10 Y11 X12 X13]				I	X												
0,579313413		[Z10]				I	Z												
0,126971628		[Z10 Z11]				I	Z												
0,113996184		[Z10 Z12]				I	Z												
0,135541078		[Z10 Z13]				I	Z												
0,579313413		[Z11]				I	Z												
0,135541078		[Z11 Z12]				I	Z												
0,113996184		[Z11 Z13]				I	Z												
0,612532812		[Z12]				I	Z												
0,169794331		[Z12 Z13]				I	Z												
0,612532812		[Z13]				I	Z												
