-46.576877952457444	[]
-0.014736022496347147	[X0 X1 Y2 Y3]
0.005606717294354866	[X0 X1 Y2 Z3 Z4 Z5 Z6 Y7]
-0.008543129330358697	[X0 X1 Y2 Z3 Z4 Z5 Z6 Z7 Z8 Z9 Z10 Y11]
0.005606717294354866	[X0 X1 X3 Z4 Z5 X6]
-0.008543129330358697	[X0 X1 X3 Z4 Z5 Z6 Z7 Z8 Z9 X10]
-0.0027054268798047784	[X0 X1 Y4 Y5]
-0.0037466534100045507	[X0 X1 Y4 Z5 Z6 Z7 Z8 Z9 Z10 Z11 Z12 Y13]
-0.0037466534100045507	[X0 X1 X5 Z6 Z7 Z8 Z9 Z10 Z11 X12]
-0.006705427930576206	[X0 X1 Y6 Y7]
-0.00010198608536825548	[X0 X1 Y6 Z7 Z8 Z9 Z10 Y11]
-0.00010198608536825548	[X0 X1 X7 Z8 Z9 X10]
-0.006504946639513854	[X0 X1 Y8 Y9]
-0.007419279696127676	[X0 X1 Y10 Y11]
-0.005200582620470742	[X0 X1 Y12 Y13]
0.014736022496347147	[X0 Y1 Y2 X3]
-0.005606717294354866	[X0 Y1 Y2 Z3 Z4 Z5 Z6 X7]
0.008543129330358697	[X0 Y1 Y2 Z3 Z4 Z5 Z6 Z7 Z8 Z9 Z10 X11]
0.005606717294354866	[X0 Y1 Y3 Z4 Z5 X6]
-0.008543129330358697	[X0 Y1 Y3 Z4 Z5 Z6 Z7 Z8 Z9 X10]
0.0027054268798047784	[X0 Y1 Y4 X5]
0.0037466534100045507	[X0 Y1 Y4 Z5 Z6 Z7 Z8 Z9 Z10 Z11 Z12 X13]
-0.0037466534100045507	[X0 Y1 Y5 Z6 Z7 Z8 Z9 Z10 Z11 X12]
0.006705427930576206	[X0 Y1 Y6 X7]
0.00010198608536825548	[X0 Y1 Y6 Z7 Z8 Z9 Z10 X11]
-0.00010198608536825548	[X0 Y1 Y7 Z8 Z9 X10]
0.006504946639513854	[X0 Y1 Y8 X9]
0.007419279696127676	[X0 Y1 Y10 X11]
0.005200582620470742	[X0 Y1 Y12 X13]
0.12541468821615362	[X0 Z1 X2]
0.0022245134036529383	[X0 Z1 X2 X3 Z4 Z5 Z6 X7]
-0.0016262340290841965	[X0 Z1 X2 X3 Z4 Z5 Z6 Z7 Z8 Z9 Z10 X11]
0.0022245134036529383	[X0 Z1 X2 Y3 Z4 Z5 Z6 Y7]
-0.0016262340290841965	[X0 Z1 X2 Y3 Z4 Z5 Z6 Z7 Z8 Z9 Z10 Y11]
0.0034097801038323098	[X0 Z1 X2 Z3]
-0.00749364931829262	[X0 Z1 X2 X4 Z5 Z6 Z7 Z8 Z9 Z10 Z11 X12]
-0.005365493888623877	[X0 Z1 X2 Y4 Z5 Z6 Z7 Z8 Z9 Z10 Z11 Y12]
0.005470280178669686	[X0 Z1 X2 Z4]
-0.0018287771113244386	[X0 Z1 X2 X5 Z6 Z7 Z8 Z9 Z10 Z11 Z12 X13]
-0.0018287771113244386	[X0 Z1 X2 Y5 Z6 Z7 Z8 Z9 Z10 Z11 Z12 Y13]
0.001117709071572949	[X0 Z1 X2 Z5]
-0.0057870244490688515	[X0 Z1 X2 X6 Z7 Z8 Z9 X10]
-0.005302352971638029	[X0 Z1 X2 Y6 Z7 Z8 Z9 Y10]
0.007918269618701644	[X0 Z1 X2 Z6]
-0.0006556128355167744	[X0 Z1 X2 X7 Z8 Z9 Z10 X11]
-0.0006556128355167744	[X0 Z1 X2 Y7 Z8 Z9 Z10 Y11]
0.0032185498979226614	[X0 Z1 X2 Z7]
0.011118801720288073	[X0 Z1 X2 Z8]
0.0029531880518694174	[X0 Z1 X2 Z9]
0.003709851737647353	[X0 Z1 X2 Z10]
0.0017808919547621033	[X0 Z1 X2 Z11]
0.006960592794345255	[X0 Z1 X2 Z12]
0.002310673732033177	[X0 Z1 X2 Z13]
-0.0021281554296687442	[X0 Z1 Y2 Y4 Z5 Z6 Z7 Z8 Z9 Z10 Z11 X12]
-0.00048467147743082187	[X0 Z1 Y2 Y6 Z7 Z8 Z9 X10]
-0.004352571107096737	[X0 Z1 Z2 X3 Y4 Y5]
-0.003536716777299439	[X0 Z1 Z2 X3 Y4 Z5 Z6 Z7 Z8 Z9 Z10 Z11 Z12 Y13]
-0.005664872206968184	[X0 Z1 Z2 X3 X5 Z6 Z7 Z8 Z9 Z10 Z11 X12]
-0.004699719720778982	[X0 Z1 Z2 X3 Y6 Y7]
-0.004646740136121256	[X0 Z1 Z2 X3 Y6 Z7 Z8 Z9 Z10 Y11]
-0.005131411613552078	[X0 Z1 Z2 X3 X7 Z8 Z9 X10]
-0.008165613668418656	[X0 Z1 Z2 X3 Y8 Y9]
-0.0019289597828852502	[X0 Z1 Z2 X3 Y10 Y11]
-0.004649919062312077	[X0 Z1 Z2 X3 Y12 Y13]
0.004352571107096737	[X0 Z1 Z2 Y3 Y4 X5]
0.003536716777299439	[X0 Z1 Z2 Y3 Y4 Z5 Z6 Z7 Z8 Z9 Z10 Z11 Z12 X13]
-0.005664872206968184	[X0 Z1 Z2 Y3 Y5 Z6 Z7 Z8 Z9 Z10 Z11 X12]
0.004699719720778982	[X0 Z1 Z2 Y3 Y6 X7]
0.004646740136121256	[X0 Z1 Z2 Y3 Y6 Z7 Z8 Z9 Z10 X11]
-0.005131411613552078	[X0 Z1 Z2 Y3 Y7 Z8 Z9 X10]
0.008165613668418656	[X0 Z1 Z2 Y3 Y8 X9]
0.0019289597828852502	[X0 Z1 Z2 Y3 Y10 X11]
0.004649919062312077	[X0 Z1 Z2 Y3 Y12 X13]
-0.0007865738053469579	[X0 Z1 Z2 Z3 X4 X5 Z6 X7]
0.0007447558812606278	[X0 Z1 Z2 Z3 X4 X5 Z6 Z7 Z8 Z9 Z10 X11]
-0.0007865738053469579	[X0 Z1 Z2 Z3 X4 Y5 Z6 Y7]
0.0007447558812606278	[X0 Z1 Z2 Z3 X4 Y5 Z6 Z7 Z8 Z9 Z10 Y11]
-0.0011819650515533507	[X0 Z1 Z2 Z3 X4 X6 Z7 Z8 Z9 Z10 Z11 X12]
-0.0021508076982222684	[X0 Z1 Z2 Z3 X4 Y6 Z7 Z8 Z9 Z10 Z11 Y12]
-0.002305692533030863	[X0 Z1 Z2 Z3 X4 X7 Z8 Z9 Z10 Z11 Z12 X13]
-0.002305692533030863	[X0 Z1 Z2 Z3 X4 Y7 Z8 Z9 Z10 Z11 Z12 Y13]
0.0012820929965706752	[X0 Z1 Z2 Z3 X4 X10 Z11 X12]
0.003829711539938156	[X0 Z1 Z2 Z3 X4 Y10 Z11 Y12]
0.002181381564307295	[X0 Z1 Z2 Z3 X4 X11 Z12 X13]
0.002181381564307295	[X0 Z1 Z2 Z3 X4 Y11 Z12 Y13]
0.0009688426466689179	[X0 Z1 Z2 Z3 Y4 Y6 Z7 Z8 Z9 Z10 Z11 X12]
-0.0025476185433674805	[X0 Z1 Z2 Z3 Y4 Y10 Z11 X12]
0.00015488483480859447	[X0 Z1 Z2 Z3 Z4 X5 Y6 Z7 Z8 Z9 Z10 Z11 Z12 Y13]
0.0011237274814775125	[X0 Z1 Z2 Z3 Z4 X5 X7 Z8 Z9 Z10 Z11 X12]
0.0016483299756308598	[X0 Z1 Z2 Z3 Z4 X5 Y10 Z11 Z12 Y13]
-0.0008992885677366199	[X0 Z1 Z2 Z3 Z4 X5 X11 X12]
-0.00015488483480859447	[X0 Z1 Z2 Z3 Z4 Y5 Y6 Z7 Z8 Z9 Z10 Z11 Z12 X13]
0.0011237274814775125	[X0 Z1 Z2 Z3 Z4 Y5 Y7 Z8 Z9 Z10 Z11 X12]
-0.0016483299756308598	[X0 Z1 Z2 Z3 Z4 Y5 Y10 Z11 Z12 X13]
-0.0008992885677366199	[X0 Z1 Z2 Z3 Z4 Y5 Y11 X12]
-0.04152317340579732	[X0 Z1 Z2 Z3 Z4 Z5 X6]
0.0004897391878904101	[X0 Z1 Z2 Z3 Z4 Z5 X6 X7 Z8 Z9 Z10 X11]
0.0004897391878904101	[X0 Z1 Z2 Z3 Z4 Z5 X6 Y7 Z8 Z9 Z10 Y11]
0.0026561035451818276	[X0 Z1 Z2 Z3 Z4 Z5 X6 Z7]
-0.0045151387505238	[X0 Z1 Z2 Z3 Z4 Z5 X6 Z8]
-0.0012510056923077187	[X0 Z1 Z2 Z3 Z4 Z5 X6 Z9]
-0.005260318267316589	[X0 Z1 Z2 Z3 Z4 Z5 X6 Z10]
-0.005067121561492338	[X0 Z1 Z2 Z3 Z4 Z5 X6 Z11]
-0.0041683190824430534	[X0 Z1 Z2 Z3 Z4 Z5 X6 Z12]
-0.001012008686405356	[X0 Z1 Z2 Z3 Z4 Z5 X6 Z13]
0.003264133058216081	[X0 Z1 Z2 Z3 Z4 Z5 Z6 X7 Y8 Y9]
0.00019319670582425104	[X0 Z1 Z2 Z3 Z4 Z5 Z6 X7 Y10 Y11]
0.0031563103960376973	[X0 Z1 Z2 Z3 Z4 Z5 Z6 X7 Y12 Y13]
-0.003264133058216081	[X0 Z1 Z2 Z3 Z4 Z5 Z6 Y7 Y8 X9]
-0.00019319670582425104	[X0 Z1 Z2 Z3 Z4 Z5 Z6 Y7 Y10 X11]
-0.0031563103960376973	[X0 Z1 Z2 Z3 Z4 Z5 Z6 Y7 Y12 X13]
0.0037516733946879165	[X0 Z1 Z2 Z3 Z4 Z5 Z6 Z7 X8 X9 Z10 X11]
0.0037516733946879165	[X0 Z1 Z2 Z3 Z4 Z5 Z6 Z7 X8 Y9 Z10 Y11]
0.06948540174149247	[X0 Z1 Z2 Z3 Z4 Z5 Z6 Z7 Z8 Z9 X10]
-0.002152525808697985	[X0 Z1 Z2 Z3 Z4 Z5 Z6 Z7 Z8 Z9 X10 Z11]
0.004069496970882078	[X0 Z1 Z2 Z3 Z4 Z5 Z6 Z7 Z8 Z9 X10 Z12]
0.0011745205076195417	[X0 Z1 Z2 Z3 Z4 Z5 Z6 Z7 Z8 Z9 X10 Z13]
-0.0028949764632625365	[X0 Z1 Z2 Z3 Z4 Z5 Z6 Z7 Z8 Z9 Z10 X11 Y12 Y13]
0.0028949764632625365	[X0 Z1 Z2 Z3 Z4 Z5 Z6 Z7 Z8 Z9 Z10 Y11 Y12 X13]
0.0014955148025294941	[X0 Z1 Z2 Z3 Z4 Z5 Z6 Z7 Z8 X10]
0.00524718819721741	[X0 Z1 Z2 Z3 Z4 Z5 Z6 Z7 Z9 X10]
0.004570796451760382	[X0 Z1 Z2 Z3 Z4 Z5 Z6 Z8 Z9 X10]
0.005060535639650792	[X0 Z1 Z2 Z3 Z4 Z5 Z7 Z8 Z9 X10]
-0.0015507401385462002	[X0 Z1 Z2 Z3 Z4 X6]
-8.428445933745881e-05	[X0 Z1 Z2 Z3 Z4 Z6 Z7 Z8 Z9 X10]
-0.002337313943893158	[X0 Z1 Z2 Z3 Z5 X6]
0.0006604714219231691	[X0 Z1 Z2 Z3 Z5 Z6 Z7 Z8 Z9 X10]
-0.003740827252227916	[X0 Z1 Z2 Z4 Z5 X6]
0.0002953314414170148	[X0 Z1 Z2 Z4 Z5 Z6 Z7 Z8 Z9 X10]
-0.001516313848574978	[X0 Z1 Z3 Z4 Z5 X6]
-0.0013309025876671815	[X0 Z1 Z3 Z4 Z5 Z6 Z7 Z8 Z9 X10]
0.10497012005818059	[X0 X2]
-0.04477570715434652	[X0 Z2 Z3 Z4 Z5 X6]
0.0566622404741464	[X0 Z2 Z3 Z4 Z5 Z6 Z7 Z8 Z9 X10]
0.014736022496347147	[Y0 X1 X2 Y3]
-0.005606717294354866	[Y0 X1 X2 Z3 Z4 Z5 Z6 Y7]
0.008543129330358697	[Y0 X1 X2 Z3 Z4 Z5 Z6 Z7 Z8 Z9 Z10 Y11]
0.005606717294354866	[Y0 X1 X3 Z4 Z5 Y6]
-0.008543129330358697	[Y0 X1 X3 Z4 Z5 Z6 Z7 Z8 Z9 Y10]
0.0027054268798047784	[Y0 X1 X4 Y5]
0.0037466534100045507	[Y0 X1 X4 Z5 Z6 Z7 Z8 Z9 Z10 Z11 Z12 Y13]
-0.0037466534100045507	[Y0 X1 X5 Z6 Z7 Z8 Z9 Z10 Z11 Y12]
0.006705427930576206	[Y0 X1 X6 Y7]
0.00010198608536825548	[Y0 X1 X6 Z7 Z8 Z9 Z10 Y11]
-0.00010198608536825548	[Y0 X1 X7 Z8 Z9 Y10]
0.006504946639513854	[Y0 X1 X8 Y9]
0.007419279696127676	[Y0 X1 X10 Y11]
0.005200582620470742	[Y0 X1 X12 Y13]
-0.014736022496347147	[Y0 Y1 X2 X3]
0.005606717294354866	[Y0 Y1 X2 Z3 Z4 Z5 Z6 X7]
-0.008543129330358697	[Y0 Y1 X2 Z3 Z4 Z5 Z6 Z7 Z8 Z9 Z10 X11]
0.005606717294354866	[Y0 Y1 Y3 Z4 Z5 Y6]
-0.008543129330358697	[Y0 Y1 Y3 Z4 Z5 Z6 Z7 Z8 Z9 Y10]
-0.0027054268798047784	[Y0 Y1 X4 X5]
-0.0037466534100045507	[Y0 Y1 X4 Z5 Z6 Z7 Z8 Z9 Z10 Z11 Z12 X13]
-0.0037466534100045507	[Y0 Y1 Y5 Z6 Z7 Z8 Z9 Z10 Z11 Y12]
-0.006705427930576206	[Y0 Y1 X6 X7]
-0.00010198608536825548	[Y0 Y1 X6 Z7 Z8 Z9 Z10 X11]
-0.00010198608536825548	[Y0 Y1 Y7 Z8 Z9 Y10]
-0.006504946639513854	[Y0 Y1 X8 X9]
-0.007419279696127676	[Y0 Y1 X10 X11]
-0.005200582620470742	[Y0 Y1 X12 X13]
-0.0021281554296687442	[Y0 Z1 X2 X4 Z5 Z6 Z7 Z8 Z9 Z10 Z11 Y12]
-0.00048467147743082187	[Y0 Z1 X2 X6 Z7 Z8 Z9 Y10]
0.12541468821615362	[Y0 Z1 Y2]
0.0022245134036529383	[Y0 Z1 Y2 X3 Z4 Z5 Z6 X7]
-0.0016262340290841965	[Y0 Z1 Y2 X3 Z4 Z5 Z6 Z7 Z8 Z9 Z10 X11]
0.0022245134036529383	[Y0 Z1 Y2 Y3 Z4 Z5 Z6 Y7]
-0.0016262340290841965	[Y0 Z1 Y2 Y3 Z4 Z5 Z6 Z7 Z8 Z9 Z10 Y11]
0.0034097801038323098	[Y0 Z1 Y2 Z3]
-0.005365493888623877	[Y0 Z1 Y2 X4 Z5 Z6 Z7 Z8 Z9 Z10 Z11 X12]
-0.00749364931829262	[Y0 Z1 Y2 Y4 Z5 Z6 Z7 Z8 Z9 Z10 Z11 Y12]
0.005470280178669686	[Y0 Z1 Y2 Z4]
-0.0018287771113244386	[Y0 Z1 Y2 X5 Z6 Z7 Z8 Z9 Z10 Z11 Z12 X13]
-0.0018287771113244386	[Y0 Z1 Y2 Y5 Z6 Z7 Z8 Z9 Z10 Z11 Z12 Y13]
0.001117709071572949	[Y0 Z1 Y2 Z5]
-0.005302352971638029	[Y0 Z1 Y2 X6 Z7 Z8 Z9 X10]
-0.0057870244490688515	[Y0 Z1 Y2 Y6 Z7 Z8 Z9 Y10]
0.007918269618701644	[Y0 Z1 Y2 Z6]
-0.0006556128355167744	[Y0 Z1 Y2 X7 Z8 Z9 Z10 X11]
-0.0006556128355167744	[Y0 Z1 Y2 Y7 Z8 Z9 Z10 Y11]
0.0032185498979226614	[Y0 Z1 Y2 Z7]
0.011118801720288073	[Y0 Z1 Y2 Z8]
0.0029531880518694174	[Y0 Z1 Y2 Z9]
0.003709851737647353	[Y0 Z1 Y2 Z10]
0.0017808919547621033	[Y0 Z1 Y2 Z11]
0.006960592794345255	[Y0 Z1 Y2 Z12]
0.002310673732033177	[Y0 Z1 Y2 Z13]
0.004352571107096737	[Y0 Z1 Z2 X3 X4 Y5]
0.003536716777299439	[Y0 Z1 Z2 X3 X4 Z5 Z6 Z7 Z8 Z9 Z10 Z11 Z12 Y13]
-0.005664872206968184	[Y0 Z1 Z2 X3 X5 Z6 Z7 Z8 Z9 Z10 Z11 Y12]
0.004699719720778982	[Y0 Z1 Z2 X3 X6 Y7]
0.004646740136121256	[Y0 Z1 Z2 X3 X6 Z7 Z8 Z9 Z10 Y11]
-0.005131411613552078	[Y0 Z1 Z2 X3 X7 Z8 Z9 Y10]
0.008165613668418656	[Y0 Z1 Z2 X3 X8 Y9]
0.0019289597828852502	[Y0 Z1 Z2 X3 X10 Y11]
0.004649919062312077	[Y0 Z1 Z2 X3 X12 Y13]
-0.004352571107096737	[Y0 Z1 Z2 Y3 X4 X5]
-0.003536716777299439	[Y0 Z1 Z2 Y3 X4 Z5 Z6 Z7 Z8 Z9 Z10 Z11 Z12 X13]
-0.005664872206968184	[Y0 Z1 Z2 Y3 Y5 Z6 Z7 Z8 Z9 Z10 Z11 Y12]
-0.004699719720778982	[Y0 Z1 Z2 Y3 X6 X7]
-0.004646740136121256	[Y0 Z1 Z2 Y3 X6 Z7 Z8 Z9 Z10 X11]
-0.005131411613552078	[Y0 Z1 Z2 Y3 Y7 Z8 Z9 Y10]
-0.008165613668418656	[Y0 Z1 Z2 Y3 X8 X9]
-0.0019289597828852502	[Y0 Z1 Z2 Y3 X10 X11]
-0.004649919062312077	[Y0 Z1 Z2 Y3 X12 X13]
0.0009688426466689179	[Y0 Z1 Z2 Z3 X4 X6 Z7 Z8 Z9 Z10 Z11 Y12]
-0.0025476185433674805	[Y0 Z1 Z2 Z3 X4 X10 Z11 Y12]
-0.0007865738053469579	[Y0 Z1 Z2 Z3 Y4 X5 Z6 X7]
0.0007447558812606278	[Y0 Z1 Z2 Z3 Y4 X5 Z6 Z7 Z8 Z9 Z10 X11]
-0.0007865738053469579	[Y0 Z1 Z2 Z3 Y4 Y5 Z6 Y7]
0.0007447558812606278	[Y0 Z1 Z2 Z3 Y4 Y5 Z6 Z7 Z8 Z9 Z10 Y11]
-0.0021508076982222684	[Y0 Z1 Z2 Z3 Y4 X6 Z7 Z8 Z9 Z10 Z11 X12]
-0.0011819650515533507	[Y0 Z1 Z2 Z3 Y4 Y6 Z7 Z8 Z9 Z10 Z11 Y12]
-0.002305692533030863	[Y0 Z1 Z2 Z3 Y4 X7 Z8 Z9 Z10 Z11 Z12 X13]
-0.002305692533030863	[Y0 Z1 Z2 Z3 Y4 Y7 Z8 Z9 Z10 Z11 Z12 Y13]
0.003829711539938156	[Y0 Z1 Z2 Z3 Y4 X10 Z11 X12]
0.0012820929965706752	[Y0 Z1 Z2 Z3 Y4 Y10 Z11 Y12]
0.002181381564307295	[Y0 Z1 Z2 Z3 Y4 X11 Z12 X13]
0.002181381564307295	[Y0 Z1 Z2 Z3 Y4 Y11 Z12 Y13]
-0.00015488483480859447	[Y0 Z1 Z2 Z3 Z4 X5 X6 Z7 Z8 Z9 Z10 Z11 Z12 Y13]
0.0011237274814775125	[Y0 Z1 Z2 Z3 Z4 X5 X7 Z8 Z9 Z10 Z11 Y12]
-0.0016483299756308598	[Y0 Z1 Z2 Z3 Z4 X5 X10 Z11 Z12 Y13]
-0.0008992885677366199	[Y0 Z1 Z2 Z3 Z4 X5 X11 Y12]
0.00015488483480859447	[Y0 Z1 Z2 Z3 Z4 Y5 X6 Z7 Z8 Z9 Z10 Z11 Z12 X13]
0.0011237274814775125	[Y0 Z1 Z2 Z3 Z4 Y5 Y7 Z8 Z9 Z10 Z11 Y12]
0.0016483299756308598	[Y0 Z1 Z2 Z3 Z4 Y5 X10 Z11 Z12 X13]
-0.0008992885677366199	[Y0 Z1 Z2 Z3 Z4 Y5 Y11 Y12]
-0.04152317340579732	[Y0 Z1 Z2 Z3 Z4 Z5 Y6]
0.0004897391878904101	[Y0 Z1 Z2 Z3 Z4 Z5 Y6 X7 Z8 Z9 Z10 X11]
0.0004897391878904101	[Y0 Z1 Z2 Z3 Z4 Z5 Y6 Y7 Z8 Z9 Z10 Y11]
0.0026561035451818276	[Y0 Z1 Z2 Z3 Z4 Z5 Y6 Z7]
-0.0045151387505238	[Y0 Z1 Z2 Z3 Z4 Z5 Y6 Z8]
-0.0012510056923077187	[Y0 Z1 Z2 Z3 Z4 Z5 Y6 Z9]
-0.005260318267316589	[Y0 Z1 Z2 Z3 Z4 Z5 Y6 Z10]
-0.005067121561492338	[Y0 Z1 Z2 Z3 Z4 Z5 Y6 Z11]
-0.0041683190824430534	[Y0 Z1 Z2 Z3 Z4 Z5 Y6 Z12]
-0.001012008686405356	[Y0 Z1 Z2 Z3 Z4 Z5 Y6 Z13]
-0.003264133058216081	[Y0 Z1 Z2 Z3 Z4 Z5 Z6 X7 X8 Y9]
-0.00019319670582425104	[Y0 Z1 Z2 Z3 Z4 Z5 Z6 X7 X10 Y11]
-0.0031563103960376973	[Y0 Z1 Z2 Z3 Z4 Z5 Z6 X7 X12 Y13]
0.003264133058216081	[Y0 Z1 Z2 Z3 Z4 Z5 Z6 Y7 X8 X9]
0.00019319670582425104	[Y0 Z1 Z2 Z3 Z4 Z5 Z6 Y7 X10 X11]
0.0031563103960376973	[Y0 Z1 Z2 Z3 Z4 Z5 Z6 Y7 X12 X13]
0.0037516733946879165	[Y0 Z1 Z2 Z3 Z4 Z5 Z6 Z7 Y8 X9 Z10 X11]
0.0037516733946879165	[Y0 Z1 Z2 Z3 Z4 Z5 Z6 Z7 Y8 Y9 Z10 Y11]
0.06948540174149247	[Y0 Z1 Z2 Z3 Z4 Z5 Z6 Z7 Z8 Z9 Y10]
-0.002152525808697985	[Y0 Z1 Z2 Z3 Z4 Z5 Z6 Z7 Z8 Z9 Y10 Z11]
0.004069496970882078	[Y0 Z1 Z2 Z3 Z4 Z5 Z6 Z7 Z8 Z9 Y10 Z12]
0.0011745205076195417	[Y0 Z1 Z2 Z3 Z4 Z5 Z6 Z7 Z8 Z9 Y10 Z13]
0.0028949764632625365	[Y0 Z1 Z2 Z3 Z4 Z5 Z6 Z7 Z8 Z9 Z10 X11 X12 Y13]
-0.0028949764632625365	[Y0 Z1 Z2 Z3 Z4 Z5 Z6 Z7 Z8 Z9 Z10 Y11 X12 X13]
0.0014955148025294941	[Y0 Z1 Z2 Z3 Z4 Z5 Z6 Z7 Z8 Y10]
0.00524718819721741	[Y0 Z1 Z2 Z3 Z4 Z5 Z6 Z7 Z9 Y10]
0.004570796451760382	[Y0 Z1 Z2 Z3 Z4 Z5 Z6 Z8 Z9 Y10]
0.005060535639650792	[Y0 Z1 Z2 Z3 Z4 Z5 Z7 Z8 Z9 Y10]
-0.0015507401385462002	[Y0 Z1 Z2 Z3 Z4 Y6]
-8.428445933745881e-05	[Y0 Z1 Z2 Z3 Z4 Z6 Z7 Z8 Z9 Y10]
-0.002337313943893158	[Y0 Z1 Z2 Z3 Z5 Y6]
0.0006604714219231691	[Y0 Z1 Z2 Z3 Z5 Z6 Z7 Z8 Z9 Y10]
-0.003740827252227916	[Y0 Z1 Z2 Z4 Z5 Y6]
0.0002953314414170148	[Y0 Z1 Z2 Z4 Z5 Z6 Z7 Z8 Z9 Y10]
-0.001516313848574978	[Y0 Z1 Z3 Z4 Z5 Y6]
-0.0013309025876671815	[Y0 Z1 Z3 Z4 Z5 Z6 Z7 Z8 Z9 Y10]
0.10497012005818059	[Y0 Y2]
-0.04477570715434652	[Y0 Z2 Z3 Z4 Z5 Y6]
0.0566622404741464	[Y0 Z2 Z3 Z4 Z5 Z6 Z7 Z8 Z9 Y10]
12.410297476226503	[Z0]
0.10497012005818059	[Z0 X1 Z2 X3]
-0.04477570715434652	[Z0 X1 Z2 Z3 Z4 Z5 Z6 X7]
0.0566622404741464	[Z0 X1 Z2 Z3 Z4 Z5 Z6 Z7 Z8 Z9 Z10 X11]
0.10497012005818059	[Z0 Y1 Z2 Y3]
-0.04477570715434652	[Z0 Y1 Z2 Z3 Z4 Z5 Z6 Y7]
0.0566622404741464	[Z0 Y1 Z2 Z3 Z4 Z5 Z6 Z7 Z8 Z9 Z10 Y11]
1.1863016314468717	[Z0 Z1]
0.0282471711712088	[Z0 X2 Z3 Z4 Z5 X6]
-0.06572547664179533	[Z0 X2 Z3 Z4 Z5 Z6 Z7 Z8 Z9 X10]
0.0282471711712088	[Z0 Y2 Z3 Z4 Z5 Y6]
-0.06572547664179533	[Z0 Y2 Z3 Z4 Z5 Z6 Z7 Z8 Z9 Y10]
0.23719137291177872	[Z0 Z2]
0.033853888465563656	[Z0 X3 Z4 Z5 Z6 X7]
-0.07426860597215403	[Z0 X3 Z4 Z5 Z6 Z7 Z8 Z9 Z10 X11]
0.033853888465563656	[Z0 Y3 Z4 Z5 Z6 Y7]
-0.07426860597215403	[Z0 Y3 Z4 Z5 Z6 Z7 Z8 Z9 Z10 Y11]
0.25192739540812586	[Z0 Z3]
-0.0874014084071638	[Z0 X4 Z5 Z6 Z7 Z8 Z9 Z10 Z11 X12]
-0.0874014084071638	[Z0 Y4 Z5 Z6 Z7 Z8 Z9 Z10 Z11 Y12]
0.19421849897353766	[Z0 Z4]
-0.09114806181716836	[Z0 X5 Z6 Z7 Z8 Z9 Z10 Z11 Z12 X13]
-0.09114806181716836	[Z0 Y5 Z6 Z7 Z8 Z9 Z10 Z11 Z12 Y13]
0.19692392585334242	[Z0 Z5]
-0.0583659785873511	[Z0 X6 Z7 Z8 Z9 X10]
-0.0583659785873511	[Z0 Y6 Z7 Z8 Z9 Y10]
0.23890915959524123	[Z0 Z6]
-0.05846796467271935	[Z0 X7 Z8 Z9 Z10 X11]
-0.05846796467271935	[Z0 Y7 Z8 Z9 Z10 Y11]
0.24561458752581744	[Z0 Z7]
0.27233074743796565	[Z0 Z8]
0.27883569407747955	[Z0 Z9]
0.19161255392937365	[Z0 Z10]
0.1990318336255013	[Z0 Z11]
0.20987286245995146	[Z0 Z12]
0.2150734450804222	[Z0 Z13]
-0.0022245134036529383	[X1 X2 Y3 Z4 Z5 Y6]
0.0016262340290841965	[X1 X2 Y3 Z4 Z5 Z6 Z7 Z8 Z9 Y10]
-0.004352571107096737	[X1 X2 X4 X5]
-0.005664872206968184	[X1 X2 X4 Z5 Z6 Z7 Z8 Z9 Z10 Z11 Z12 X13]
-0.003536716777299439	[X1 X2 Y5 Z6 Z7 Z8 Z9 Z10 Z11 Y12]
-0.004699719720778983	[X1 X2 X6 X7]
-0.005131411613552078	[X1 X2 X6 Z7 Z8 Z9 Z10 X11]
-0.004646740136121256	[X1 X2 Y7 Z8 Z9 Y10]
-0.008165613668418656	[X1 X2 X8 X9]
-0.0019289597828852502	[X1 X2 X10 X11]
-0.004649919062312079	[X1 X2 X12 X13]
0.0022245134036529383	[X1 Y2 Y3 Z4 Z5 X6]
-0.0016262340290841965	[X1 Y2 Y3 Z4 Z5 Z6 Z7 Z8 Z9 X10]
-0.004352571107096737	[X1 Y2 Y4 X5]
-0.005664872206968184	[X1 Y2 Y4 Z5 Z6 Z7 Z8 Z9 Z10 Z11 Z12 X13]
0.003536716777299439	[X1 Y2 Y5 Z6 Z7 Z8 Z9 Z10 Z11 X12]
-0.004699719720778983	[X1 Y2 Y6 X7]
-0.005131411613552078	[X1 Y2 Y6 Z7 Z8 Z9 Z10 X11]
0.004646740136121256	[X1 Y2 Y7 Z8 Z9 X10]
-0.008165613668418656	[X1 Y2 Y8 X9]
-0.0019289597828852502	[X1 Y2 Y10 X11]
-0.004649919062312079	[X1 Y2 Y12 X13]
0.1254146882161536	[X1 Z2 X3]
-0.0018287771113244386	[X1 Z2 X3 X4 Z5 Z6 Z7 Z8 Z9 Z10 Z11 X12]
-0.0018287771113244386	[X1 Z2 X3 Y4 Z5 Z6 Z7 Z8 Z9 Z10 Z11 Y12]
0.001117709071572949	[X1 Z2 X3 Z4]
-0.00749364931829262	[X1 Z2 X3 X5 Z6 Z7 Z8 Z9 Z10 Z11 Z12 X13]
-0.005365493888623877	[X1 Z2 X3 Y5 Z6 Z7 Z8 Z9 Z10 Z11 Z12 Y13]
0.005470280178669686	[X1 Z2 X3 Z5]
-0.0006556128355167744	[X1 Z2 X3 X6 Z7 Z8 Z9 X10]
-0.0006556128355167744	[X1 Z2 X3 Y6 Z7 Z8 Z9 Y10]
0.0032185498979226614	[X1 Z2 X3 Z6]
-0.0057870244490688515	[X1 Z2 X3 X7 Z8 Z9 Z10 X11]
-0.005302352971638029	[X1 Z2 X3 Y7 Z8 Z9 Z10 Y11]
0.007918269618701644	[X1 Z2 X3 Z7]
0.0029531880518694174	[X1 Z2 X3 Z8]
0.011118801720288073	[X1 Z2 X3 Z9]
0.0017808919547621033	[X1 Z2 X3 Z10]
0.003709851737647353	[X1 Z2 X3 Z11]
0.002310673732033177	[X1 Z2 X3 Z12]
0.006960592794345255	[X1 Z2 X3 Z13]
-0.0021281554296687442	[X1 Z2 Y3 Y5 Z6 Z7 Z8 Z9 Z10 Z11 Z12 X13]
-0.00048467147743082187	[X1 Z2 Y3 Y7 Z8 Z9 Z10 X11]
0.0007865738053469579	[X1 Z2 Z3 X4 Y5 Y6]
-0.0007447558812606278	[X1 Z2 Z3 X4 Y5 Z6 Z7 Z8 Z9 Y10]
0.0011237274814775125	[X1 Z2 Z3 X4 X6 Z7 Z8 Z9 Z10 Z11 Z12 X13]
0.00015488483480859447	[X1 Z2 Z3 X4 Y7 Z8 Z9 Z10 Z11 Y12]
-0.0008992885677366199	[X1 Z2 Z3 X4 X10 Z11 Z12 X13]
0.0016483299756308598	[X1 Z2 Z3 X4 Y11 Y12]
-0.0007865738053469579	[X1 Z2 Z3 Y4 Y5 X6]
0.0007447558812606278	[X1 Z2 Z3 Y4 Y5 Z6 Z7 Z8 Z9 X10]
0.0011237274814775125	[X1 Z2 Z3 Y4 Y6 Z7 Z8 Z9 Z10 Z11 Z12 X13]
-0.00015488483480859447	[X1 Z2 Z3 Y4 Y7 Z8 Z9 Z10 Z11 X12]
-0.0008992885677366199	[X1 Z2 Z3 Y4 Y10 Z11 Z12 X13]
-0.0016483299756308598	[X1 Z2 Z3 Y4 Y11 X12]
-0.002305692533030863	[X1 Z2 Z3 Z4 X5 X6 Z7 Z8 Z9 Z10 Z11 X12]
-0.002305692533030863	[X1 Z2 Z3 Z4 X5 Y6 Z7 Z8 Z9 Z10 Z11 Y12]
-0.0011819650515533507	[X1 Z2 Z3 Z4 X5 X7 Z8 Z9 Z10 Z11 Z12 X13]
-0.0021508076982222684	[X1 Z2 Z3 Z4 X5 Y7 Z8 Z9 Z10 Z11 Z12 Y13]
0.002181381564307295	[X1 Z2 Z3 Z4 X5 X10 Z11 X12]
0.002181381564307295	[X1 Z2 Z3 Z4 X5 Y10 Z11 Y12]
0.0012820929965706752	[X1 Z2 Z3 Z4 X5 X11 Z12 X13]
0.003829711539938156	[X1 Z2 Z3 Z4 X5 Y11 Z12 Y13]
0.0009688426466689179	[X1 Z2 Z3 Z4 Y5 Y7 Z8 Z9 Z10 Z11 Z12 X13]
-0.0025476185433674805	[X1 Z2 Z3 Z4 Y5 Y11 Z12 X13]
-0.00048973918789041	[X1 Z2 Z3 Z4 Z5 X6 Y7 Z8 Z9 Y10]
0.003264133058216081	[X1 Z2 Z3 Z4 Z5 X6 X8 X9]
0.00019319670582425104	[X1 Z2 Z3 Z4 Z5 X6 X10 X11]
0.0031563103960376973	[X1 Z2 Z3 Z4 Z5 X6 X12 X13]
0.00048973918789041	[X1 Z2 Z3 Z4 Z5 Y6 Y7 Z8 Z9 X10]
0.003264133058216081	[X1 Z2 Z3 Z4 Z5 Y6 Y8 X9]
0.00019319670582425104	[X1 Z2 Z3 Z4 Z5 Y6 Y10 X11]
0.0031563103960376973	[X1 Z2 Z3 Z4 Z5 Y6 Y12 X13]
-0.04152317340579731	[X1 Z2 Z3 Z4 Z5 Z6 X7]
-0.0012510056923077187	[X1 Z2 Z3 Z4 Z5 Z6 X7 Z8]
-0.0045151387505238	[X1 Z2 Z3 Z4 Z5 Z6 X7 Z9]
-0.005067121561492338	[X1 Z2 Z3 Z4 Z5 Z6 X7 Z10]
-0.005260318267316589	[X1 Z2 Z3 Z4 Z5 Z6 X7 Z11]
-0.001012008686405356	[X1 Z2 Z3 Z4 Z5 Z6 X7 Z12]
-0.0041683190824430534	[X1 Z2 Z3 Z4 Z5 Z6 X7 Z13]
-0.0037516733946879165	[X1 Z2 Z3 Z4 Z5 Z6 Z7 X8 Y9 Y10]
0.0037516733946879165	[X1 Z2 Z3 Z4 Z5 Z6 Z7 Y8 Y9 X10]
-0.0028949764632625365	[X1 Z2 Z3 Z4 Z5 Z6 Z7 Z8 Z9 X10 X12 X13]
-0.0028949764632625365	[X1 Z2 Z3 Z4 Z5 Z6 Z7 Z8 Z9 Y10 Y12 X13]
0.0694854017414925	[X1 Z2 Z3 Z4 Z5 Z6 Z7 Z8 Z9 Z10 X11]
0.0011745205076195417	[X1 Z2 Z3 Z4 Z5 Z6 Z7 Z8 Z9 Z10 X11 Z12]
0.004069496970882078	[X1 Z2 Z3 Z4 Z5 Z6 Z7 Z8 Z9 Z10 X11 Z13]
-0.002152525808697985	[X1 Z2 Z3 Z4 Z5 Z6 Z7 Z8 Z9 X11]
0.00524718819721741	[X1 Z2 Z3 Z4 Z5 Z6 Z7 Z8 Z10 X11]
0.0014955148025294941	[X1 Z2 Z3 Z4 Z5 Z6 Z7 Z9 Z10 X11]
0.005060535639650792	[X1 Z2 Z3 Z4 Z5 Z6 Z8 Z9 Z10 X11]
0.0026561035451818276	[X1 Z2 Z3 Z4 Z5 X7]
0.004570796451760382	[X1 Z2 Z3 Z4 Z5 Z7 Z8 Z9 Z10 X11]
-0.002337313943893158	[X1 Z2 Z3 Z4 Z6 X7]
0.0006604714219231691	[X1 Z2 Z3 Z4 Z6 Z7 Z8 Z9 Z10 X11]
-0.0015507401385462002	[X1 Z2 Z3 Z5 Z6 X7]
-8.428445933745881e-05	[X1 Z2 Z3 Z5 Z6 Z7 Z8 Z9 Z10 X11]
-0.001516313848574978	[X1 Z2 Z4 Z5 Z6 X7]
-0.0013309025876671815	[X1 Z2 Z4 Z5 Z6 Z7 Z8 Z9 Z10 X11]
0.0034097801038323093	[X1 X3]
-0.003740827252227916	[X1 Z3 Z4 Z5 Z6 X7]
0.0002953314414170148	[X1 Z3 Z4 Z5 Z6 Z7 Z8 Z9 Z10 X11]
0.0022245134036529383	[Y1 X2 X3 Z4 Z5 Y6]
-0.0016262340290841965	[Y1 X2 X3 Z4 Z5 Z6 Z7 Z8 Z9 Y10]
-0.004352571107096737	[Y1 X2 X4 Y5]
-0.005664872206968184	[Y1 X2 X4 Z5 Z6 Z7 Z8 Z9 Z10 Z11 Z12 Y13]
0.003536716777299439	[Y1 X2 X5 Z6 Z7 Z8 Z9 Z10 Z11 Y12]
-0.004699719720778983	[Y1 X2 X6 Y7]
-0.005131411613552078	[Y1 X2 X6 Z7 Z8 Z9 Z10 Y11]
0.004646740136121256	[Y1 X2 X7 Z8 Z9 Y10]
-0.008165613668418656	[Y1 X2 X8 Y9]
-0.0019289597828852502	[Y1 X2 X10 Y11]
-0.004649919062312079	[Y1 X2 X12 Y13]
-0.0022245134036529383	[Y1 Y2 X3 Z4 Z5 X6]
0.0016262340290841965	[Y1 Y2 X3 Z4 Z5 Z6 Z7 Z8 Z9 X10]
-0.004352571107096737	[Y1 Y2 Y4 Y5]
-0.005664872206968184	[Y1 Y2 Y4 Z5 Z6 Z7 Z8 Z9 Z10 Z11 Z12 Y13]
-0.003536716777299439	[Y1 Y2 X5 Z6 Z7 Z8 Z9 Z10 Z11 X12]
-0.004699719720778983	[Y1 Y2 Y6 Y7]
-0.005131411613552078	[Y1 Y2 Y6 Z7 Z8 Z9 Z10 Y11]
-0.004646740136121256	[Y1 Y2 X7 Z8 Z9 X10]
-0.008165613668418656	[Y1 Y2 Y8 Y9]
-0.0019289597828852502	[Y1 Y2 Y10 Y11]
-0.004649919062312079	[Y1 Y2 Y12 Y13]
-0.0021281554296687442	[Y1 Z2 X3 X5 Z6 Z7 Z8 Z9 Z10 Z11 Z12 Y13]
-0.00048467147743082187	[Y1 Z2 X3 X7 Z8 Z9 Z10 Y11]
0.1254146882161536	[Y1 Z2 Y3]
-0.0018287771113244386	[Y1 Z2 Y3 X4 Z5 Z6 Z7 Z8 Z9 Z10 Z11 X12]
-0.0018287771113244386	[Y1 Z2 Y3 Y4 Z5 Z6 Z7 Z8 Z9 Z10 Z11 Y12]
0.001117709071572949	[Y1 Z2 Y3 Z4]
-0.005365493888623877	[Y1 Z2 Y3 X5 Z6 Z7 Z8 Z9 Z10 Z11 Z12 X13]
-0.00749364931829262	[Y1 Z2 Y3 Y5 Z6 Z7 Z8 Z9 Z10 Z11 Z12 Y13]
0.005470280178669686	[Y1 Z2 Y3 Z5]
-0.0006556128355167744	[Y1 Z2 Y3 X6 Z7 Z8 Z9 X10]
-0.0006556128355167744	[Y1 Z2 Y3 Y6 Z7 Z8 Z9 Y10]
0.0032185498979226614	[Y1 Z2 Y3 Z6]
-0.005302352971638029	[Y1 Z2 Y3 X7 Z8 Z9 Z10 X11]
-0.0057870244490688515	[Y1 Z2 Y3 Y7 Z8 Z9 Z10 Y11]
0.007918269618701644	[Y1 Z2 Y3 Z7]
0.0029531880518694174	[Y1 Z2 Y3 Z8]
0.011118801720288073	[Y1 Z2 Y3 Z9]
0.0017808919547621033	[Y1 Z2 Y3 Z10]
0.003709851737647353	[Y1 Z2 Y3 Z11]
0.002310673732033177	[Y1 Z2 Y3 Z12]
0.006960592794345255	[Y1 Z2 Y3 Z13]
-0.0007865738053469579	[Y1 Z2 Z3 X4 X5 Y6]
0.0007447558812606278	[Y1 Z2 Z3 X4 X5 Z6 Z7 Z8 Z9 Y10]
0.0011237274814775125	[Y1 Z2 Z3 X4 X6 Z7 Z8 Z9 Z10 Z11 Z12 Y13]
-0.00015488483480859447	[Y1 Z2 Z3 X4 X7 Z8 Z9 Z10 Z11 Y12]
-0.0008992885677366199	[Y1 Z2 Z3 X4 X10 Z11 Z12 Y13]
-0.0016483299756308598	[Y1 Z2 Z3 X4 X11 Y12]
0.0007865738053469579	[Y1 Z2 Z3 Y4 X5 X6]
-0.0007447558812606278	[Y1 Z2 Z3 Y4 X5 Z6 Z7 Z8 Z9 X10]
0.0011237274814775125	[Y1 Z2 Z3 Y4 Y6 Z7 Z8 Z9 Z10 Z11 Z12 Y13]
0.00015488483480859447	[Y1 Z2 Z3 Y4 X7 Z8 Z9 Z10 Z11 X12]
-0.0008992885677366199	[Y1 Z2 Z3 Y4 Y10 Z11 Z12 Y13]
0.0016483299756308598	[Y1 Z2 Z3 Y4 X11 X12]
0.0009688426466689179	[Y1 Z2 Z3 Z4 X5 X7 Z8 Z9 Z10 Z11 Z12 Y13]
-0.0025476185433674805	[Y1 Z2 Z3 Z4 X5 X11 Z12 Y13]
-0.002305692533030863	[Y1 Z2 Z3 Z4 Y5 X6 Z7 Z8 Z9 Z10 Z11 X12]
-0.002305692533030863	[Y1 Z2 Z3 Z4 Y5 Y6 Z7 Z8 Z9 Z10 Z11 Y12]
-0.0021508076982222684	[Y1 Z2 Z3 Z4 Y5 X7 Z8 Z9 Z10 Z11 Z12 X13]
-0.0011819650515533507	[Y1 Z2 Z3 Z4 Y5 Y7 Z8 Z9 Z10 Z11 Z12 Y13]
0.002181381564307295	[Y1 Z2 Z3 Z4 Y5 X10 Z11 X12]
0.002181381564307295	[Y1 Z2 Z3 Z4 Y5 Y10 Z11 Y12]
0.003829711539938156	[Y1 Z2 Z3 Z4 Y5 X11 Z12 X13]
0.0012820929965706752	[Y1 Z2 Z3 Z4 Y5 Y11 Z12 Y13]
0.00048973918789041	[Y1 Z2 Z3 Z4 Z5 X6 X7 Z8 Z9 Y10]
0.003264133058216081	[Y1 Z2 Z3 Z4 Z5 X6 X8 Y9]
0.00019319670582425104	[Y1 Z2 Z3 Z4 Z5 X6 X10 Y11]
0.0031563103960376973	[Y1 Z2 Z3 Z4 Z5 X6 X12 Y13]
-0.00048973918789041	[Y1 Z2 Z3 Z4 Z5 Y6 X7 Z8 Z9 X10]
0.003264133058216081	[Y1 Z2 Z3 Z4 Z5 Y6 Y8 Y9]
0.00019319670582425104	[Y1 Z2 Z3 Z4 Z5 Y6 Y10 Y11]
0.0031563103960376973	[Y1 Z2 Z3 Z4 Z5 Y6 Y12 Y13]
-0.04152317340579731	[Y1 Z2 Z3 Z4 Z5 Z6 Y7]
-0.0012510056923077187	[Y1 Z2 Z3 Z4 Z5 Z6 Y7 Z8]
-0.0045151387505238	[Y1 Z2 Z3 Z4 Z5 Z6 Y7 Z9]
-0.005067121561492338	[Y1 Z2 Z3 Z4 Z5 Z6 Y7 Z10]
-0.005260318267316589	[Y1 Z2 Z3 Z4 Z5 Z6 Y7 Z11]
-0.001012008686405356	[Y1 Z2 Z3 Z4 Z5 Z6 Y7 Z12]
-0.0041683190824430534	[Y1 Z2 Z3 Z4 Z5 Z6 Y7 Z13]
0.0037516733946879165	[Y1 Z2 Z3 Z4 Z5 Z6 Z7 X8 X9 Y10]
-0.0037516733946879165	[Y1 Z2 Z3 Z4 Z5 Z6 Z7 Y8 X9 X10]
-0.0028949764632625365	[Y1 Z2 Z3 Z4 Z5 Z6 Z7 Z8 Z9 X10 X12 Y13]
-0.0028949764632625365	[Y1 Z2 Z3 Z4 Z5 Z6 Z7 Z8 Z9 Y10 Y12 Y13]
0.0694854017414925	[Y1 Z2 Z3 Z4 Z5 Z6 Z7 Z8 Z9 Z10 Y11]
0.0011745205076195417	[Y1 Z2 Z3 Z4 Z5 Z6 Z7 Z8 Z9 Z10 Y11 Z12]
0.004069496970882078	[Y1 Z2 Z3 Z4 Z5 Z6 Z7 Z8 Z9 Z10 Y11 Z13]
-0.002152525808697985	[Y1 Z2 Z3 Z4 Z5 Z6 Z7 Z8 Z9 Y11]
0.00524718819721741	[Y1 Z2 Z3 Z4 Z5 Z6 Z7 Z8 Z10 Y11]
0.0014955148025294941	[Y1 Z2 Z3 Z4 Z5 Z6 Z7 Z9 Z10 Y11]
0.005060535639650792	[Y1 Z2 Z3 Z4 Z5 Z6 Z8 Z9 Z10 Y11]
0.0026561035451818276	[Y1 Z2 Z3 Z4 Z5 Y7]
0.004570796451760382	[Y1 Z2 Z3 Z4 Z5 Z7 Z8 Z9 Z10 Y11]
-0.002337313943893158	[Y1 Z2 Z3 Z4 Z6 Y7]
0.0006604714219231691	[Y1 Z2 Z3 Z4 Z6 Z7 Z8 Z9 Z10 Y11]
-0.0015507401385462002	[Y1 Z2 Z3 Z5 Z6 Y7]
-8.428445933745881e-05	[Y1 Z2 Z3 Z5 Z6 Z7 Z8 Z9 Z10 Y11]
-0.001516313848574978	[Y1 Z2 Z4 Z5 Z6 Y7]
-0.0013309025876671815	[Y1 Z2 Z4 Z5 Z6 Z7 Z8 Z9 Z10 Y11]
0.0034097801038323093	[Y1 Y3]
-0.003740827252227916	[Y1 Z3 Z4 Z5 Z6 Y7]
0.0002953314414170148	[Y1 Z3 Z4 Z5 Z6 Z7 Z8 Z9 Z10 Y11]
12.410297476226503	[Z1]
0.033853888465563656	[Z1 X2 Z3 Z4 Z5 X6]
-0.07426860597215403	[Z1 X2 Z3 Z4 Z5 Z6 Z7 Z8 Z9 X10]
0.033853888465563656	[Z1 Y2 Z3 Z4 Z5 Y6]
-0.07426860597215403	[Z1 Y2 Z3 Z4 Z5 Z6 Z7 Z8 Z9 Y10]
0.25192739540812586	[Z1 Z2]
0.0282471711712088	[Z1 X3 Z4 Z5 Z6 X7]
-0.06572547664179533	[Z1 X3 Z4 Z5 Z6 Z7 Z8 Z9 Z10 X11]
0.0282471711712088	[Z1 Y3 Z4 Z5 Z6 Y7]
-0.06572547664179533	[Z1 Y3 Z4 Z5 Z6 Z7 Z8 Z9 Z10 Y11]
0.23719137291177872	[Z1 Z3]
-0.09114806181716836	[Z1 X4 Z5 Z6 Z7 Z8 Z9 Z10 Z11 X12]
-0.09114806181716836	[Z1 Y4 Z5 Z6 Z7 Z8 Z9 Z10 Z11 Y12]
0.19692392585334242	[Z1 Z4]
-0.0874014084071638	[Z1 X5 Z6 Z7 Z8 Z9 Z10 Z11 Z12 X13]
-0.0874014084071638	[Z1 Y5 Z6 Z7 Z8 Z9 Z10 Z11 Z12 Y13]
0.19421849897353766	[Z1 Z5]
-0.05846796467271935	[Z1 X6 Z7 Z8 Z9 X10]
-0.05846796467271935	[Z1 Y6 Z7 Z8 Z9 Y10]
0.24561458752581744	[Z1 Z6]
-0.0583659785873511	[Z1 X7 Z8 Z9 Z10 X11]
-0.0583659785873511	[Z1 Y7 Z8 Z9 Z10 Y11]
0.23890915959524123	[Z1 Z7]
0.27883569407747955	[Z1 Z8]
0.27233074743796565	[Z1 Z9]
0.1990318336255013	[Z1 Z10]
0.19161255392937365	[Z1 Z11]
0.2150734450804222	[Z1 Z12]
0.20987286245995146	[Z1 Z13]
-0.035148816128079956	[X2 X3 Y4 Y5]
-0.011145000911955954	[X2 X3 Y4 Z5 Z6 Z7 Z8 Z9 Z10 Z11 Z12 Y13]
-0.011145000911955954	[X2 X3 X5 Z6 Z7 Z8 Z9 Z10 Z11 X12]
-0.031618313342913595	[X2 X3 Y6 Y7]
-0.005912205424405132	[X2 X3 Y6 Z7 Z8 Z9 Z10 Y11]
-0.005912205424405132	[X2 X3 X7 Z8 Z9 X10]
-0.036500315753754044	[X2 X3 Y8 Y9]
-0.024964488475683635	[X2 X3 Y10 Y11]
-0.01593096257072651	[X2 X3 Y12 Y13]
0.035148816128079956	[X2 Y3 Y4 X5]
0.011145000911955954	[X2 Y3 Y4 Z5 Z6 Z7 Z8 Z9 Z10 Z11 Z12 X13]
-0.011145000911955954	[X2 Y3 Y5 Z6 Z7 Z8 Z9 Z10 Z11 X12]
0.031618313342913595	[X2 Y3 Y6 X7]
0.005912205424405132	[X2 Y3 Y6 Z7 Z8 Z9 Z10 X11]
-0.005912205424405132	[X2 Y3 Y7 Z8 Z9 X10]
0.036500315753754044	[X2 Y3 Y8 X9]
0.024964488475683635	[X2 Y3 Y10 X11]
0.01593096257072651	[X2 Y3 Y12 X13]
0.005704115345685688	[X2 Z3 X4 X5 Z6 X7]
-0.009930756053868029	[X2 Z3 X4 X5 Z6 Z7 Z8 Z9 Z10 X11]
0.005704115345685688	[X2 Z3 X4 Y5 Z6 Y7]
-0.009930756053868029	[X2 Z3 X4 Y5 Z6 Z7 Z8 Z9 Z10 Y11]
-0.010727589430465518	[X2 Z3 X4 X6 Z7 Z8 Z9 Z10 Z11 X12]
0.00021213342866529226	[X2 Z3 X4 Y6 Z7 Z8 Z9 Z10 Z11 Y12]
-0.01904034240229976	[X2 Z3 X4 X7 Z8 Z9 Z10 Z11 Z12 X13]
-0.01904034240229976	[X2 Z3 X4 Y7 Z8 Z9 Z10 Z11 Z12 Y13]
0.015356461574602971	[X2 Z3 X4 X10 Z11 X12]
0.005160503936752756	[X2 Z3 X4 Y10 Z11 Y12]
0.02384388720212821	[X2 Z3 X4 X11 Z12 X13]
0.02384388720212821	[X2 Z3 X4 Y11 Z12 Y13]
-0.010939722859130807	[X2 Z3 Y4 Y6 Z7 Z8 Z9 Z10 Z11 X12]
0.010195957637850216	[X2 Z3 Y4 Y10 Z11 X12]
0.019252475830965052	[X2 Z3 Z4 X5 Y6 Z7 Z8 Z9 Z10 Z11 Z12 Y13]
0.008312752971834245	[X2 Z3 Z4 X5 X7 Z8 Z9 Z10 Z11 X12]
-0.01868338326537546	[X2 Z3 Z4 X5 Y10 Z11 Z12 Y13]
-0.00848742562752524	[X2 Z3 Z4 X5 X11 X12]
-0.019252475830965052	[X2 Z3 Z4 Y5 Y6 Z7 Z8 Z9 Z10 Z11 Z12 X13]
0.008312752971834245	[X2 Z3 Z4 Y5 Y7 Z8 Z9 Z10 Z11 X12]
0.01868338326537546	[X2 Z3 Z4 Y5 Y10 Z11 Z12 X13]
-0.00848742562752524	[X2 Z3 Z4 Y5 Y11 X12]
0.125317836360102	[X2 Z3 Z4 Z5 X6]
-0.009179385201208378	[X2 Z3 Z4 Z5 X6 X7 Z8 Z9 Z10 X11]
-0.009179385201208378	[X2 Z3 Z4 Z5 X6 Y7 Z8 Z9 Z10 Y11]
0.02569712316914118	[X2 Z3 Z4 Z5 X6 Z7]
0.006602488424010507	[X2 Z3 Z4 Z5 X6 Z8]
0.01818147912708936	[X2 Z3 Z4 Z5 X6 Z9]
0.0013895591866032518	[X2 Z3 Z4 Z5 X6 Z10]
-0.013957910836714323	[X2 Z3 Z4 Z5 X6 Z11]
-0.00033823432131777477	[X2 Z3 Z4 Z5 X6 Z12]
0.003899601838900762	[X2 Z3 Z4 Z5 X6 Z13]
0.011578990703078855	[X2 Z3 Z4 Z5 Z6 X7 Y8 Y9]
-0.015347470023317574	[X2 Z3 Z4 Z5 Z6 X7 Y10 Y11]
0.004237836160218537	[X2 Z3 Z4 Z5 Z6 X7 Y12 Y13]
-0.011578990703078855	[X2 Z3 Z4 Z5 Z6 Y7 Y8 X9]
0.015347470023317574	[X2 Z3 Z4 Z5 Z6 Y7 Y10 X11]
-0.004237836160218537	[X2 Z3 Z4 Z5 Z6 Y7 Y12 X13]
0.01425849519121853	[X2 Z3 Z4 Z5 Z6 Z7 X8 X9 Z10 X11]
0.01425849519121853	[X2 Z3 Z4 Z5 Z6 Z7 X8 Y9 Z10 Y11]
-0.2744793408562044	[X2 Z3 Z4 Z5 Z6 Z7 Z8 Z9 X10]
-0.023906148204698902	[X2 Z3 Z4 Z5 Z6 Z7 Z8 Z9 X10 Z11]
-0.018782735639348864	[X2 Z3 Z4 Z5 Z6 Z7 Z8 Z9 X10 Z12]
-0.016735287547897475	[X2 Z3 Z4 Z5 Z6 Z7 Z8 Z9 X10 Z13]
0.0020474480914513893	[X2 Z3 Z4 Z5 Z6 Z7 Z8 Z9 Z10 X11 Y12 Y13]
-0.0020474480914513893	[X2 Z3 Z4 Z5 Z6 Z7 Z8 Z9 Z10 Y11 Y12 X13]
-0.03854314731367059	[X2 Z3 Z4 Z5 Z6 Z7 Z8 X10]
-0.02428465212245206	[X2 Z3 Z4 Z5 Z6 Z7 Z9 X10]
-0.020261502194660594	[X2 Z3 Z4 Z5 Z6 Z8 Z9 X10]
-0.029440887395868972	[X2 Z3 Z4 Z5 Z7 Z8 Z9 X10]
-0.0015342570102197645	[X2 Z3 Z4 X6]
-0.01821666654381306	[X2 Z3 Z4 Z6 Z7 Z8 Z9 X10]
0.004169858335465923	[X2 Z3 Z5 X6]
-0.02814742259768109	[X2 Z3 Z5 Z6 Z7 Z8 Z9 X10]
0.0010930996607238716	[X2 Z4 Z5 X6]
-0.0350151364167893	[X2 Z4 Z5 Z6 Z7 Z8 Z9 X10]
0.035148816128079956	[Y2 X3 X4 Y5]
0.011145000911955954	[Y2 X3 X4 Z5 Z6 Z7 Z8 Z9 Z10 Z11 Z12 Y13]
-0.011145000911955954	[Y2 X3 X5 Z6 Z7 Z8 Z9 Z10 Z11 Y12]
0.031618313342913595	[Y2 X3 X6 Y7]
0.005912205424405132	[Y2 X3 X6 Z7 Z8 Z9 Z10 Y11]
-0.005912205424405132	[Y2 X3 X7 Z8 Z9 Y10]
0.036500315753754044	[Y2 X3 X8 Y9]
0.024964488475683635	[Y2 X3 X10 Y11]
0.01593096257072651	[Y2 X3 X12 Y13]
-0.035148816128079956	[Y2 Y3 X4 X5]
-0.011145000911955954	[Y2 Y3 X4 Z5 Z6 Z7 Z8 Z9 Z10 Z11 Z12 X13]
-0.011145000911955954	[Y2 Y3 Y5 Z6 Z7 Z8 Z9 Z10 Z11 Y12]
-0.031618313342913595	[Y2 Y3 X6 X7]
-0.005912205424405132	[Y2 Y3 X6 Z7 Z8 Z9 Z10 X11]
-0.005912205424405132	[Y2 Y3 Y7 Z8 Z9 Y10]
-0.036500315753754044	[Y2 Y3 X8 X9]
-0.024964488475683635	[Y2 Y3 X10 X11]
-0.01593096257072651	[Y2 Y3 X12 X13]
-0.010939722859130807	[Y2 Z3 X4 X6 Z7 Z8 Z9 Z10 Z11 Y12]
0.010195957637850216	[Y2 Z3 X4 X10 Z11 Y12]
0.005704115345685688	[Y2 Z3 Y4 X5 Z6 X7]
-0.009930756053868029	[Y2 Z3 Y4 X5 Z6 Z7 Z8 Z9 Z10 X11]
0.005704115345685688	[Y2 Z3 Y4 Y5 Z6 Y7]
-0.009930756053868029	[Y2 Z3 Y4 Y5 Z6 Z7 Z8 Z9 Z10 Y11]
0.00021213342866529226	[Y2 Z3 Y4 X6 Z7 Z8 Z9 Z10 Z11 X12]
-0.010727589430465518	[Y2 Z3 Y4 Y6 Z7 Z8 Z9 Z10 Z11 Y12]
-0.01904034240229976	[Y2 Z3 Y4 X7 Z8 Z9 Z10 Z11 Z12 X13]
-0.01904034240229976	[Y2 Z3 Y4 Y7 Z8 Z9 Z10 Z11 Z12 Y13]
0.005160503936752756	[Y2 Z3 Y4 X10 Z11 X12]
0.015356461574602971	[Y2 Z3 Y4 Y10 Z11 Y12]
0.02384388720212821	[Y2 Z3 Y4 X11 Z12 X13]
0.02384388720212821	[Y2 Z3 Y4 Y11 Z12 Y13]
-0.019252475830965052	[Y2 Z3 Z4 X5 X6 Z7 Z8 Z9 Z10 Z11 Z12 Y13]
0.008312752971834245	[Y2 Z3 Z4 X5 X7 Z8 Z9 Z10 Z11 Y12]
0.01868338326537546	[Y2 Z3 Z4 X5 X10 Z11 Z12 Y13]
-0.00848742562752524	[Y2 Z3 Z4 X5 X11 Y12]
0.019252475830965052	[Y2 Z3 Z4 Y5 X6 Z7 Z8 Z9 Z10 Z11 Z12 X13]
0.008312752971834245	[Y2 Z3 Z4 Y5 Y7 Z8 Z9 Z10 Z11 Y12]
-0.01868338326537546	[Y2 Z3 Z4 Y5 X10 Z11 Z12 X13]
-0.00848742562752524	[Y2 Z3 Z4 Y5 Y11 Y12]
0.125317836360102	[Y2 Z3 Z4 Z5 Y6]
-0.009179385201208378	[Y2 Z3 Z4 Z5 Y6 X7 Z8 Z9 Z10 X11]
-0.009179385201208378	[Y2 Z3 Z4 Z5 Y6 Y7 Z8 Z9 Z10 Y11]
0.02569712316914118	[Y2 Z3 Z4 Z5 Y6 Z7]
0.006602488424010507	[Y2 Z3 Z4 Z5 Y6 Z8]
0.01818147912708936	[Y2 Z3 Z4 Z5 Y6 Z9]
0.0013895591866032518	[Y2 Z3 Z4 Z5 Y6 Z10]
-0.013957910836714323	[Y2 Z3 Z4 Z5 Y6 Z11]
-0.00033823432131777477	[Y2 Z3 Z4 Z5 Y6 Z12]
0.003899601838900762	[Y2 Z3 Z4 Z5 Y6 Z13]
-0.011578990703078855	[Y2 Z3 Z4 Z5 Z6 X7 X8 Y9]
0.015347470023317574	[Y2 Z3 Z4 Z5 Z6 X7 X10 Y11]
-0.004237836160218537	[Y2 Z3 Z4 Z5 Z6 X7 X12 Y13]
0.011578990703078855	[Y2 Z3 Z4 Z5 Z6 Y7 X8 X9]
-0.015347470023317574	[Y2 Z3 Z4 Z5 Z6 Y7 X10 X11]
0.004237836160218537	[Y2 Z3 Z4 Z5 Z6 Y7 X12 X13]
0.01425849519121853	[Y2 Z3 Z4 Z5 Z6 Z7 Y8 X9 Z10 X11]
0.01425849519121853	[Y2 Z3 Z4 Z5 Z6 Z7 Y8 Y9 Z10 Y11]
-0.2744793408562044	[Y2 Z3 Z4 Z5 Z6 Z7 Z8 Z9 Y10]
-0.023906148204698902	[Y2 Z3 Z4 Z5 Z6 Z7 Z8 Z9 Y10 Z11]
-0.018782735639348864	[Y2 Z3 Z4 Z5 Z6 Z7 Z8 Z9 Y10 Z12]
-0.016735287547897475	[Y2 Z3 Z4 Z5 Z6 Z7 Z8 Z9 Y10 Z13]
-0.0020474480914513893	[Y2 Z3 Z4 Z5 Z6 Z7 Z8 Z9 Z10 X11 X12 Y13]
0.0020474480914513893	[Y2 Z3 Z4 Z5 Z6 Z7 Z8 Z9 Z10 Y11 X12 X13]
-0.03854314731367059	[Y2 Z3 Z4 Z5 Z6 Z7 Z8 Y10]
-0.02428465212245206	[Y2 Z3 Z4 Z5 Z6 Z7 Z9 Y10]
-0.020261502194660594	[Y2 Z3 Z4 Z5 Z6 Z8 Z9 Y10]
-0.029440887395868972	[Y2 Z3 Z4 Z5 Z7 Z8 Z9 Y10]
-0.0015342570102197645	[Y2 Z3 Z4 Y6]
-0.01821666654381306	[Y2 Z3 Z4 Z6 Z7 Z8 Z9 Y10]
0.004169858335465923	[Y2 Z3 Z5 Y6]
-0.02814742259768109	[Y2 Z3 Z5 Z6 Z7 Z8 Z9 Y10]
0.0010930996607238716	[Y2 Z4 Z5 Y6]
-0.0350151364167893	[Y2 Z4 Z5 Z6 Z7 Z8 Z9 Y10]
1.6467341694350355	[Z2]
0.0010930996607238718	[Z2 X3 Z4 Z5 Z6 X7]
-0.0350151364167893	[Z2 X3 Z4 Z5 Z6 Z7 Z8 Z9 Z10 X11]
0.0010930996607238718	[Z2 Y3 Z4 Z5 Z6 Y7]
-0.0350151364167893	[Z2 Y3 Z4 Z5 Z6 Z7 Z8 Z9 Z10 Y11]
0.18127545847519566	[Z2 Z3]
-0.025258741281862524	[Z2 X4 Z5 Z6 Z7 Z8 Z9 Z10 Z11 X12]
-0.025258741281862524	[Z2 Y4 Z5 Z6 Z7 Z8 Z9 Z10 Z11 Y12]
0.12381812265816278	[Z2 Z4]
-0.03640374219381848	[Z2 X5 Z6 Z7 Z8 Z9 Z10 Z11 Z12 X13]
-0.03640374219381848	[Z2 Y5 Z6 Z7 Z8 Z9 Z10 Z11 Z12 Y13]
0.15896693878624274	[Z2 Z5]
-0.020027271766864273	[Z2 X6 Z7 Z8 Z9 X10]
-0.020027271766864273	[Z2 Y6 Z7 Z8 Z9 Y10]
0.13645060827302768	[Z2 Z6]
-0.0259394771912694	[Z2 X7 Z8 Z9 Z10 X11]
-0.0259394771912694	[Z2 Y7 Z8 Z9 Z10 Y11]
0.16806892161594128	[Z2 Z7]
0.15067920960512013	[Z2 Z8]
0.1871795253588742	[Z2 Z9]
0.12697450725341428	[Z2 Z10]
0.15193899572909791	[Z2 Z11]
0.13893310687870294	[Z2 Z12]
0.15486406944942943	[Z2 Z13]
-0.005704115345685688	[X3 X4 Y5 Y6]
0.009930756053868029	[X3 X4 Y5 Z6 Z7 Z8 Z9 Y10]
0.008312752971834245	[X3 X4 X6 Z7 Z8 Z9 Z10 Z11 Z12 X13]
0.019252475830965052	[X3 X4 Y7 Z8 Z9 Z10 Z11 Y12]
-0.00848742562752524	[X3 X4 X10 Z11 Z12 X13]
-0.01868338326537546	[X3 X4 Y11 Y12]
0.005704115345685688	[X3 Y4 Y5 X6]
-0.009930756053868029	[X3 Y4 Y5 Z6 Z7 Z8 Z9 X10]
0.008312752971834245	[X3 Y4 Y6 Z7 Z8 Z9 Z10 Z11 Z12 X13]
-0.019252475830965052	[X3 Y4 Y7 Z8 Z9 Z10 Z11 X12]
-0.00848742562752524	[X3 Y4 Y10 Z11 Z12 X13]
0.01868338326537546	[X3 Y4 Y11 X12]
-0.01904034240229976	[X3 Z4 X5 X6 Z7 Z8 Z9 Z10 Z11 X12]
-0.01904034240229976	[X3 Z4 X5 Y6 Z7 Z8 Z9 Z10 Z11 Y12]
-0.010727589430465518	[X3 Z4 X5 X7 Z8 Z9 Z10 Z11 Z12 X13]
0.00021213342866529226	[X3 Z4 X5 Y7 Z8 Z9 Z10 Z11 Z12 Y13]
0.02384388720212821	[X3 Z4 X5 X10 Z11 X12]
0.02384388720212821	[X3 Z4 X5 Y10 Z11 Y12]
0.015356461574602971	[X3 Z4 X5 X11 Z12 X13]
0.005160503936752756	[X3 Z4 X5 Y11 Z12 Y13]
-0.010939722859130807	[X3 Z4 Y5 Y7 Z8 Z9 Z10 Z11 Z12 X13]
0.010195957637850216	[X3 Z4 Y5 Y11 Z12 X13]
0.009179385201208378	[X3 Z4 Z5 X6 Y7 Z8 Z9 Y10]
0.011578990703078855	[X3 Z4 Z5 X6 X8 X9]
-0.015347470023317574	[X3 Z4 Z5 X6 X10 X11]
0.004237836160218537	[X3 Z4 Z5 X6 X12 X13]
-0.009179385201208378	[X3 Z4 Z5 Y6 Y7 Z8 Z9 X10]
0.011578990703078855	[X3 Z4 Z5 Y6 Y8 X9]
-0.015347470023317574	[X3 Z4 Z5 Y6 Y10 X11]
0.004237836160218537	[X3 Z4 Z5 Y6 Y12 X13]
0.125317836360102	[X3 Z4 Z5 Z6 X7]
0.01818147912708936	[X3 Z4 Z5 Z6 X7 Z8]
0.006602488424010507	[X3 Z4 Z5 Z6 X7 Z9]
-0.013957910836714323	[X3 Z4 Z5 Z6 X7 Z10]
0.0013895591866032518	[X3 Z4 Z5 Z6 X7 Z11]
0.003899601838900762	[X3 Z4 Z5 Z6 X7 Z12]
-0.00033823432131777477	[X3 Z4 Z5 Z6 X7 Z13]
-0.01425849519121853	[X3 Z4 Z5 Z6 Z7 X8 Y9 Y10]
0.01425849519121853	[X3 Z4 Z5 Z6 Z7 Y8 Y9 X10]
0.0020474480914513893	[X3 Z4 Z5 Z6 Z7 Z8 Z9 X10 X12 X13]
0.0020474480914513893	[X3 Z4 Z5 Z6 Z7 Z8 Z9 Y10 Y12 X13]
-0.27447934085620423	[X3 Z4 Z5 Z6 Z7 Z8 Z9 Z10 X11]
-0.016735287547897475	[X3 Z4 Z5 Z6 Z7 Z8 Z9 Z10 X11 Z12]
-0.018782735639348864	[X3 Z4 Z5 Z6 Z7 Z8 Z9 Z10 X11 Z13]
-0.023906148204698902	[X3 Z4 Z5 Z6 Z7 Z8 Z9 X11]
-0.02428465212245206	[X3 Z4 Z5 Z6 Z7 Z8 Z10 X11]
-0.03854314731367059	[X3 Z4 Z5 Z6 Z7 Z9 Z10 X11]
-0.029440887395868972	[X3 Z4 Z5 Z6 Z8 Z9 Z10 X11]
0.025697123169141182	[X3 Z4 Z5 X7]
-0.020261502194660594	[X3 Z4 Z5 Z7 Z8 Z9 Z10 X11]
0.004169858335465923	[X3 Z4 Z6 X7]
-0.02814742259768109	[X3 Z4 Z6 Z7 Z8 Z9 Z10 X11]
-0.0015342570102197645	[X3 Z5 Z6 X7]
-0.01821666654381306	[X3 Z5 Z6 Z7 Z8 Z9 Z10 X11]
0.005704115345685688	[Y3 X4 X5 Y6]
-0.009930756053868029	[Y3 X4 X5 Z6 Z7 Z8 Z9 Y10]
0.008312752971834245	[Y3 X4 X6 Z7 Z8 Z9 Z10 Z11 Z12 Y13]
-0.019252475830965052	[Y3 X4 X7 Z8 Z9 Z10 Z11 Y12]
-0.00848742562752524	[Y3 X4 X10 Z11 Z12 Y13]
0.01868338326537546	[Y3 X4 X11 Y12]
-0.005704115345685688	[Y3 Y4 X5 X6]
0.009930756053868029	[Y3 Y4 X5 Z6 Z7 Z8 Z9 X10]
0.008312752971834245	[Y3 Y4 Y6 Z7 Z8 Z9 Z10 Z11 Z12 Y13]
0.019252475830965052	[Y3 Y4 X7 Z8 Z9 Z10 Z11 X12]
-0.00848742562752524	[Y3 Y4 Y10 Z11 Z12 Y13]
-0.01868338326537546	[Y3 Y4 X11 X12]
-0.010939722859130807	[Y3 Z4 X5 X7 Z8 Z9 Z10 Z11 Z12 Y13]
0.010195957637850216	[Y3 Z4 X5 X11 Z12 Y13]
-0.01904034240229976	[Y3 Z4 Y5 X6 Z7 Z8 Z9 Z10 Z11 X12]
-0.01904034240229976	[Y3 Z4 Y5 Y6 Z7 Z8 Z9 Z10 Z11 Y12]
0.00021213342866529226	[Y3 Z4 Y5 X7 Z8 Z9 Z10 Z11 Z12 X13]
-0.010727589430465518	[Y3 Z4 Y5 Y7 Z8 Z9 Z10 Z11 Z12 Y13]
0.02384388720212821	[Y3 Z4 Y5 X10 Z11 X12]
0.02384388720212821	[Y3 Z4 Y5 Y10 Z11 Y12]
0.005160503936752756	[Y3 Z4 Y5 X11 Z12 X13]
0.015356461574602971	[Y3 Z4 Y5 Y11 Z12 Y13]
-0.009179385201208378	[Y3 Z4 Z5 X6 X7 Z8 Z9 Y10]
0.011578990703078855	[Y3 Z4 Z5 X6 X8 Y9]
-0.015347470023317574	[Y3 Z4 Z5 X6 X10 Y11]
0.004237836160218537	[Y3 Z4 Z5 X6 X12 Y13]
0.009179385201208378	[Y3 Z4 Z5 Y6 X7 Z8 Z9 X10]
0.011578990703078855	[Y3 Z4 Z5 Y6 Y8 Y9]
-0.015347470023317574	[Y3 Z4 Z5 Y6 Y10 Y11]
0.004237836160218537	[Y3 Z4 Z5 Y6 Y12 Y13]
0.125317836360102	[Y3 Z4 Z5 Z6 Y7]
0.01818147912708936	[Y3 Z4 Z5 Z6 Y7 Z8]
0.006602488424010507	[Y3 Z4 Z5 Z6 Y7 Z9]
-0.013957910836714323	[Y3 Z4 Z5 Z6 Y7 Z10]
0.0013895591866032518	[Y3 Z4 Z5 Z6 Y7 Z11]
0.003899601838900762	[Y3 Z4 Z5 Z6 Y7 Z12]
-0.00033823432131777477	[Y3 Z4 Z5 Z6 Y7 Z13]
0.01425849519121853	[Y3 Z4 Z5 Z6 Z7 X8 X9 Y10]
-0.01425849519121853	[Y3 Z4 Z5 Z6 Z7 Y8 X9 X10]
0.0020474480914513893	[Y3 Z4 Z5 Z6 Z7 Z8 Z9 X10 X12 Y13]
0.0020474480914513893	[Y3 Z4 Z5 Z6 Z7 Z8 Z9 Y10 Y12 Y13]
-0.27447934085620423	[Y3 Z4 Z5 Z6 Z7 Z8 Z9 Z10 Y11]
-0.016735287547897475	[Y3 Z4 Z5 Z6 Z7 Z8 Z9 Z10 Y11 Z12]
-0.018782735639348864	[Y3 Z4 Z5 Z6 Z7 Z8 Z9 Z10 Y11 Z13]
-0.023906148204698902	[Y3 Z4 Z5 Z6 Z7 Z8 Z9 Y11]
-0.02428465212245206	[Y3 Z4 Z5 Z6 Z7 Z8 Z10 Y11]
-0.03854314731367059	[Y3 Z4 Z5 Z6 Z7 Z9 Z10 Y11]
-0.029440887395868972	[Y3 Z4 Z5 Z6 Z8 Z9 Z10 Y11]
0.025697123169141182	[Y3 Z4 Z5 Y7]
-0.020261502194660594	[Y3 Z4 Z5 Z7 Z8 Z9 Z10 Y11]
0.004169858335465923	[Y3 Z4 Z6 Y7]
-0.02814742259768109	[Y3 Z4 Z6 Z7 Z8 Z9 Z10 Y11]
-0.0015342570102197645	[Y3 Z5 Z6 Y7]
-0.01821666654381306	[Y3 Z5 Z6 Z7 Z8 Z9 Z10 Y11]
1.6467341694350355	[Z3]
-0.03640374219381848	[Z3 X4 Z5 Z6 Z7 Z8 Z9 Z10 Z11 X12]
-0.03640374219381848	[Z3 Y4 Z5 Z6 Z7 Z8 Z9 Z10 Z11 Y12]
0.15896693878624274	[Z3 Z4]
-0.025258741281862524	[Z3 X5 Z6 Z7 Z8 Z9 Z10 Z11 Z12 X13]
-0.025258741281862524	[Z3 Y5 Z6 Z7 Z8 Z9 Z10 Z11 Z12 Y13]
0.12381812265816278	[Z3 Z5]
-0.0259394771912694	[Z3 X6 Z7 Z8 Z9 X10]
-0.0259394771912694	[Z3 Y6 Z7 Z8 Z9 Y10]
0.16806892161594128	[Z3 Z6]
-0.020027271766864273	[Z3 X7 Z8 Z9 Z10 X11]
-0.020027271766864273	[Z3 Y7 Z8 Z9 Z10 Y11]
0.13645060827302768	[Z3 Z7]
0.1871795253588742	[Z3 Z8]
0.15067920960512013	[Z3 Z9]
0.15193899572909791	[Z3 Z10]
0.12697450725341428	[Z3 Z11]
0.15486406944942943	[Z3 Z12]
0.13893310687870294	[Z3 Z13]
-0.012340488488491126	[X4 X5 Y6 Y7]
0.007860522051860747	[X4 X5 Y6 Z7 Z8 Z9 Z10 Y11]
0.007860522051860747	[X4 X5 X7 Z8 Z9 X10]
-0.007003021344443048	[X4 X5 Y8 Y9]
-0.018110444216148297	[X4 X5 Y10 Y11]
-0.03860855979517793	[X4 X5 Y12 Y13]
0.012340488488491126	[X4 Y5 Y6 X7]
-0.007860522051860747	[X4 Y5 Y6 Z7 Z8 Z9 Z10 X11]
0.007860522051860747	[X4 Y5 Y7 Z8 Z9 X10]
0.007003021344443048	[X4 Y5 Y8 X9]
0.018110444216148297	[X4 Y5 Y10 X11]
0.03860855979517793	[X4 Y5 Y12 X13]
-0.0005595373320985168	[X4 Z5 X6 X7 Z8 Z9 Z10 Z11 Z12 X13]
-0.0005595373320985168	[X4 Z5 X6 Y7 Z8 Z9 Z10 Z11 Z12 Y13]
-0.00820703251310921	[X4 Z5 X6 X10 Z11 X12]
0.001157663043769091	[X4 Z5 X6 Y10 Z11 Y12]
0.013037234343184337	[X4 Z5 X6 X11 Z12 X13]
0.013037234343184337	[X4 Z5 X6 Y11 Z12 Y13]
-0.009364695556878303	[X4 Z5 Y6 Y10 Z11 X12]
-0.011879571299415243	[X4 Z5 Z6 X7 Y10 Z11 Z12 Y13]
-0.021244266856293544	[X4 Z5 Z6 X7 X11 X12]
0.011879571299415243	[X4 Z5 Z6 Y7 Y10 Z11 Z12 X13]
-0.021244266856293544	[X4 Z5 Z6 Y7 Y11 X12]
0.005943916107295255	[X4 Z5 Z6 Z7 X8 X9 Z10 Z11 Z12 X13]
0.005943916107295255	[X4 Z5 Z6 Z7 X8 Y9 Z10 Z11 Z12 Y13]
-0.01635868433813629	[X4 Z5 Z6 Z7 Z8 Z9 X10 X11 Z12 X13]
-0.01635868433813629	[X4 Z5 Z6 Z7 Z8 Z9 X10 Y11 Z12 Y13]
-0.3720110244002451	[X4 Z5 Z6 Z7 Z8 Z9 Z10 Z11 X12]
-0.023534524803267322	[X4 Z5 Z6 Z7 Z8 Z9 Z10 Z11 X12 Z13]
-0.009926341540777539	[X4 Z5 Z6 Z7 Z8 Z9 Z10 X12]
-0.026285025878913827	[X4 Z5 Z6 Z7 Z8 Z9 Z11 X12]
-0.04838116963807885	[X4 Z5 Z6 Z7 Z8 Z10 Z11 X12]
-0.04243725353078359	[X4 Z5 Z6 Z7 Z9 Z10 Z11 X12]
-0.03887286702666423	[X4 Z5 Z6 Z8 Z9 Z10 Z11 X12]
-0.039432404358762746	[X4 Z5 Z7 Z8 Z9 Z10 Z11 X12]
-0.02242126677595032	[X4 Z6 Z7 Z8 Z9 Z10 Z11 X12]
0.012340488488491126	[Y4 X5 X6 Y7]
-0.007860522051860747	[Y4 X5 X6 Z7 Z8 Z9 Z10 Y11]
0.007860522051860747	[Y4 X5 X7 Z8 Z9 Y10]
0.007003021344443048	[Y4 X5 X8 Y9]
0.018110444216148297	[Y4 X5 X10 Y11]
0.03860855979517793	[Y4 X5 X12 Y13]
-0.012340488488491126	[Y4 Y5 X6 X7]
0.007860522051860747	[Y4 Y5 X6 Z7 Z8 Z9 Z10 X11]
0.007860522051860747	[Y4 Y5 Y7 Z8 Z9 Y10]
-0.007003021344443048	[Y4 Y5 X8 X9]
-0.018110444216148297	[Y4 Y5 X10 X11]
-0.03860855979517793	[Y4 Y5 X12 X13]
-0.009364695556878303	[Y4 Z5 X6 X10 Z11 Y12]
-0.0005595373320985168	[Y4 Z5 Y6 X7 Z8 Z9 Z10 Z11 Z12 X13]
-0.0005595373320985168	[Y4 Z5 Y6 Y7 Z8 Z9 Z10 Z11 Z12 Y13]
0.001157663043769091	[Y4 Z5 Y6 X10 Z11 X12]
-0.00820703251310921	[Y4 Z5 Y6 Y10 Z11 Y12]
0.013037234343184337	[Y4 Z5 Y6 X11 Z12 X13]
0.013037234343184337	[Y4 Z5 Y6 Y11 Z12 Y13]
0.011879571299415243	[Y4 Z5 Z6 X7 X10 Z11 Z12 Y13]
-0.021244266856293544	[Y4 Z5 Z6 X7 X11 Y12]
-0.011879571299415243	[Y4 Z5 Z6 Y7 X10 Z11 Z12 X13]
-0.021244266856293544	[Y4 Z5 Z6 Y7 Y11 Y12]
0.005943916107295255	[Y4 Z5 Z6 Z7 Y8 X9 Z10 Z11 Z12 X13]
0.005943916107295255	[Y4 Z5 Z6 Z7 Y8 Y9 Z10 Z11 Z12 Y13]
-0.01635868433813629	[Y4 Z5 Z6 Z7 Z8 Z9 Y10 X11 Z12 X13]
-0.01635868433813629	[Y4 Z5 Z6 Z7 Z8 Z9 Y10 Y11 Z12 Y13]
-0.3720110244002451	[Y4 Z5 Z6 Z7 Z8 Z9 Z10 Z11 Y12]
-0.023534524803267322	[Y4 Z5 Z6 Z7 Z8 Z9 Z10 Z11 Y12 Z13]
-0.009926341540777539	[Y4 Z5 Z6 Z7 Z8 Z9 Z10 Y12]
-0.026285025878913827	[Y4 Z5 Z6 Z7 Z8 Z9 Z11 Y12]
-0.04838116963807885	[Y4 Z5 Z6 Z7 Z8 Z10 Z11 Y12]
-0.04243725353078359	[Y4 Z5 Z6 Z7 Z9 Z10 Z11 Y12]
-0.03887286702666423	[Y4 Z5 Z6 Z8 Z9 Z10 Z11 Y12]
-0.039432404358762746	[Y4 Z5 Z7 Z8 Z9 Z10 Z11 Y12]
-0.02242126677595032	[Y4 Z6 Z7 Z8 Z9 Z10 Z11 Y12]
1.1854042481875264	[Z4]
-0.022421266775950324	[Z4 X5 Z6 Z7 Z8 Z9 Z10 Z11 Z12 X13]
-0.022421266775950324	[Z4 Y5 Z6 Z7 Z8 Z9 Z10 Z11 Z12 Y13]
0.15523685373206167	[Z4 Z5]
-0.019030670347996607	[Z4 X6 Z7 Z8 Z9 X10]
-0.019030670347996607	[Z4 Y6 Z7 Z8 Z9 Y10]
0.13484372965466898	[Z4 Z6]
-0.011170148296135858	[Z4 X7 Z8 Z9 Z10 X11]
-0.011170148296135858	[Z4 Y7 Z8 Z9 Z10 Y11]
0.1471842181431601	[Z4 Z7]
0.14812204753691752	[Z4 Z8]
0.15512506888136057	[Z4 Z9]
0.12315746851499042	[Z4 Z10]
0.1412679127311387	[Z4 Z11]
0.11196336951840542	[Z4 Z12]
0.15057192931358337	[Z4 Z13]
0.0005595373320985169	[X5 X6 Y7 Z8 Z9 Z10 Z11 Y12]
-0.021244266856293544	[X5 X6 X10 Z11 Z12 X13]
-0.011879571299415243	[X5 X6 Y11 Y12]
-0.0005595373320985169	[X5 Y6 Y7 Z8 Z9 Z10 Z11 X12]
-0.021244266856293544	[X5 Y6 Y10 Z11 Z12 X13]
0.011879571299415243	[X5 Y6 Y11 X12]
0.013037234343184337	[X5 Z6 X7 X10 Z11 X12]
0.013037234343184337	[X5 Z6 X7 Y10 Z11 Y12]
-0.00820703251310921	[X5 Z6 X7 X11 Z12 X13]
0.001157663043769091	[X5 Z6 X7 Y11 Z12 Y13]
-0.009364695556878303	[X5 Z6 Y7 Y11 Z12 X13]
-0.005943916107295255	[X5 Z6 Z7 X8 Y9 Z10 Z11 Y12]
0.005943916107295255	[X5 Z6 Z7 Y8 Y9 Z10 Z11 X12]
0.01635868433813629	[X5 Z6 Z7 Z8 Z9 X10 Y11 Y12]
-0.01635868433813629	[X5 Z6 Z7 Z8 Z9 Y10 Y11 X12]
-0.3720110244002451	[X5 Z6 Z7 Z8 Z9 Z10 Z11 Z12 X13]
-0.023534524803267322	[X5 Z6 Z7 Z8 Z9 Z10 Z11 X13]
-0.026285025878913827	[X5 Z6 Z7 Z8 Z9 Z10 Z12 X13]
-0.009926341540777539	[X5 Z6 Z7 Z8 Z9 Z11 Z12 X13]
-0.04243725353078359	[X5 Z6 Z7 Z8 Z10 Z11 Z12 X13]
-0.04838116963807885	[X5 Z6 Z7 Z9 Z10 Z11 Z12 X13]
-0.039432404358762746	[X5 Z6 Z8 Z9 Z10 Z11 Z12 X13]
-0.03887286702666423	[X5 Z7 Z8 Z9 Z10 Z11 Z12 X13]
-0.0005595373320985169	[Y5 X6 X7 Z8 Z9 Z10 Z11 Y12]
-0.021244266856293544	[Y5 X6 X10 Z11 Z12 Y13]
0.011879571299415243	[Y5 X6 X11 Y12]
0.0005595373320985169	[Y5 Y6 X7 Z8 Z9 Z10 Z11 X12]
-0.021244266856293544	[Y5 Y6 Y10 Z11 Z12 Y13]
-0.011879571299415243	[Y5 Y6 X11 X12]
-0.009364695556878303	[Y5 Z6 X7 X11 Z12 Y13]
0.013037234343184337	[Y5 Z6 Y7 X10 Z11 X12]
0.013037234343184337	[Y5 Z6 Y7 Y10 Z11 Y12]
0.001157663043769091	[Y5 Z6 Y7 X11 Z12 X13]
-0.00820703251310921	[Y5 Z6 Y7 Y11 Z12 Y13]
0.005943916107295255	[Y5 Z6 Z7 X8 X9 Z10 Z11 Y12]
-0.005943916107295255	[Y5 Z6 Z7 Y8 X9 Z10 Z11 X12]
-0.01635868433813629	[Y5 Z6 Z7 Z8 Z9 X10 X11 Y12]
0.01635868433813629	[Y5 Z6 Z7 Z8 Z9 Y10 X11 X12]
-0.3720110244002451	[Y5 Z6 Z7 Z8 Z9 Z10 Z11 Z12 Y13]
-0.023534524803267322	[Y5 Z6 Z7 Z8 Z9 Z10 Z11 Y13]
-0.026285025878913827	[Y5 Z6 Z7 Z8 Z9 Z10 Z12 Y13]
-0.009926341540777539	[Y5 Z6 Z7 Z8 Z9 Z11 Z12 Y13]
-0.04243725353078359	[Y5 Z6 Z7 Z8 Z10 Z11 Z12 Y13]
-0.04838116963807885	[Y5 Z6 Z7 Z9 Z10 Z11 Z12 Y13]
-0.039432404358762746	[Y5 Z6 Z8 Z9 Z10 Z11 Z12 Y13]
-0.03887286702666423	[Y5 Z7 Z8 Z9 Z10 Z11 Z12 Y13]
1.1854042481875267	[Z5]
-0.011170148296135858	[Z5 X6 Z7 Z8 Z9 X10]
-0.011170148296135858	[Z5 Y6 Z7 Z8 Z9 Y10]
0.1471842181431601	[Z5 Z6]
-0.019030670347996607	[Z5 X7 Z8 Z9 Z10 X11]
-0.019030670347996607	[Z5 Y7 Z8 Z9 Z10 Y11]
0.13484372965466898	[Z5 Z7]
0.15512506888136057	[Z5 Z8]
0.14812204753691752	[Z5 Z9]
0.1412679127311387	[Z5 Z10]
0.12315746851499042	[Z5 Z11]
0.15057192931358337	[Z5 Z12]
0.11196336951840542	[Z5 Z13]
-0.013466902134238413	[X6 X7 Y8 Y9]
-0.019117843528031045	[X6 X7 Y10 Y11]
-0.017383886184446886	[X6 X7 Y12 Y13]
0.013466902134238413	[X6 Y7 Y8 X9]
0.019117843528031045	[X6 Y7 Y10 X11]
0.017383886184446886	[X6 Y7 Y12 X13]
9.155287910901006e-05	[X6 Z7 X8 X9 Z10 X11]
9.155287910901006e-05	[X6 Z7 X8 Y9 Z10 Y11]
-0.23864966147316005	[X6 Z7 Z8 Z9 X10]
-0.011673762499068159	[X6 Z7 Z8 Z9 X10 Z11]
-0.025800550717960214	[X6 Z7 Z8 Z9 X10 Z12]
-0.011117244932909276	[X6 Z7 Z8 Z9 X10 Z13]
0.01468330578505094	[X6 Z7 Z8 Z9 Z10 X11 Y12 Y13]
-0.01468330578505094	[X6 Z7 Z8 Z9 Z10 Y11 Y12 X13]
-0.03144543565121438	[X6 Z7 Z8 X10]
-0.03135388277210538	[X6 Z7 Z9 X10]
-0.03144040942944641	[X6 Z8 Z9 X10]
0.013466902134238413	[Y6 X7 X8 Y9]
0.019117843528031045	[Y6 X7 X10 Y11]
0.017383886184446886	[Y6 X7 X12 Y13]
-0.013466902134238413	[Y6 Y7 X8 X9]
-0.019117843528031045	[Y6 Y7 X10 X11]
-0.017383886184446886	[Y6 Y7 X12 X13]
9.155287910901006e-05	[Y6 Z7 Y8 X9 Z10 X11]
9.155287910901006e-05	[Y6 Z7 Y8 Y9 Z10 Y11]
-0.23864966147316005	[Y6 Z7 Z8 Z9 Y10]
-0.011673762499068159	[Y6 Z7 Z8 Z9 Y10 Z11]
-0.025800550717960214	[Y6 Z7 Z8 Z9 Y10 Z12]
-0.011117244932909276	[Y6 Z7 Z8 Z9 Y10 Z13]
-0.01468330578505094	[Y6 Z7 Z8 Z9 Z10 X11 X12 Y13]
0.01468330578505094	[Y6 Z7 Z8 Z9 Z10 Y11 X12 X13]
-0.03144543565121438	[Y6 Z7 Z8 Y10]
-0.03135388277210538	[Y6 Z7 Z9 Y10]
-0.03144040942944641	[Y6 Z8 Z9 Y10]
1.2936171855069736	[Z6]
-0.03144040942944641	[Z6 X7 Z8 Z9 Z10 X11]
-0.03144040942944641	[Z6 Y7 Z8 Z9 Z10 Y11]
0.19006270292178576	[Z6 Z7]
0.1662584656632764	[Z6 Z8]
0.1797253677975148	[Z6 Z9]
0.11781746523800699	[Z6 Z10]
0.13693530876603804	[Z6 Z11]
0.13265305480230272	[Z6 Z12]
0.1500369409867496	[Z6 Z13]
-9.155287910901006e-05	[X7 X8 Y9 Y10]
9.155287910901006e-05	[X7 Y8 Y9 X10]
0.014683305785050942	[X7 Z8 Z9 X10 X12 X13]
0.014683305785050942	[X7 Z8 Z9 Y10 Y12 X13]
-0.23864966147316008	[X7 Z8 Z9 Z10 X11]
-0.011117244932909276	[X7 Z8 Z9 Z10 X11 Z12]
-0.025800550717960214	[X7 Z8 Z9 Z10 X11 Z13]
-0.011673762499068159	[X7 Z8 Z9 X11]
-0.03135388277210538	[X7 Z8 Z10 X11]
-0.03144543565121438	[X7 Z9 Z10 X11]
9.155287910901006e-05	[Y7 X8 X9 Y10]
-9.155287910901006e-05	[Y7 Y8 X9 X10]
0.014683305785050942	[Y7 Z8 Z9 X10 X12 Y13]
0.014683305785050942	[Y7 Z8 Z9 Y10 Y12 Y13]
-0.23864966147316008	[Y7 Z8 Z9 Z10 Y11]
-0.011117244932909276	[Y7 Z8 Z9 Z10 Y11 Z12]
-0.025800550717960214	[Y7 Z8 Z9 Z10 Y11 Z13]
-0.011673762499068159	[Y7 Z8 Z9 Y11]
-0.03135388277210538	[Y7 Z8 Z10 Y11]
-0.03144543565121438	[Y7 Z9 Z10 Y11]
1.2936171855069736	[Z7]
0.1797253677975148	[Z7 Z8]
0.1662584656632764	[Z7 Z9]
0.13693530876603804	[Z7 Z10]
0.11781746523800699	[Z7 Z11]
0.1500369409867496	[Z7 Z12]
0.13265305480230272	[Z7 Z13]
-0.009334193286511692	[X8 X9 Y10 Y11]
-0.006152778635326235	[X8 X9 Y12 Y13]
0.009334193286511692	[X8 Y9 Y10 X11]
0.006152778635326235	[X8 Y9 Y12 X13]
0.009334193286511692	[Y8 X9 X10 Y11]
0.006152778635326235	[Y8 X9 X12 Y13]
-0.009334193286511692	[Y8 Y9 X10 X11]
-0.006152778635326235	[Y8 Y9 X12 X13]
1.3651822735222456	[Z8]
0.2200397733437608	[Z8 Z9]
0.13706061665660055	[Z8 Z10]
0.14639480994311221	[Z8 Z11]
0.14899182228688646	[Z8 Z12]
0.1551446009222127	[Z8 Z13]
1.365182273522245	[Z9]
0.14639480994311221	[Z9 Z10]
0.13706061665660055	[Z9 Z11]
0.1551446009222127	[Z9 Z12]
0.14899182228688646	[Z9 Z13]
-0.028685739103842093	[X10 X11 Y12 Y13]
0.028685739103842093	[X10 Y11 Y12 X13]
0.028685739103842093	[Y10 X11 X12 Y13]
-0.028685739103842093	[Y10 Y11 X12 X13]
0.7896758444030181	[Z10]
0.14828259345558964	[Z10 Z11]
0.11173558135133868	[Z10 Z12]
0.14042132045518077	[Z10 Z13]
0.7896758444030181	[Z11]
0.14042132045518077	[Z11 Z12]
0.11173558135133868	[Z11 Z13]
0.816223096575642	[Z12]
0.15322155679383576	[Z12 Z13]
0.816223096575642	[Z13]